top.vcd
$version Generated by VerilatedVcd $end
$date Thu Nov 30 22:15:09 2023 $end
$timescale 1ps $end

 $scope module TOP $end
  $var wire 32 h a0 [31:0] $end
  $var wire  1 e clk $end
  $var wire  1 g rst $end
  $var wire  1 f trigger $end
  $scope module top $end
   $var wire 12 Z A [11:0] $end
   $var wire  5 [ A1 [4:0] $end
   $var wire  5 \ A2 [4:0] $end
   $var wire  5 ] A3 [4:0] $end
   $var wire  3 V ALUControl [2:0] $end
   $var wire 32 & ALUResult [31:0] $end
   $var wire  1 R ALUSrcA $end
   $var wire  1 S ALUSrcB $end
   $var wire 25 ^ Imm [24:0] $end
   $var wire 32 J ImmExt [31:0] $end
   $var wire  3 T ImmSrc [2:0] $end
   $var wire 32 L Instr [31:0] $end
   $var wire  1 Y JalSrc $end
   $var wire  1 W LdSrc $end
   $var wire  1 Q MemWrite $end
   $var wire 32 K PC [31:0] $end
   $var wire  1 i PCSrc $end
   $var wire 32 I PC_Plus [31:0] $end
   $var wire 32 $ RD1 [31:0] $end
   $var wire 32 k ReadData [31:0] $end
   $var wire  1 U RegWrite $end
   $var wire 32 j Result [31:0] $end
   $var wire  2 P ResultSrc [1:0] $end
   $var wire  1 X StSrc $end
   $var wire 32 % WriteData [31:0] $end
   $var wire  1 # Zero $end
   $var wire 32 h a0 [31:0] $end
   $var wire  1 e clk $end
   $var wire  1 O func75 $end
   $var wire  3 N funct3 [2:0] $end
   $var wire  7 M opcode [6:0] $end
   $var wire  1 g rst $end
   $var wire  1 f trigger $end
   $scope module my_DataMux $end
    $var wire 32 & ALUResult [31:0] $end
    $var wire 32 I PCPlus [31:0] $end
    $var wire 32 k RD [31:0] $end
    $var wire 32 j Result [31:0] $end
    $var wire  2 P ResultSrc [1:0] $end
   $upscope $end
   $scope module my_alu_top $end
    $var wire  3 V ALUControl [2:0] $end
    $var wire 32 & ALUResult [31:0] $end
    $var wire  1 R ALUSrcA $end
    $var wire  1 S ALUSrcB $end
    $var wire 32 J ImmExt [31:0] $end
    $var wire 32 K PC [31:0] $end
    $var wire 32 $ RD1 [31:0] $end
    $var wire 32 % RD2 [31:0] $end
    $var wire 32 ' SrcA [31:0] $end
    $var wire 32 ( SrcB [31:0] $end
    $var wire  1 # Zero $end
   $upscope $end
   $scope module my_control_unit $end
    $var wire  3 V ALUControl [2:0] $end
    $var wire  2 _ ALUOp [1:0] $end
    $var wire  1 R ALUSrcA $end
    $var wire  1 S ALUSrcB $end
    $var wire  1 ` Branch $end
    $var wire  3 T ImmSrc [2:0] $end
    $var wire  1 Y JalSrc $end
    $var wire  1 a Jump $end
    $var wire  1 W LdSrc $end
    $var wire  1 Q MemWrite $end
    $var wire  1 i PCSrc $end
    $var wire  1 U RegWrite $end
    $var wire  2 P ResultSrc [1:0] $end
    $var wire  1 X StSrc $end
    $var wire  1 # Zero $end
    $var wire  1 O func75 $end
    $var wire  3 N funct3 [2:0] $end
    $var wire  1 b op5 $end
    $var wire  7 M opcode [6:0] $end
    $scope module ALU_decode $end
     $var wire  3 V ALUControl [2:0] $end
     $var wire  2 _ ALUOp [1:0] $end
     $var wire  2 c decode [1:0] $end
     $var wire  1 O func75 $end
     $var wire  3 N funct3 [2:0] $end
     $var wire  1 b op5 $end
    $upscope $end
    $scope module PCSrc_decode $end
     $var wire  1 ` Branch $end
     $var wire  1 a Jump $end
     $var wire  1 i PCSrc $end
     $var wire  1 # Zero $end
     $var wire  3 N funct3 [2:0] $end
    $upscope $end
    $scope module main_decode $end
     $var wire  2 _ ALUOp [1:0] $end
     $var wire  1 R ALUSrcA $end
     $var wire  1 S ALUSrcB $end
     $var wire  1 ` Branch $end
     $var wire  3 T ImmSrc [2:0] $end
     $var wire  1 Y JalSrc $end
     $var wire  1 a Jump $end
     $var wire  1 W LdSrc $end
     $var wire  1 Q MemWrite $end
     $var wire  1 U RegWrite $end
     $var wire  2 P ResultSrc [1:0] $end
     $var wire  1 X StSrc $end
     $var wire  3 N funct3 [2:0] $end
     $var wire  7 M opcode [6:0] $end
    $upscope $end
   $upscope $end
   $scope module my_data_memory $end
    $var wire 32 & A [31:0] $end
    $var wire 32 n DATA_WIDTH [31:0] $end
    $var wire  1 W LdSrc $end
    $var wire 32 k RD [31:0] $end
    $var wire  1 X StSrc $end
    $var wire 32 % WD [31:0] $end
    $var wire  1 Q WE $end
    $var wire  1 e clk $end
   $upscope $end
   $scope module my_extend $end
    $var wire 25 ^ Imm [31:7] $end
    $var wire 32 J ImmExt [31:0] $end
    $var wire  3 T ImmSrc [2:0] $end
   $upscope $end
   $scope module my_instr_mem $end
    $var wire 12 Z A [11:0] $end
    $var wire 32 o A_length [31:0] $end
    $var wire 32 p D_length [31:0] $end
    $var wire 32 L RD [31:0] $end
   $upscope $end
   $scope module my_pc_top $end
    $var wire 32 J ImmExt [31:0] $end
    $var wire  1 Y JalSrc $end
    $var wire 32 K PC [31:0] $end
    $var wire  1 i PCSrc $end
    $var wire 32 d PC_Jump [31:0] $end
    $var wire 32 m PC_Next [31:0] $end
    $var wire 32 I PC_Plus [31:0] $end
    $var wire 32 l PC_Target [31:0] $end
    $var wire 32 n PC_WIDTH [31:0] $end
    $var wire 32 $ RD1 [31:0] $end
    $var wire  1 e clk $end
    $var wire  1 g rst $end
   $upscope $end
   $scope module my_reg_file $end
    $var wire  5 [ A1 [4:0] $end
    $var wire  5 \ A2 [4:0] $end
    $var wire  5 ] A3 [4:0] $end
    $var wire 32 $ RD1 [31:0] $end
    $var wire 32 % RD2 [31:0] $end
    $var wire 32 j WD3 [31:0] $end
    $var wire  1 U WE3 $end
    $var wire 32 h a0 [31:0] $end
    $var wire  1 e clk $end
    $var wire 32 ) mem[0] [31:0] $end
    $var wire 32 3 mem[10] [31:0] $end
    $var wire 32 4 mem[11] [31:0] $end
    $var wire 32 5 mem[12] [31:0] $end
    $var wire 32 6 mem[13] [31:0] $end
    $var wire 32 7 mem[14] [31:0] $end
    $var wire 32 8 mem[15] [31:0] $end
    $var wire 32 9 mem[16] [31:0] $end
    $var wire 32 : mem[17] [31:0] $end
    $var wire 32 ; mem[18] [31:0] $end
    $var wire 32 < mem[19] [31:0] $end
    $var wire 32 * mem[1] [31:0] $end
    $var wire 32 = mem[20] [31:0] $end
    $var wire 32 > mem[21] [31:0] $end
    $var wire 32 ? mem[22] [31:0] $end
    $var wire 32 @ mem[23] [31:0] $end
    $var wire 32 A mem[24] [31:0] $end
    $var wire 32 B mem[25] [31:0] $end
    $var wire 32 C mem[26] [31:0] $end
    $var wire 32 D mem[27] [31:0] $end
    $var wire 32 E mem[28] [31:0] $end
    $var wire 32 F mem[29] [31:0] $end
    $var wire 32 + mem[2] [31:0] $end
    $var wire 32 G mem[30] [31:0] $end
    $var wire 32 H mem[31] [31:0] $end
    $var wire 32 , mem[3] [31:0] $end
    $var wire 32 - mem[4] [31:0] $end
    $var wire 32 . mem[5] [31:0] $end
    $var wire 32 / mem[6] [31:0] $end
    $var wire 32 0 mem[7] [31:0] $end
    $var wire 32 1 mem[8] [31:0] $end
    $var wire 32 2 mem[9] [31:0] $end
    $var wire  1 f trigger $end
   $upscope $end
  $upscope $end
 $upscope $end
$enddefinitions $end


#0
0#
b00000000000000000000000000000000 $
b00000000000000000000000000000000 %
b00000000000000000000000000000000 &
b00000000000000000000000000000000 '
b00000000000000000000000000000000 (
b00000000000000000000000000000000 )
b00000000000000000000000000000000 *
b00000000000000000000000000000000 +
b00000000000000000000000000000000 ,
b00000000000000000000000000000000 -
b00000000000000000000000000000000 .
b00000000000000000000000000000000 /
b00000000000000000000000000000000 0
b00000000000000000000000000000000 1
b00000000000000000000000000000000 2
b00000000000000000000000000000000 3
b00000000000000000000000000000000 4
b00000000000000000000000000000000 5
b00000000000000000000000000000000 6
b00000000000000000000000000000000 7
b00000000000000000000000000000000 8
b00000000000000000000000000000000 9
b00000000000000000000000000000000 :
b00000000000000000000000000000000 ;
b00000000000000000000000000000000 <
b00000000000000000000000000000000 =
b00000000000000000000000000000000 >
b00000000000000000000000000000000 ?
b00000000000000000000000000000000 @
b00000000000000000000000000000000 A
b00000000000000000000000000000000 B
b00000000000000000000000000000000 C
b00000000000000000000000000000000 D
b00000000000000000000000000000000 E
b00000000000000000000000000000000 F
b00000000000000000000000000000000 G
b00000000000000000000000000000000 H
b00000000000000000000000000000100 I
b00000000000000000000000000000000 J
b00000000000000000000000000000000 K
b00000000000000000000000000000000 L
b0000000 M
b000 N
0O
b00 P
0Q
0R
0S
b000 T
0U
b000 V
0W
0X
0Y
b000000000000 Z
b00000 [
b00000 \
b00000 ]
b0000000000000000000000000 ^
b00 _
0`
0a
0b
b00 c
b00000000000000000000000000000000 d
1e
0f
0g
b00000000000000000000000000000000 h
0i
b00000000000000000000000000000000 j
b00000000000000000000000000000000 k
b00000000000000000000000000000000 l
b00000000000000000000000000000100 m
b00000000000000000000000000100000 n
b00000000000000000000000000001100 o
b00000000000000000000000000001000 p
#1
b00000000000000000000000000000001 &
b00000000000000000000000000000001 (
b00000000000000000000000000000001 J
b00000000000100000000010010010011 L
b0010011 M
1S
1U
b00001 \
b01001 ]
b0000000000010000000001001 ^
b00000000000000000000000000000001 d
0e
b00000000000000000000000000000001 j
#2
b00000000000000000000000011111111 &
b00000000000000000000000011111111 (
b00000000000000000000000000000001 2
b00000000000000000000000000001000 I
b00000000000000000000000011111111 J
b00000000000000000000000000000100 K
b00001111111100000000100100010011 L
b000000000100 Z
b11111 \
b10010 ]
b0000111111110000000010010 ^
b00000000000000000000000100000011 d
1e
1f
b00000000000000000000000011111111 j
b00000000000000000000000000001000 m
#3
b00000000000000000000000000000001 .
0e
#4
b00000000000000000000000000000011 &
b00000000000000000000000000000011 (
b00000000000000000000000011111111 ;
b00000000000000000000000000001100 I
b00000000000000000000000000000011 J
b00000000000000000000000000001000 K
b00000000001100000000100110010011 L
b000000001000 Z
b00011 \
b10011 ]
b0000000000110000000010011 ^
b00000000000000000000000000001011 d
1e
b00000000000000000000000000000011 j
b00000000000000000000000000001100 m
#5
0e
#6
b00000000000000000000000000000001 &
b00000000000000000000000000000001 (
b00000000000000000000000000000011 <
b00000000000000000000000000010000 I
b00000000000000000000000000000001 J
b00000000000000000000000000001100 K
b00000000000100000000011010010011 L
b000000001100 Z
b00001 \
b01101 ]
b0000000000010000000001101 ^
b00000000000000000000000000001101 d
1e
b00000000000000000000000000000001 j
b00000000000000000000000000010000 m
#7
0e
#8
1#
b00000000000000000000000000000000 &
b00000000000000000000000000000000 (
b00000000000000000000000000000001 6
b00000000000000000000000000010100 I
b00000000000000000000000000000000 J
b00000000000000000000000000010000 K
b00000000000000000000000000010011 L
b000000010000 Z
b00000 \
b00000 ]
b0000000000000000000000000 ^
b00000000000000000000000000010000 d
1e
b00000000000000000000000000000000 j
b00000000000000000000000000010100 m
#9
0e
#10
b00000000000000000000000000011000 I
b00000000000000000000000000010100 K
b000000010100 Z
b00000000000000000000000000010100 d
1e
b00000000000000000000000000011000 m
#11
0e
#12
b00000000000000000000000000011100 I
b00000000000000000000000000011000 K
b00000000000000000000010100010011 L
b000000011000 Z
b01010 ]
b0000000000000000000001010 ^
b00000000000000000000000000011000 d
1e
b00000000000000000000000000011100 m
#13
0e
#14
b00000000000000000000000000100000 I
b00000000000000000000000000011100 K
b00000000000000000000011100010011 L
b000000011100 Z
b01110 ]
b0000000000000000000001110 ^
b00000000000000000000000000011100 d
1e
b00000000000000000000000000100000 m
#15
0e
#16
b00000000000000000000000000100100 I
b00000000000000000000000000100000 K
b00000000000000000000001010010011 L
b000000100000 Z
b00101 ]
b0000000000000000000000101 ^
b00000000000000000000000000100000 d
1e
b00000000000000000000000000100100 m
#17
0e
#18
b00000000000000000000000000000000 .
b00000000000000000000000000101000 I
b00000000000000000000000000100100 K
b00000000000000000000000000010011 L
b000000100100 Z
b00000 ]
b0000000000000000000000000 ^
b00000000000000000000000000100100 d
1e
b00000000000000000000000000101000 m
#19
b00000000000000000000000000000001 .
0e
#20
b00000000000000000000000000101100 I
b00000000000000000000000000101000 K
b000000101000 Z
b00000000000000000000000000101000 d
1e
b00000000000000000000000000101100 m
#21
0e
#22
b00000000000000000000000000000001 $
b00000000000000000000000000000001 %
b00000000000000000000000000000001 '
b00000000000000000000000000000001 (
b00000000000000000000000000110000 I
b00000000000000000000000001101100 J
b00000000000000000000000000101100 K
b00000110100100101000011001100011 L
b1100011 M
0S
b010 T
0U
b001 V
1Y
b000000101100 Z
b00101 [
b01001 \
b01100 ]
b0000011010010010100001100 ^
b01 _
1`
1b
b10 c
b00000000000000000000000010011000 d
1e
1i
b00000000000000000000000010011000 l
b00000000000000000000000010011000 m
#23
0e
#24
b00000000000000000000000000000000 $
b00000000000000000000000000000000 %
b00000000000000000000000000000000 '
b00000000000000000000000000000000 (
b00000000000000000000000010011100 I
b00000000000000000000000000000000 J
b00000000000000000000000010011000 K
b00000000000000000000000000010011 L
b0010011 M
1S
b000 T
1U
b000 V
0Y
b000010011000 Z
b00000 [
b00000 \
b00000 ]
b0000000000000000000000000 ^
b00 _
0`
0b
b00 c
1e
0i
b00000000000000000000000000000000 l
b00000000000000000000000010011100 m
#25
0e
#26
b00000000000000000000000010100000 I
b00000000000000000000000010011100 K
b000010011100 Z
b00000000000000000000000010011100 d
1e
b00000000000000000000000010100000 m
#27
0e
#28
b00000000000000000000000010100100 I
b00000000000000000000000001010100 J
b00000000000000000000000010100000 K
b00000101010000000000000011101111 L
b1101111 M
b10 P
0S
b011 T
1Y
b000010100000 Z
b10100 \
b00001 ]
b0000010101000000000000001 ^
1a
1b
b10 c
b00000000000000000000000011110100 d
1e
1i
b00000000000000000000000010100100 j
b00000000000000000000000011110100 l
b00000000000000000000000011110100 m
#29
0e
#30
b00000000000000000000000010100100 *
b00000000000000000000000011111000 I
b00000000000000000000000000000000 J
b00000000000000000000000011110100 K
b00000000000000000000000000010011 L
b0010011 M
b00 P
1S
b000 T
0Y
b000011110100 Z
b00000 \
b00000 ]
b0000000000000000000000000 ^
0a
0b
b00 c
1e
0i
b00000000000000000000000000000000 j
b00000000000000000000000000000000 l
b00000000000000000000000011111000 m
#31
0e
#32
b00000000000000000000000011111100 I
b00000000000000000000000011111000 K
b000011111000 Z
b00000000000000000000000011111000 d
1e
b00000000000000000000000011111100 m
#33
0e
#34
0#
b00000000000000000000000010100100 %
b00000000000000000000000000000001 &
b00000000000000000000000000000001 (
b00000000000000000000000100000000 I
b00000000000000000000000000000001 J
b00000000000000000000000011111100 K
b00000000000101011000010110010011 L
b000011111100 Z
b01011 [
b00001 \
b01011 ]
b0000000000010101100001011 ^
b00000000000000000000000011111101 d
1e
b00000000000000000000000000000001 j
b00000000000000000000000100000000 m
#35
0e
#36
1#
b00000000000000000000000000000000 %
b00000000000000000000000000000000 &
b00000000000000000000000000000000 (
b00000000000000000000000000000001 4
b00000000000000000000000100000100 I
b00000000000000000000000000000000 J
b00000000000000000000000100000000 K
b00000000000000000000000000010011 L
b000100000000 Z
b00000 [
b00000 \
b00000 ]
b0000000000000000000000000 ^
b00000000000000000000000100000000 d
1e
b00000000000000000000000000000000 j
b00000000000000000000000100000100 m
#37
0e
#38
b00000000000000000000000100001000 I
b00000000000000000000000100000100 K
b000100000100 Z
b00000000000000000000000100000100 d
1e
b00000000000000000000000100001000 m
#39
0e
#40
b00000000000000000000000100001100 I
b00000000000000000000000100001000 K
b000100001000 Z
b00000000000000000000000100001000 d
1e
b00000000000000000000000100001100 m
#41
0e
#42
0#
b00000000000000000000000000000001 $
b00000000000000000000000000000011 %
b11111111111111111111111111111110 &
b00000000000000000000000000000001 '
b00000000000000000000000000000011 (
b00000000000000000000000100010000 I
b11111111111111111111111111101000 J
b00000000000000000000000100001100 K
b11111111001101011001010011100011 L
b1100011 M
b001 N
1O
0S
b010 T
0U
b001 V
1Y
b000100001100 Z
b01011 [
b10011 \
b01001 ]
b1111111100110101100101001 ^
b01 _
1`
1b
b11 c
b00000000000000000000000011110100 d
1e
1i
b11111111111111111111111111111110 j
b00000000000000000000000011001010 k
b00000000000000000000000011110100 l
b00000000000000000000000011110100 m
#43
0e
#44
1#
b00000000000000000000000000000000 $
b00000000000000000000000000000000 %
b00000000000000000000000000000000 &
b00000000000000000000000000000000 '
b00000000000000000000000000000000 (
b00000000000000000000000011111000 I
b00000000000000000000000000000000 J
b00000000000000000000000011110100 K
b00000000000000000000000000010011 L
b0010011 M
b000 N
0O
1S
b000 T
1U
b000 V
0Y
b000011110100 Z
b00000 [
b00000 \
b00000 ]
b0000000000000000000000000 ^
b00 _
0`
0b
b00 c
1e
0i
b00000000000000000000000000000000 j
b00000000000000000000000000000000 k
b00000000000000000000000000000000 l
b00000000000000000000000011111000 m
#45
0e
#46
b00000000000000000000000011111100 I
b00000000000000000000000011111000 K
b000011111000 Z
b00000000000000000000000011111000 d
1e
b00000000000000000000000011111100 m
#47
0e
#48
0#
b00000000000000000000000000000001 $
b00000000000000000000000010100100 %
b00000000000000000000000000000010 &
b00000000000000000000000000000001 '
b00000000000000000000000000000001 (
b00000000000000000000000100000000 I
b00000000000000000000000000000001 J
b00000000000000000000000011111100 K
b00000000000101011000010110010011 L
b000011111100 Z
b01011 [
b00001 \
b01011 ]
b0000000000010101100001011 ^
b00000000000000000000000011111101 d
1e
b00000000000000000000000000000010 j
b00000000000000000000000000000001 l
b00000000000000000000000100000000 m
#49
0e
#50
1#
b00000000000000000000000000000000 $
b00000000000000000000000000000000 %
b00000000000000000000000000000000 &
b00000000000000000000000000000000 '
b00000000000000000000000000000000 (
b00000000000000000000000000000010 4
b00000000000000000000000100000100 I
b00000000000000000000000000000000 J
b00000000000000000000000100000000 K
b00000000000000000000000000010011 L
b000100000000 Z
b00000 [
b00000 \
b00000 ]
b0000000000000000000000000 ^
b00000000000000000000000100000000 d
1e
b00000000000000000000000000000000 j
b00000000000000000000000000000000 l
b00000000000000000000000100000100 m
#51
0e
#52
b00000000000000000000000100001000 I
b00000000000000000000000100000100 K
b000100000100 Z
b00000000000000000000000100000100 d
1e
b00000000000000000000000100001000 m
#53
0e
#54
b00000000000000000000000100001100 I
b00000000000000000000000100001000 K
b000100001000 Z
b00000000000000000000000100001000 d
1e
b00000000000000000000000100001100 m
#55
0e
#56
0#
b00000000000000000000000000000010 $
b00000000000000000000000000000011 %
b11111111111111111111111111111111 &
b00000000000000000000000000000010 '
b00000000000000000000000000000011 (
b00000000000000000000000100010000 I
b11111111111111111111111111101000 J
b00000000000000000000000100001100 K
b11111111001101011001010011100011 L
b1100011 M
b001 N
1O
0S
b010 T
0U
b001 V
1Y
b000100001100 Z
b01011 [
b10011 \
b01001 ]
b1111111100110101100101001 ^
b01 _
1`
1b
b11 c
b00000000000000000000000011110100 d
1e
1i
b11111111111111111111111111111111 j
b00000000000000000000000011011110 k
b00000000000000000000000011110100 l
b00000000000000000000000011110100 m
#57
0e
#58
1#
b00000000000000000000000000000000 $
b00000000000000000000000000000000 %
b00000000000000000000000000000000 &
b00000000000000000000000000000000 '
b00000000000000000000000000000000 (
b00000000000000000000000011111000 I
b00000000000000000000000000000000 J
b00000000000000000000000011110100 K
b00000000000000000000000000010011 L
b0010011 M
b000 N
0O
1S
b000 T
1U
b000 V
0Y
b000011110100 Z
b00000 [
b00000 \
b00000 ]
b0000000000000000000000000 ^
b00 _
0`
0b
b00 c
1e
0i
b00000000000000000000000000000000 j
b00000000000000000000000000000000 k
b00000000000000000000000000000000 l
b00000000000000000000000011111000 m
#59
0e
#60
b00000000000000000000000011111100 I
b00000000000000000000000011111000 K
b000011111000 Z
b00000000000000000000000011111000 d
1e
b00000000000000000000000011111100 m
#61
0e
#62
0#
b00000000000000000000000000000010 $
b00000000000000000000000010100100 %
b00000000000000000000000000000011 &
b00000000000000000000000000000010 '
b00000000000000000000000000000001 (
b00000000000000000000000100000000 I
b00000000000000000000000000000001 J
b00000000000000000000000011111100 K
b00000000000101011000010110010011 L
b000011111100 Z
b01011 [
b00001 \
b01011 ]
b0000000000010101100001011 ^
b00000000000000000000000011111101 d
1e
b00000000000000000000000000000011 j
b00000000000000000000000000000010 l
b00000000000000000000000100000000 m
#63
0e
#64
1#
b00000000000000000000000000000000 $
b00000000000000000000000000000000 %
b00000000000000000000000000000000 &
b00000000000000000000000000000000 '
b00000000000000000000000000000000 (
b00000000000000000000000000000011 4
b00000000000000000000000100000100 I
b00000000000000000000000000000000 J
b00000000000000000000000100000000 K
b00000000000000000000000000010011 L
b000100000000 Z
b00000 [
b00000 \
b00000 ]
b0000000000000000000000000 ^
b00000000000000000000000100000000 d
1e
b00000000000000000000000000000000 j
b00000000000000000000000000000000 l
b00000000000000000000000100000100 m
#65
0e
#66
b00000000000000000000000100001000 I
b00000000000000000000000100000100 K
b000100000100 Z
b00000000000000000000000100000100 d
1e
b00000000000000000000000100001000 m
#67
0e
#68
b00000000000000000000000100001100 I
b00000000000000000000000100001000 K
b000100001000 Z
b00000000000000000000000100001000 d
1e
b00000000000000000000000100001100 m
#69
0e
#70
b00000000000000000000000000000011 $
b00000000000000000000000000000011 %
b00000000000000000000000000000011 '
b00000000000000000000000000000011 (
b00000000000000000000000100010000 I
b11111111111111111111111111101000 J
b00000000000000000000000100001100 K
b11111111001101011001010011100011 L
b1100011 M
b001 N
1O
0S
b010 T
0U
b001 V
1Y
b000100001100 Z
b01011 [
b10011 \
b01001 ]
b1111111100110101100101001 ^
b01 _
1`
1b
b11 c
b00000000000000000000000011110100 d
1e
b00000000000000000000000011110100 l
b00000000000000000000000100010000 m
#71
0e
#72
b00000000000000000000000000000000 $
b00000000000000000000000000000000 %
b00000000000000000000000000000000 '
b00000000000000000000000000000000 (
b00000000000000000000000100010100 I
b00000000000000000000000000000000 J
b00000000000000000000000100010000 K
b00000000000000000000000000010011 L
b0010011 M
b000 N
0O
1S
b000 T
1U
b000 V
0Y
b000100010000 Z
b00000 [
b00000 \
b00000 ]
b0000000000000000000000000 ^
b00 _
0`
0b
b00 c
b00000000000000000000000100010000 d
1e
b00000000000000000000000000000000 l
b00000000000000000000000100010100 m
#73
0e
#74
b00000000000000000000000100011000 I
b00000000000000000000000100010100 K
b000100010100 Z
b00000000000000000000000100010100 d
1e
b00000000000000000000000100011000 m
#75
0e
#76
b00000000000000000000000100011100 I
b00000000000000000000000100011000 K
b00000000000000000000010110010011 L
b000100011000 Z
b01011 ]
b0000000000000000000001011 ^
b00000000000000000000000100011000 d
1e
b00000000000000000000000100011100 m
#77
0e
#78
0#
b00000000000000000000000010100100 $
b00000000000000000000000010100100 &
b00000000000000000000000010100100 '
b00000000000000000000000000000000 4
b00000000000000000000000100100000 I
b00000000000000000000000100011100 K
b00000000000000001000000001100111 L
b1100111 M
b10 P
b000100011100 Z
b00001 [
b00000 ]
b0000000000000000100000000 ^
1a
1b
b10 c
b00000000000000000000000100011100 d
1e
1i
b00000000000000000000000100100000 j
b00000000000000000000000010100100 l
b00000000000000000000000010100100 m
#79
0e
#80
b00000000000000000000000100100000 $
b00000000000000000000000100100000 %
b00000000000000000000000100100000 &
b00000000000000000000000100100000 '
b00000000000000000000000100100000 )
b00000000000000000000000010101000 I
b00000000000000000000000010100100 K
b00000000000000000000000000010011 L
b0010011 M
b00 P
b000010100100 Z
b00000 [
b0000000000000000000000000 ^
0a
0b
b00 c
b00000000000000000000000010100100 d
1e
0i
b00000000000000000000000100100000 l
b00000000000000000000000010101000 m
#81
0e
#82
b00000000000000000000000010101100 I
b00000000000000000000000010101000 K
b000010101000 Z
b00000000000000000000000010101000 d
1e
b00000000000000000000000010101100 m
#83
0e
#84
b00000000000000000000000010110000 I
b00000000000000000000000010101100 K
b000010101100 Z
b00000000000000000000000010101100 d
1e
b00000000000000000000000010110000 m
#85
0e
#86
1#
b00000000000000000000000000000000 $
b00000000000000000000000010100100 %
b00000000000000000000000000000000 &
b00000000000000000000000000000000 '
b00000000000000000000000000000001 (
b00000000000000000000000010110100 I
b00000000000000000000000000000001 J
b00000000000000000000000010110000 K
b00000000000101010001001100010011 L
b001 N
b111 V
b000010110000 Z
b01010 [
b00001 \
b00110 ]
b0000000000010101000100110 ^
b00000000000000000000000010110001 d
1e
b00000000000000000000000000000000 j
b00000000000000000000000000000000 l
b00000000000000000000000010110100 m
#87
0e
#88
b00000000000000000000000000000000 %
b00000000000000000000000000000000 (
b00000000000000000000000000000000 )
b00000000000000000000000010111000 I
b00000000000000000000000000000000 J
b00000000000000000000000010110100 K
b00000000000000000000000000010011 L
b000 N
b000 V
b000010110100 Z
b00000 [
b00000 \
b00000 ]
b0000000000000000000000000 ^
b00000000000000000000000010110100 d
1e
b00000000000000000000000010111000 m
#89
0e
#90
b00000000000000000000000010111100 I
b00000000000000000000000010111000 K
b000010111000 Z
b00000000000000000000000010111000 d
1e
b00000000000000000000000010111100 m
#91
0e
#92
0#
b00000000000000000000000010100100 %
b00000000000000000000000000000001 &
b00000000000000000000000000000001 (
b00000000000000000000000011000000 I
b00000000000000000000000000000001 J
b00000000000000000000000010111100 K
b00000000000100110000010100010011 L
b000010111100 Z
b00110 [
b00001 \
b01010 ]
b0000000000010011000001010 ^
b00000000000000000000000010111101 d
1e
b00000000000000000000000000000001 j
b00000000000000000000000011000000 m
#93
0e
#94
1#
b00000000000000000000000000000000 %
b00000000000000000000000000000000 &
b00000000000000000000000000000000 (
b00000000000000000000000000000001 3
b00000000000000000000000011000100 I
b00000000000000000000000000000000 J
b00000000000000000000000011000000 K
b00000000000000000000000000010011 L
b000011000000 Z
b00000 [
b00000 \
b00000 ]
b0000000000000000000000000 ^
b00000000000000000000000011000000 d
1e
b00000000000000000000000000000001 h
b00000000000000000000000000000000 j
b00000000000000000000000011000100 m
#95
0e
#96
b00000000000000000000000011001000 I
b00000000000000000000000011000100 K
b000011000100 Z
b00000000000000000000000011000100 d
1e
b00000000000000000000000011001000 m
#97
0e
#98
0#
b00000000000000000000000000000001 $
b00000000000000000000000011111111 %
b11111111111111111111111100000010 &
b00000000000000000000000000000001 '
b00000000000000000000000011111111 (
b00000000000000000000000011001100 I
b11111111111111111111111111010000 J
b00000000000000000000000011001000 K
b11111101001001010001100011100011 L
b1100011 M
b001 N
1O
0S
b010 T
0U
b001 V
1Y
b000011001000 Z
b01010 [
b10010 \
b10001 ]
b1111110100100101000110001 ^
b01 _
1`
1b
b11 c
b00000000000000000000000010011000 d
1e
1i
b11111111111111111111111100000010 j
b00000000000000000000000011001111 k
b00000000000000000000000010011000 l
b00000000000000000000000010011000 m
#99
0e
#100
1#
b00000000000000000000000000000000 $
b00000000000000000000000000000000 %
b00000000000000000000000000000000 &
b00000000000000000000000000000000 '
b00000000000000000000000000000000 (
b00000000000000000000000010011100 I
b00000000000000000000000000000000 J
b00000000000000000000000010011000 K
b00000000000000000000000000010011 L
b0010011 M
b000 N
0O
1S
b000 T
1U
b000 V
0Y
b000010011000 Z
b00000 [
b00000 \
b00000 ]
b0000000000000000000000000 ^
b00 _
0`
0b
b00 c
1e
0i
b00000000000000000000000000000000 j
b00000000000000000000000000000000 k
b00000000000000000000000000000000 l
b00000000000000000000000010011100 m
#101
0e
#102
b00000000000000000000000010100000 I
b00000000000000000000000010011100 K
b000010011100 Z
b00000000000000000000000010011100 d
1e
b00000000000000000000000010100000 m
#103
0e
#104
b00000000000000000000000010100100 I
b00000000000000000000000001010100 J
b00000000000000000000000010100000 K
b00000101010000000000000011101111 L
b1101111 M
b10 P
0S
b011 T
1Y
b000010100000 Z
b10100 \
b00001 ]
b0000010101000000000000001 ^
1a
1b
b10 c
b00000000000000000000000011110100 d
1e
1i
b00000000000000000000000010100100 j
b00000000000000000000000011110100 l
b00000000000000000000000011110100 m
#105
0e
#106
b00000000000000000000000011111000 I
b00000000000000000000000000000000 J
b00000000000000000000000011110100 K
b00000000000000000000000000010011 L
b0010011 M
b00 P
1S
b000 T
0Y
b000011110100 Z
b00000 \
b00000 ]
b0000000000000000000000000 ^
0a
0b
b00 c
1e
0i
b00000000000000000000000000000000 j
b00000000000000000000000000000000 l
b00000000000000000000000011111000 m
#107
0e
#108
b00000000000000000000000011111100 I
b00000000000000000000000011111000 K
b000011111000 Z
b00000000000000000000000011111000 d
1e
b00000000000000000000000011111100 m
#109
0e
#110
0#
b00000000000000000000000010100100 %
b00000000000000000000000000000001 &
b00000000000000000000000000000001 (
b00000000000000000000000100000000 I
b00000000000000000000000000000001 J
b00000000000000000000000011111100 K
b00000000000101011000010110010011 L
b000011111100 Z
b01011 [
b00001 \
b01011 ]
b0000000000010101100001011 ^
b00000000000000000000000011111101 d
1e
b00000000000000000000000000000001 j
b00000000000000000000000100000000 m
#111
0e
#112
1#
b00000000000000000000000000000000 %
b00000000000000000000000000000000 &
b00000000000000000000000000000000 (
b00000000000000000000000000000001 4
b00000000000000000000000100000100 I
b00000000000000000000000000000000 J
b00000000000000000000000100000000 K
b00000000000000000000000000010011 L
b000100000000 Z
b00000 [
b00000 \
b00000 ]
b0000000000000000000000000 ^
b00000000000000000000000100000000 d
1e
b00000000000000000000000000000000 j
b00000000000000000000000100000100 m
#113
0e
#114
b00000000000000000000000100001000 I
b00000000000000000000000100000100 K
b000100000100 Z
b00000000000000000000000100000100 d
1e
b00000000000000000000000100001000 m
#115
0e
#116
b00000000000000000000000100001100 I
b00000000000000000000000100001000 K
b000100001000 Z
b00000000000000000000000100001000 d
1e
b00000000000000000000000100001100 m
#117
0e
