top.vcd
$version Generated by VerilatedVcd $end
$date Tue Dec  5 15:31:30 2023 $end
$timescale 1ps $end

 $scope module TOP $end
  $var wire 32 h a0 [31:0] $end
  $var wire  1 e clk $end
  $var wire  1 g rst $end
  $var wire  1 f trigger $end
  $scope module top $end
   $var wire 12 Z A [11:0] $end
   $var wire  5 [ A1 [4:0] $end
   $var wire  5 \ A2 [4:0] $end
   $var wire  5 ] A3 [4:0] $end
   $var wire  3 V ALUControl [2:0] $end
   $var wire 32 & ALUResult [31:0] $end
   $var wire  1 R ALUSrcA $end
   $var wire  1 S ALUSrcB $end
   $var wire 25 ^ Imm [24:0] $end
   $var wire 32 J ImmExt [31:0] $end
   $var wire  3 T ImmSrc [2:0] $end
   $var wire 32 L Instr [31:0] $end
   $var wire  1 Y JalSrc $end
   $var wire  1 W LdSrc $end
   $var wire  1 Q MemWrite $end
   $var wire 32 K PC [31:0] $end
   $var wire  1 i PCSrc $end
   $var wire 32 I PC_Plus [31:0] $end
   $var wire 32 $ RD1 [31:0] $end
   $var wire 32 k ReadData [31:0] $end
   $var wire  1 U RegWrite $end
   $var wire 32 j Result [31:0] $end
   $var wire  2 P ResultSrc [1:0] $end
   $var wire  1 X StSrc $end
   $var wire 32 % WriteData [31:0] $end
   $var wire  1 # Zero $end
   $var wire 32 h a0 [31:0] $end
   $var wire  1 e clk $end
   $var wire  1 O func75 $end
   $var wire  3 N funct3 [2:0] $end
   $var wire  7 M opcode [6:0] $end
   $var wire  1 g rst $end
   $var wire  1 f trigger $end
   $scope module my_DataMux $end
    $var wire 32 & ALUResult [31:0] $end
    $var wire 32 I PCPlus [31:0] $end
    $var wire 32 k RD [31:0] $end
    $var wire 32 j Result [31:0] $end
    $var wire  2 P ResultSrc [1:0] $end
   $upscope $end
   $scope module my_alu_top $end
    $var wire  3 V ALUControl [2:0] $end
    $var wire 32 & ALUResult [31:0] $end
    $var wire  1 R ALUSrcA $end
    $var wire  1 S ALUSrcB $end
    $var wire 32 J ImmExt [31:0] $end
    $var wire 32 K PC [31:0] $end
    $var wire 32 $ RD1 [31:0] $end
    $var wire 32 % RD2 [31:0] $end
    $var wire 32 ' SrcA [31:0] $end
    $var wire 32 ( SrcB [31:0] $end
    $var wire  1 # Zero $end
   $upscope $end
   $scope module my_control_unit $end
    $var wire  3 V ALUControl [2:0] $end
    $var wire  2 _ ALUOp [1:0] $end
    $var wire  1 R ALUSrcA $end
    $var wire  1 S ALUSrcB $end
    $var wire  1 ` Branch $end
    $var wire  3 T ImmSrc [2:0] $end
    $var wire  1 Y JalSrc $end
    $var wire  1 a Jump $end
    $var wire  1 W LdSrc $end
    $var wire  1 Q MemWrite $end
    $var wire  1 i PCSrc $end
    $var wire  1 U RegWrite $end
    $var wire  2 P ResultSrc [1:0] $end
    $var wire  1 X StSrc $end
    $var wire  1 # Zero $end
    $var wire  1 O func75 $end
    $var wire  3 N funct3 [2:0] $end
    $var wire  1 b op5 $end
    $var wire  7 M opcode [6:0] $end
    $scope module ALU_decode $end
     $var wire  3 V ALUControl [2:0] $end
     $var wire  2 _ ALUOp [1:0] $end
     $var wire  2 c decode [1:0] $end
     $var wire  1 O func75 $end
     $var wire  3 N funct3 [2:0] $end
     $var wire  1 b op5 $end
    $upscope $end
    $scope module PCSrc_decode $end
     $var wire  1 ` Branch $end
     $var wire  1 a Jump $end
     $var wire  1 i PCSrc $end
     $var wire  1 # Zero $end
     $var wire  3 N funct3 [2:0] $end
    $upscope $end
    $scope module main_decode $end
     $var wire  2 _ ALUOp [1:0] $end
     $var wire  1 R ALUSrcA $end
     $var wire  1 S ALUSrcB $end
     $var wire  1 ` Branch $end
     $var wire  3 T ImmSrc [2:0] $end
     $var wire  1 Y JalSrc $end
     $var wire  1 a Jump $end
     $var wire  1 W LdSrc $end
     $var wire  1 Q MemWrite $end
     $var wire  1 U RegWrite $end
     $var wire  2 P ResultSrc [1:0] $end
     $var wire  1 X StSrc $end
     $var wire  3 N funct3 [2:0] $end
     $var wire  7 M opcode [6:0] $end
    $upscope $end
   $upscope $end
   $scope module my_data_memory $end
    $var wire 32 & A [31:0] $end
    $var wire 32 n DATA_WIDTH [31:0] $end
    $var wire  1 W LdSrc $end
    $var wire 32 k RD [31:0] $end
    $var wire  1 X StSrc $end
    $var wire 32 % WD [31:0] $end
    $var wire  1 Q WE $end
    $var wire  1 e clk $end
   $upscope $end
   $scope module my_extend $end
    $var wire 25 ^ Imm [31:7] $end
    $var wire 32 J ImmExt [31:0] $end
    $var wire  3 T ImmSrc [2:0] $end
   $upscope $end
   $scope module my_instr_mem $end
    $var wire 12 Z A [11:0] $end
    $var wire 32 o A_length [31:0] $end
    $var wire 32 p D_length [31:0] $end
    $var wire 32 L RD [31:0] $end
   $upscope $end
   $scope module my_pc_top $end
    $var wire 32 J ImmExt [31:0] $end
    $var wire  1 Y JalSrc $end
    $var wire 32 K PC [31:0] $end
    $var wire  1 i PCSrc $end
    $var wire 32 d PC_Jump [31:0] $end
    $var wire 32 m PC_Next [31:0] $end
    $var wire 32 I PC_Plus [31:0] $end
    $var wire 32 l PC_Target [31:0] $end
    $var wire 32 n PC_WIDTH [31:0] $end
    $var wire 32 $ RD1 [31:0] $end
    $var wire  1 e clk $end
    $var wire  1 g rst $end
   $upscope $end
   $scope module my_reg_file $end
    $var wire  5 [ A1 [4:0] $end
    $var wire  5 \ A2 [4:0] $end
    $var wire  5 ] A3 [4:0] $end
    $var wire 32 $ RD1 [31:0] $end
    $var wire 32 % RD2 [31:0] $end
    $var wire 32 j WD3 [31:0] $end
    $var wire  1 U WE3 $end
    $var wire 32 h a0 [31:0] $end
    $var wire  1 e clk $end
    $var wire 32 ) mem[0] [31:0] $end
    $var wire 32 3 mem[10] [31:0] $end
    $var wire 32 4 mem[11] [31:0] $end
    $var wire 32 5 mem[12] [31:0] $end
    $var wire 32 6 mem[13] [31:0] $end
    $var wire 32 7 mem[14] [31:0] $end
    $var wire 32 8 mem[15] [31:0] $end
    $var wire 32 9 mem[16] [31:0] $end
    $var wire 32 : mem[17] [31:0] $end
    $var wire 32 ; mem[18] [31:0] $end
    $var wire 32 < mem[19] [31:0] $end
    $var wire 32 * mem[1] [31:0] $end
    $var wire 32 = mem[20] [31:0] $end
    $var wire 32 > mem[21] [31:0] $end
    $var wire 32 ? mem[22] [31:0] $end
    $var wire 32 @ mem[23] [31:0] $end
    $var wire 32 A mem[24] [31:0] $end
    $var wire 32 B mem[25] [31:0] $end
    $var wire 32 C mem[26] [31:0] $end
    $var wire 32 D mem[27] [31:0] $end
    $var wire 32 E mem[28] [31:0] $end
    $var wire 32 F mem[29] [31:0] $end
    $var wire 32 + mem[2] [31:0] $end
    $var wire 32 G mem[30] [31:0] $end
    $var wire 32 H mem[31] [31:0] $end
    $var wire 32 , mem[3] [31:0] $end
    $var wire 32 - mem[4] [31:0] $end
    $var wire 32 . mem[5] [31:0] $end
    $var wire 32 / mem[6] [31:0] $end
    $var wire 32 0 mem[7] [31:0] $end
    $var wire 32 1 mem[8] [31:0] $end
    $var wire 32 2 mem[9] [31:0] $end
    $var wire  1 f trigger $end
   $upscope $end
  $upscope $end
 $upscope $end
$enddefinitions $end


#0
0#
b00000000000000000000000000000000 $
b00000000000000000000000000000000 %
b00000000000000000000000000000000 &
b00000000000000000000000000000000 '
b00000000000000000000000000000000 (
b00000000000000000000000000000000 )
b00000000000000000000000000000000 *
b00000000000000000000000000000000 +
b00000000000000000000000000000000 ,
b00000000000000000000000000000000 -
b00000000000000000000000000000000 .
b00000000000000000000000000000000 /
b00000000000000000000000000000000 0
b00000000000000000000000000000000 1
b00000000000000000000000000000000 2
b00000000000000000000000000000000 3
b00000000000000000000000000000000 4
b00000000000000000000000000000000 5
b00000000000000000000000000000000 6
b00000000000000000000000000000000 7
b00000000000000000000000000000000 8
b00000000000000000000000000000000 9
b00000000000000000000000000000000 :
b00000000000000000000000000000000 ;
b00000000000000000000000000000000 <
b00000000000000000000000000000000 =
b00000000000000000000000000000000 >
b00000000000000000000000000000000 ?
b00000000000000000000000000000000 @
b00000000000000000000000000000000 A
b00000000000000000000000000000000 B
b00000000000000000000000000000000 C
b00000000000000000000000000000000 D
b00000000000000000000000000000000 E
b00000000000000000000000000000000 F
b00000000000000000000000000000000 G
b00000000000000000000000000000000 H
b00000000000000000000000000000100 I
b00000000000000000000000000000000 J
b00000000000000000000000000000000 K
b00000000000000000000000000000000 L
b0000000 M
b000 N
0O
b00 P
0Q
0R
0S
b000 T
0U
b000 V
0W
0X
0Y
b000000000000 Z
b00000 [
b00000 \
b00000 ]
b0000000000000000000000000 ^
b00 _
0`
0a
0b
b00 c
b00000000000000000000000000000000 d
1e
0f
0g
b00000000000000000000000000000000 h
0i
b00000000000000000000000000000000 j
b00000000000000000000000000000000 k
b00000000000000000000000000000000 l
b00000000000000000000000000000100 m
b00000000000000000000000000100000 n
b00000000000000000000000000001100 o
b00000000000000000000000000001000 p
#1
b00000000000000000000000001111111 &
b00000000000000000000000001111111 (
b00000000000000000000000001111111 J
b00000111111100000000011110010011 L
b0010011 M
1S
1U
b11111 \
b01111 ]
b0000011111110000000001111 ^
b00000000000000000000000001111111 d
0e
b00000000000000000000000001111111 j
#2
b00000000000000000000000001111111 $
b00000000000000000000000000011111 &
b00000000000000000000000001111111 '
b00000000000000000000000000000010 (
b00000000000000000000000001111111 8
b00000000000000000000000000001000 I
b00000000000000000000000000000010 J
b00000000000000000000000000000100 K
b00000000001001111101001010010011 L
b101 N
b100 V
b000000000100 Z
b01111 [
b00010 \
b00101 ]
b0000000000100111110100101 ^
b00000000000000000000000000000110 d
1e
b00000000000000000000000000011111 j
b00000000000000000000000001111111 l
b00000000000000000000000000001000 m
#3
0e
#4
b00000000000000000000000000011111 $
b00000000000000000000000000000001 &
b00000000000000000000000000011111 '
b00000000000000000000000000000001 (
b00000000000000000000000000011111 .
b00000000000000000000000000001100 I
b00000000000000000000000000000001 J
b00000000000000000000000000001000 K
b00000000000100101111001010010011 L
b111 N
b010 V
b000000001000 Z
b00101 [
b00001 \
b0000000000010010111100101 ^
b00000000000000000000000000001001 d
1e
b00000000000000000000000000000001 j
b00000000000000000000000000011111 l
b00000000000000000000000000001100 m
#5
0e
#6
b00000000000000000000000001111111 $
b00000000000000000000000001111111 '
b00000000000000000000000000000110 (
b00000000000000000000000000000001 .
b00000000000000000000000000010000 I
b00000000000000000000000000000110 J
b00000000000000000000000000001100 K
b00000000011001111101001100010011 L
b101 N
b100 V
b000000001100 Z
b01111 [
b00110 \
b00110 ]
b0000000001100111110100110 ^
b00000000000000000000000000010010 d
1e
b00000000000000000000000001111111 l
b00000000000000000000000000010000 m
#7
0e
#8
b00000000000000000000000000000001 $
b00000000000000000000000000000001 '
b00000000000000000000000000000001 (
b00000000000000000000000000000001 /
b00000000000000000000000000010100 I
b00000000000000000000000000000001 J
b00000000000000000000000000010000 K
b00000000000100110111001100010011 L
b111 N
b010 V
b000000010000 Z
b00110 [
b00001 \
b0000000000010011011100110 ^
b00000000000000000000000000010001 d
1e
b00000000000000000000000000000001 l
b00000000000000000000000000010100 m
#9
0e
#10
1#
b00000000000000000000000000000001 %
b00000000000000000000000000000000 &
b00000000000000000000000000011000 I
b00000000000000000000000000000110 J
b00000000000000000000000000010100 K
b00000000011000101100001010110011 L
b0110011 M
b100 N
0S
b101 V
b000000010100 Z
b00101 [
b00110 \
b00101 ]
b0000000001100010110000101 ^
b10 _
1b
b10 c
b00000000000000000000000000011010 d
1e
b00000000000000000000000000000000 j
b00000000000000000000000000011000 m
#11
0e
#12
0#
b00000000000000000000000001111111 $
b00000000000000000000000000000000 %
b00000000000000000000000000111111 &
b00000000000000000000000001111111 '
b00000000000000000000000000111111 (
b00000000000000000000000000000000 .
b00000000000000000000000000011100 I
b00000000000000000000000000111111 J
b00000000000000000000000000011000 K
b00000011111101111111001100010011 L
b0010011 M
b111 N
1S
b010 V
b000000011000 Z
b01111 [
b11111 \
b00110 ]
b0000001111110111111100110 ^
b00 _
0b
b00 c
b00000000000000000000000001010111 d
1e
b00000000000000000000000000111111 j
b00000000000000000000000001111111 l
b00000000000000000000000000011100 m
#13
0e
#14
b00000000000000000000000000111111 $
b00000000000000000000000001111110 &
b00000000000000000000000000111111 '
b00000000000000000000000000000001 (
b00000000000000000000000000111111 /
b00000000000000000000000000100000 I
b00000000000000000000000000000001 J
b00000000000000000000000000011100 K
b00000000000100110001001100010011 L
b001 N
b111 V
b000000011100 Z
b00110 [
b00001 \
b0000000000010011000100110 ^
b00000000000000000000000000011101 d
1e
b00000000000000000000000001111110 j
b00000000000000000000000000111111 l
b00000000000000000000000000100000 m
#15
0e
#16
b00000000000000000000000000000000 $
b00000000000000000000000001111110 %
b00000000000000000000000000000000 '
b00000000000000000000000001111110 (
b00000000000000000000000001111110 /
b00000000000000000000000000100100 I
b00000000000000000000000000000110 J
b00000000000000000000000000100000 K
b00000000011000101000001010110011 L
b0110011 M
b000 N
0S
b000 V
b000000100000 Z
b00101 [
b00110 \
b00101 ]
b0000000001100010100000101 ^
b10 _
1b
b10 c
b00000000000000000000000000100110 d
1e
b00000000000000000000000000000000 l
b00000000000000000000000000100100 m
#17
0e
#18
b00000000000000000000000001111110 $
b00000000000000000000000000000000 %
b00000000000000000000000001111110 '
b00000000000000000000000001111111 (
b00000000000000000000000001111110 .
b00000000000000000000000000101000 I
b00000000000000000000000001111111 J
b00000000000000000000000000100100 K
b00000111111100101111011110010011 L
b0010011 M
b111 N
1S
b010 V
b000000100100 Z
b11111 \
b01111 ]
b0000011111110010111101111 ^
b00 _
0b
b00 c
b00000000000000000000000010100011 d
1e
b00000000000000000000000001111110 l
b00000000000000000000000000101000 m
#19
0e
#20
1#
b00000000000000000000000000000000 $
b00000000000000000000000000000000 &
b00000000000000000000000000000000 '
b00000000000000000000000000000000 (
b00000000000000000000000001111110 8
b00000000000000000000000000101100 I
b11111111111111111111111111011100 J
b00000000000000000000000000101000 K
b11111101110111111111000011101111 L
b1101111 M
1O
b10 P
0S
b011 T
1Y
b000000101000 Z
b11111 [
b11101 \
b00001 ]
b1111110111011111111100001 ^
1a
1b
b11 c
b00000000000000000000000000000100 d
1e
1i
b00000000000000000000000000101100 j
b00000000000000000000000000000100 l
b00000000000000000000000000000100 m
#21
0e
#22
0#
b00000000000000000000000001111110 $
b00000000000000000000000000011111 &
b00000000000000000000000001111110 '
b00000000000000000000000000000010 (
b00000000000000000000000000101100 *
b00000000000000000000000000001000 I
b00000000000000000000000000000010 J
b00000000000000000000000000000100 K
b00000000001001111101001010010011 L
b0010011 M
b101 N
0O
b00 P
1S
b000 T
b100 V
0Y
b000000000100 Z
b01111 [
b00010 \
b00101 ]
b0000000000100111110100101 ^
0a
0b
b00 c
b00000000000000000000000000000110 d
1e
0i
b00000000000000000000000000011111 j
b00000000000000000000000001111110 l
b00000000000000000000000000001000 m
#23
0e
#24
b00000000000000000000000000011111 $
b00000000000000000000000000101100 %
b00000000000000000000000000000001 &
b00000000000000000000000000011111 '
b00000000000000000000000000000001 (
b00000000000000000000000000011111 .
b00000000000000000000000000001100 I
b00000000000000000000000000000001 J
b00000000000000000000000000001000 K
b00000000000100101111001010010011 L
b111 N
b010 V
b000000001000 Z
b00101 [
b00001 \
b0000000000010010111100101 ^
b00000000000000000000000000001001 d
1e
b00000000000000000000000000000001 j
b00000000000000000000000000011111 l
b00000000000000000000000000001100 m
#25
0e
#26
b00000000000000000000000001111110 $
b00000000000000000000000001111110 %
b00000000000000000000000001111110 '
b00000000000000000000000000000110 (
b00000000000000000000000000000001 .
b00000000000000000000000000010000 I
b00000000000000000000000000000110 J
b00000000000000000000000000001100 K
b00000000011001111101001100010011 L
b101 N
b100 V
b000000001100 Z
b01111 [
b00110 \
b00110 ]
b0000000001100111110100110 ^
b00000000000000000000000000010010 d
1e
b00000000000000000000000001111110 l
b00000000000000000000000000010000 m
#27
0e
#28
b00000000000000000000000000000001 $
b00000000000000000000000000101100 %
b00000000000000000000000000000001 '
b00000000000000000000000000000001 (
b00000000000000000000000000000001 /
b00000000000000000000000000010100 I
b00000000000000000000000000000001 J
b00000000000000000000000000010000 K
b00000000000100110111001100010011 L
b111 N
b010 V
b000000010000 Z
b00110 [
b00001 \
b0000000000010011011100110 ^
b00000000000000000000000000010001 d
1e
b00000000000000000000000000000001 l
b00000000000000000000000000010100 m
#29
0e
#30
1#
b00000000000000000000000000000001 %
b00000000000000000000000000000000 &
b00000000000000000000000000011000 I
b00000000000000000000000000000110 J
b00000000000000000000000000010100 K
b00000000011000101100001010110011 L
b0110011 M
b100 N
0S
b101 V
b000000010100 Z
b00101 [
b00110 \
b00101 ]
b0000000001100010110000101 ^
b10 _
1b
b10 c
b00000000000000000000000000011010 d
1e
b00000000000000000000000000000000 j
b00000000000000000000000000011000 m
#31
0e
#32
0#
b00000000000000000000000001111110 $
b00000000000000000000000000000000 %
b00000000000000000000000000111110 &
b00000000000000000000000001111110 '
b00000000000000000000000000111111 (
b00000000000000000000000000000000 .
b00000000000000000000000000011100 I
b00000000000000000000000000111111 J
b00000000000000000000000000011000 K
b00000011111101111111001100010011 L
b0010011 M
b111 N
1S
b010 V
b000000011000 Z
b01111 [
b11111 \
b00110 ]
b0000001111110111111100110 ^
b00 _
0b
b00 c
b00000000000000000000000001010111 d
1e
b00000000000000000000000000111110 j
b00000000000000000000000001111110 l
b00000000000000000000000000011100 m
#33
0e
#34
b00000000000000000000000000111110 $
b00000000000000000000000000101100 %
b00000000000000000000000001111100 &
b00000000000000000000000000111110 '
b00000000000000000000000000000001 (
b00000000000000000000000000111110 /
b00000000000000000000000000100000 I
b00000000000000000000000000000001 J
b00000000000000000000000000011100 K
b00000000000100110001001100010011 L
b001 N
b111 V
b000000011100 Z
b00110 [
b00001 \
b0000000000010011000100110 ^
b00000000000000000000000000011101 d
1e
b00000000000000000000000001111100 j
b00000000000000000000000000111110 l
b00000000000000000000000000100000 m
#35
0e
#36
b00000000000000000000000000000000 $
b00000000000000000000000001111100 %
b00000000000000000000000000000000 '
b00000000000000000000000001111100 (
b00000000000000000000000001111100 /
b00000000000000000000000000100100 I
b00000000000000000000000000000110 J
b00000000000000000000000000100000 K
b00000000011000101000001010110011 L
b0110011 M
b000 N
0S
b000 V
b000000100000 Z
b00101 [
b00110 \
b00101 ]
b0000000001100010100000101 ^
b10 _
1b
b10 c
b00000000000000000000000000100110 d
1e
b00000000000000000000000000000000 l
b00000000000000000000000000100100 m
#37
0e
#38
b00000000000000000000000001111100 $
b00000000000000000000000000000000 %
b00000000000000000000000001111100 '
b00000000000000000000000001111111 (
b00000000000000000000000001111100 .
b00000000000000000000000000101000 I
b00000000000000000000000001111111 J
b00000000000000000000000000100100 K
b00000111111100101111011110010011 L
b0010011 M
b111 N
1S
b010 V
b000000100100 Z
b11111 \
b01111 ]
b0000011111110010111101111 ^
b00 _
0b
b00 c
b00000000000000000000000010100011 d
1e
b00000000000000000000000001111100 l
b00000000000000000000000000101000 m
#39
0e
#40
1#
b00000000000000000000000000000000 $
b00000000000000000000000000000000 &
b00000000000000000000000000000000 '
b00000000000000000000000000000000 (
b00000000000000000000000001111100 8
b00000000000000000000000000101100 I
b11111111111111111111111111011100 J
b00000000000000000000000000101000 K
b11111101110111111111000011101111 L
b1101111 M
1O
b10 P
0S
b011 T
1Y
b000000101000 Z
b11111 [
b11101 \
b00001 ]
b1111110111011111111100001 ^
1a
1b
b11 c
b00000000000000000000000000000100 d
1e
1i
b00000000000000000000000000101100 j
b00000000000000000000000000000100 l
b00000000000000000000000000000100 m
#41
0e
#42
0#
b00000000000000000000000001111100 $
b00000000000000000000000000011111 &
b00000000000000000000000001111100 '
b00000000000000000000000000000010 (
b00000000000000000000000000001000 I
b00000000000000000000000000000010 J
b00000000000000000000000000000100 K
b00000000001001111101001010010011 L
b0010011 M
b101 N
0O
b00 P
1S
b000 T
b100 V
0Y
b000000000100 Z
b01111 [
b00010 \
b00101 ]
b0000000000100111110100101 ^
0a
0b
b00 c
b00000000000000000000000000000110 d
1e
0i
b00000000000000000000000000011111 j
b00000000000000000000000001111100 l
b00000000000000000000000000001000 m
#43
0e
#44
b00000000000000000000000000011111 $
b00000000000000000000000000101100 %
b00000000000000000000000000000001 &
b00000000000000000000000000011111 '
b00000000000000000000000000000001 (
b00000000000000000000000000011111 .
b00000000000000000000000000001100 I
b00000000000000000000000000000001 J
b00000000000000000000000000001000 K
b00000000000100101111001010010011 L
b111 N
b010 V
b000000001000 Z
b00101 [
b00001 \
b0000000000010010111100101 ^
b00000000000000000000000000001001 d
1e
b00000000000000000000000000000001 j
b00000000000000000000000000011111 l
b00000000000000000000000000001100 m
#45
0e
#46
b00000000000000000000000001111100 $
b00000000000000000000000001111100 %
b00000000000000000000000001111100 '
b00000000000000000000000000000110 (
b00000000000000000000000000000001 .
b00000000000000000000000000010000 I
b00000000000000000000000000000110 J
b00000000000000000000000000001100 K
b00000000011001111101001100010011 L
b101 N
b100 V
b000000001100 Z
b01111 [
b00110 \
b00110 ]
b0000000001100111110100110 ^
b00000000000000000000000000010010 d
1e
b00000000000000000000000001111100 l
b00000000000000000000000000010000 m
#47
0e
#48
b00000000000000000000000000000001 $
b00000000000000000000000000101100 %
b00000000000000000000000000000001 '
b00000000000000000000000000000001 (
b00000000000000000000000000000001 /
b00000000000000000000000000010100 I
b00000000000000000000000000000001 J
b00000000000000000000000000010000 K
b00000000000100110111001100010011 L
b111 N
b010 V
b000000010000 Z
b00110 [
b00001 \
b0000000000010011011100110 ^
b00000000000000000000000000010001 d
1e
b00000000000000000000000000000001 l
b00000000000000000000000000010100 m
#49
0e
#50
1#
b00000000000000000000000000000001 %
b00000000000000000000000000000000 &
b00000000000000000000000000011000 I
b00000000000000000000000000000110 J
b00000000000000000000000000010100 K
b00000000011000101100001010110011 L
b0110011 M
b100 N
0S
b101 V
b000000010100 Z
b00101 [
b00110 \
b00101 ]
b0000000001100010110000101 ^
b10 _
1b
b10 c
b00000000000000000000000000011010 d
1e
b00000000000000000000000000000000 j
b00000000000000000000000000011000 m
#51
0e
#52
0#
b00000000000000000000000001111100 $
b00000000000000000000000000000000 %
b00000000000000000000000000111100 &
b00000000000000000000000001111100 '
b00000000000000000000000000111111 (
b00000000000000000000000000000000 .
b00000000000000000000000000011100 I
b00000000000000000000000000111111 J
b00000000000000000000000000011000 K
b00000011111101111111001100010011 L
b0010011 M
b111 N
1S
b010 V
b000000011000 Z
b01111 [
b11111 \
b00110 ]
b0000001111110111111100110 ^
b00 _
0b
b00 c
b00000000000000000000000001010111 d
1e
b00000000000000000000000000111100 j
b00000000000000000000000001111100 l
b00000000000000000000000000011100 m
#53
0e
#54
b00000000000000000000000000111100 $
b00000000000000000000000000101100 %
b00000000000000000000000001111000 &
b00000000000000000000000000111100 '
b00000000000000000000000000000001 (
b00000000000000000000000000111100 /
b00000000000000000000000000100000 I
b00000000000000000000000000000001 J
b00000000000000000000000000011100 K
b00000000000100110001001100010011 L
b001 N
b111 V
b000000011100 Z
b00110 [
b00001 \
b0000000000010011000100110 ^
b00000000000000000000000000011101 d
1e
b00000000000000000000000001111000 j
b00000000000000000000000000111100 l
b00000000000000000000000000100000 m
#55
0e
#56
b00000000000000000000000000000000 $
b00000000000000000000000001111000 %
b00000000000000000000000000000000 '
b00000000000000000000000001111000 (
b00000000000000000000000001111000 /
b00000000000000000000000000100100 I
b00000000000000000000000000000110 J
b00000000000000000000000000100000 K
b00000000011000101000001010110011 L
b0110011 M
b000 N
0S
b000 V
b000000100000 Z
b00101 [
b00110 \
b00101 ]
b0000000001100010100000101 ^
b10 _
1b
b10 c
b00000000000000000000000000100110 d
1e
b00000000000000000000000000000000 l
b00000000000000000000000000100100 m
#57
0e
#58
b00000000000000000000000001111000 $
b00000000000000000000000000000000 %
b00000000000000000000000001111000 '
b00000000000000000000000001111111 (
b00000000000000000000000001111000 .
b00000000000000000000000000101000 I
b00000000000000000000000001111111 J
b00000000000000000000000000100100 K
b00000111111100101111011110010011 L
b0010011 M
b111 N
1S
b010 V
b000000100100 Z
b11111 \
b01111 ]
b0000011111110010111101111 ^
b00 _
0b
b00 c
b00000000000000000000000010100011 d
1e
b00000000000000000000000001111000 l
b00000000000000000000000000101000 m
#59
0e
#60
1#
b00000000000000000000000000000000 $
b00000000000000000000000000000000 &
b00000000000000000000000000000000 '
b00000000000000000000000000000000 (
b00000000000000000000000001111000 8
b00000000000000000000000000101100 I
b11111111111111111111111111011100 J
b00000000000000000000000000101000 K
b11111101110111111111000011101111 L
b1101111 M
1O
b10 P
0S
b011 T
1Y
b000000101000 Z
b11111 [
b11101 \
b00001 ]
b1111110111011111111100001 ^
1a
1b
b11 c
b00000000000000000000000000000100 d
1e
1i
b00000000000000000000000000101100 j
b00000000000000000000000000000100 l
b00000000000000000000000000000100 m
#61
0e
#62
0#
b00000000000000000000000001111000 $
b00000000000000000000000000011110 &
b00000000000000000000000001111000 '
b00000000000000000000000000000010 (
b00000000000000000000000000001000 I
b00000000000000000000000000000010 J
b00000000000000000000000000000100 K
b00000000001001111101001010010011 L
b0010011 M
b101 N
0O
b00 P
1S
b000 T
b100 V
0Y
b000000000100 Z
b01111 [
b00010 \
b00101 ]
b0000000000100111110100101 ^
0a
0b
b00 c
b00000000000000000000000000000110 d
1e
0i
b00000000000000000000000000011110 j
b00000000000000000000000001111000 l
b00000000000000000000000000001000 m
#63
0e
#64
1#
b00000000000000000000000000011110 $
b00000000000000000000000000101100 %
b00000000000000000000000000000000 &
b00000000000000000000000000011110 '
b00000000000000000000000000000001 (
b00000000000000000000000000011110 .
b00000000000000000000000000001100 I
b00000000000000000000000000000001 J
b00000000000000000000000000001000 K
b00000000000100101111001010010011 L
b111 N
b010 V
b000000001000 Z
b00101 [
b00001 \
b0000000000010010111100101 ^
b00000000000000000000000000001001 d
1e
b00000000000000000000000000000000 j
b00000000000000000000000000011110 l
b00000000000000000000000000001100 m
#65
0e
#66
0#
b00000000000000000000000001111000 $
b00000000000000000000000001111000 %
b00000000000000000000000000000001 &
b00000000000000000000000001111000 '
b00000000000000000000000000000110 (
b00000000000000000000000000000000 .
b00000000000000000000000000010000 I
b00000000000000000000000000000110 J
b00000000000000000000000000001100 K
b00000000011001111101001100010011 L
b101 N
b100 V
b000000001100 Z
b01111 [
b00110 \
b00110 ]
b0000000001100111110100110 ^
b00000000000000000000000000010010 d
1e
b00000000000000000000000000000001 j
b00000000000000000000000001111000 l
b00000000000000000000000000010000 m
#67
0e
#68
b00000000000000000000000000000001 $
b00000000000000000000000000101100 %
b00000000000000000000000000000001 '
b00000000000000000000000000000001 (
b00000000000000000000000000000001 /
b00000000000000000000000000010100 I
b00000000000000000000000000000001 J
b00000000000000000000000000010000 K
b00000000000100110111001100010011 L
b111 N
b010 V
b000000010000 Z
b00110 [
b00001 \
b0000000000010011011100110 ^
b00000000000000000000000000010001 d
1e
b00000000000000000000000000000001 l
b00000000000000000000000000010100 m
#69
0e
#70
b00000000000000000000000000000000 $
b00000000000000000000000000000001 %
b00000000000000000000000000000000 '
b00000000000000000000000000011000 I
b00000000000000000000000000000110 J
b00000000000000000000000000010100 K
b00000000011000101100001010110011 L
b0110011 M
b100 N
0S
b101 V
b000000010100 Z
b00101 [
b00110 \
b00101 ]
b0000000001100010110000101 ^
b10 _
1b
b10 c
b00000000000000000000000000011010 d
1e
b00000000000000000000000000000000 l
b00000000000000000000000000011000 m
#71
0e
#72
b00000000000000000000000001111000 $
b00000000000000000000000000000000 %
b00000000000000000000000000111000 &
b00000000000000000000000001111000 '
b00000000000000000000000000111111 (
b00000000000000000000000000000001 .
b00000000000000000000000000011100 I
b00000000000000000000000000111111 J
b00000000000000000000000000011000 K
b00000011111101111111001100010011 L
b0010011 M
b111 N
1S
b010 V
b000000011000 Z
b01111 [
b11111 \
b00110 ]
b0000001111110111111100110 ^
b00 _
0b
b00 c
b00000000000000000000000001010111 d
1e
b00000000000000000000000000111000 j
b00000000000000000000000001111000 l
b00000000000000000000000000011100 m
#73
0e
#74
b00000000000000000000000000111000 $
b00000000000000000000000000101100 %
b00000000000000000000000001110000 &
b00000000000000000000000000111000 '
b00000000000000000000000000000001 (
b00000000000000000000000000111000 /
b00000000000000000000000000100000 I
b00000000000000000000000000000001 J
b00000000000000000000000000011100 K
b00000000000100110001001100010011 L
b001 N
b111 V
b000000011100 Z
b00110 [
b00001 \
b0000000000010011000100110 ^
b00000000000000000000000000011101 d
1e
b00000000000000000000000001110000 j
b00000000000000000000000000111000 l
b00000000000000000000000000100000 m
#75
0e
#76
b00000000000000000000000000000001 $
b00000000000000000000000001110000 %
b00000000000000000000000001110001 &
b00000000000000000000000000000001 '
b00000000000000000000000001110000 (
b00000000000000000000000001110000 /
b00000000000000000000000000100100 I
b00000000000000000000000000000110 J
b00000000000000000000000000100000 K
b00000000011000101000001010110011 L
b0110011 M
b000 N
0S
b000 V
b000000100000 Z
b00101 [
b00110 \
b00101 ]
b0000000001100010100000101 ^
b10 _
1b
b10 c
b00000000000000000000000000100110 d
1e
b00000000000000000000000001110001 j
b00000000000000000000000000000001 l
b00000000000000000000000000100100 m
#77
0e
#78
b00000000000000000000000001110001 $
b00000000000000000000000000000000 %
b00000000000000000000000001110001 '
b00000000000000000000000001111111 (
b00000000000000000000000001110001 .
b00000000000000000000000000101000 I
b00000000000000000000000001111111 J
b00000000000000000000000000100100 K
b00000111111100101111011110010011 L
b0010011 M
b111 N
1S
b010 V
b000000100100 Z
b11111 \
b01111 ]
b0000011111110010111101111 ^
b00 _
0b
b00 c
b00000000000000000000000010100011 d
1e
b00000000000000000000000001110001 l
b00000000000000000000000000101000 m
#79
0e
