top.vcd
$version Generated by VerilatedVcd $end
$timescale 1ps $end

 $scope module TOP $end
  $var wire 32 h a0 [31:0] $end
  $var wire  1 f clk $end
  $var wire  1 g rst $end
  $scope module top $end
   $var wire 12 T A [11:0] $end
   $var wire  5 U A1 [4:0] $end
   $var wire  5 V A2 [4:0] $end
   $var wire  5 W A3 [4:0] $end
   $var wire  3 P ALUControl [2:0] $end
   $var wire 32 b ALUResult [31:0] $end
   $var wire  1 L ALUSrcA $end
   $var wire  1 M ALUSrcB $end
   $var wire 25 X Imm [24:0] $end
   $var wire 32 D ImmExt [31:0] $end
   $var wire  3 N ImmSrc [2:0] $end
   $var wire 32 F Instr [31:0] $end
   $var wire  1 S JalSrc $end
   $var wire  1 Q LdSrc $end
   $var wire  1 K MemWrite $end
   $var wire 32 E PC [31:0] $end
   $var wire  1 i PCSrc $end
   $var wire 32 C PC_Plus [31:0] $end
   $var wire 32 ` RD1 [31:0] $end
   $var wire 32 k ReadData [31:0] $end
   $var wire  1 O RegWrite $end
   $var wire 32 j Result [31:0] $end
   $var wire  2 J ResultSrc [1:0] $end
   $var wire  1 R StSrc $end
   $var wire 32 a WriteData [31:0] $end
   $var wire  1 _ Zero $end
   $var wire 32 h a0 [31:0] $end
   $var wire  1 f clk $end
   $var wire  1 I func75 $end
   $var wire  3 H funct3 [2:0] $end
   $var wire  7 G opcode [6:0] $end
   $var wire  1 g rst $end
   $scope module my_DataMux $end
    $var wire 32 b ALUResult [31:0] $end
    $var wire 32 C PCPlus [31:0] $end
    $var wire 32 k RD [31:0] $end
    $var wire 32 j Result [31:0] $end
    $var wire  2 J ResultSrc [1:0] $end
   $upscope $end
   $scope module my_alu_top $end
    $var wire  3 P ALUControl [2:0] $end
    $var wire 32 b ALUResult [31:0] $end
    $var wire  1 L ALUSrcA $end
    $var wire  1 M ALUSrcB $end
    $var wire 32 D ImmExt [31:0] $end
    $var wire 32 E PC [31:0] $end
    $var wire 32 ` RD1 [31:0] $end
    $var wire 32 a RD2 [31:0] $end
    $var wire 32 c SrcA [31:0] $end
    $var wire 32 d SrcB [31:0] $end
    $var wire  1 _ Zero $end
   $upscope $end
   $scope module my_control_unit $end
    $var wire  3 P ALUControl [2:0] $end
    $var wire  2 Y ALUOp [1:0] $end
    $var wire  1 L ALUSrcA $end
    $var wire  1 M ALUSrcB $end
    $var wire  1 Z Branch $end
    $var wire  3 N ImmSrc [2:0] $end
    $var wire  1 S JalSrc $end
    $var wire  1 [ Jump $end
    $var wire  1 Q LdSrc $end
    $var wire  1 K MemWrite $end
    $var wire  1 i PCSrc $end
    $var wire  1 O RegWrite $end
    $var wire  2 J ResultSrc [1:0] $end
    $var wire  1 R StSrc $end
    $var wire  1 _ Zero $end
    $var wire  1 I func75 $end
    $var wire  3 H funct3 [2:0] $end
    $var wire  1 \ op5 $end
    $var wire  7 G opcode [6:0] $end
    $scope module ALU_decode $end
     $var wire  3 P ALUControl [2:0] $end
     $var wire  2 Y ALUOp [1:0] $end
     $var wire  2 ] decode [1:0] $end
     $var wire  1 I func75 $end
     $var wire  3 H funct3 [2:0] $end
     $var wire  1 \ op5 $end
    $upscope $end
    $scope module PCSrc_decode $end
     $var wire  1 Z Branch $end
     $var wire  1 [ Jump $end
     $var wire  1 i PCSrc $end
     $var wire  1 _ Zero $end
     $var wire  3 H funct3 [2:0] $end
    $upscope $end
    $scope module main_decode $end
     $var wire  2 Y ALUOp [1:0] $end
     $var wire  1 L ALUSrcA $end
     $var wire  1 M ALUSrcB $end
     $var wire  1 Z Branch $end
     $var wire  3 N ImmSrc [2:0] $end
     $var wire  1 S JalSrc $end
     $var wire  1 [ Jump $end
     $var wire  1 Q LdSrc $end
     $var wire  1 K MemWrite $end
     $var wire  1 O RegWrite $end
     $var wire  2 J ResultSrc [1:0] $end
     $var wire  1 R StSrc $end
     $var wire  3 H funct3 [2:0] $end
     $var wire  7 G opcode [6:0] $end
    $upscope $end
   $upscope $end
   $scope module my_data_memory $end
    $var wire 32 b A [31:0] $end
    $var wire 32 o DATA_WIDTH [31:0] $end
    $var wire  1 Q LdSrc $end
    $var wire 32 k RD [31:0] $end
    $var wire  1 R StSrc $end
    $var wire 32 a WD [31:0] $end
    $var wire  1 K WE $end
    $var wire  1 f clk $end
    $var wire 32 e corrected_WD [31:0] $end
    $var wire 32 l read_data_internal [31:0] $end
    $scope module my_mem $end
     $var wire 32 b A [31:0] $end
     $var wire 32 p DATA_WIDTH [31:0] $end
     $var wire 32 l RD [31:0] $end
     $var wire 32 e WD [31:0] $end
     $var wire  1 K WE $end
     $var wire  1 f clk $end
    $upscope $end
    $scope module my_mem_i $end
     $var wire 32 o DATA_WIDTH [31:0] $end
     $var wire  1 R StSrc $end
     $var wire 32 a WD_i [31:0] $end
     $var wire 32 e WD_o [31:0] $end
    $upscope $end
    $scope module my_mem_o $end
     $var wire 32 o DATA_WIDTH [31:0] $end
     $var wire  1 Q LdSrc $end
     $var wire 32 l RD_i [31:0] $end
     $var wire 32 k RD_o [31:0] $end
    $upscope $end
   $upscope $end
   $scope module my_extend $end
    $var wire 25 X Imm [31:7] $end
    $var wire 32 D ImmExt [31:0] $end
    $var wire  3 N ImmSrc [2:0] $end
   $upscope $end
   $scope module my_instr_mem $end
    $var wire 12 T A [11:0] $end
    $var wire 32 q A_length [31:0] $end
    $var wire 32 p D_length [31:0] $end
    $var wire 32 F RD [31:0] $end
   $upscope $end
   $scope module my_pc_top $end
    $var wire 32 D ImmExt [31:0] $end
    $var wire  1 S JalSrc $end
    $var wire 32 E PC [31:0] $end
    $var wire  1 i PCSrc $end
    $var wire 32 ^ PC_Jump [31:0] $end
    $var wire 32 n PC_Next [31:0] $end
    $var wire 32 C PC_Plus [31:0] $end
    $var wire 32 m PC_Target [31:0] $end
    $var wire 32 o PC_WIDTH [31:0] $end
    $var wire 32 ` RD1 [31:0] $end
    $var wire  1 f clk $end
    $var wire  1 g rst $end
   $upscope $end
   $scope module my_reg_file $end
    $var wire  5 U A1 [4:0] $end
    $var wire  5 V A2 [4:0] $end
    $var wire  5 W A3 [4:0] $end
    $var wire 32 ` RD1 [31:0] $end
    $var wire 32 a RD2 [31:0] $end
    $var wire 32 j WD3 [31:0] $end
    $var wire  1 O WE3 $end
    $var wire 32 h a0 [31:0] $end
    $var wire  1 f clk $end
    $var wire 32 # mem[0] [31:0] $end
    $var wire 32 - mem[10] [31:0] $end
    $var wire 32 . mem[11] [31:0] $end
    $var wire 32 / mem[12] [31:0] $end
    $var wire 32 0 mem[13] [31:0] $end
    $var wire 32 1 mem[14] [31:0] $end
    $var wire 32 2 mem[15] [31:0] $end
    $var wire 32 3 mem[16] [31:0] $end
    $var wire 32 4 mem[17] [31:0] $end
    $var wire 32 5 mem[18] [31:0] $end
    $var wire 32 6 mem[19] [31:0] $end
    $var wire 32 $ mem[1] [31:0] $end
    $var wire 32 7 mem[20] [31:0] $end
    $var wire 32 8 mem[21] [31:0] $end
    $var wire 32 9 mem[22] [31:0] $end
    $var wire 32 : mem[23] [31:0] $end
    $var wire 32 ; mem[24] [31:0] $end
    $var wire 32 < mem[25] [31:0] $end
    $var wire 32 = mem[26] [31:0] $end
    $var wire 32 > mem[27] [31:0] $end
    $var wire 32 ? mem[28] [31:0] $end
    $var wire 32 @ mem[29] [31:0] $end
    $var wire 32 % mem[2] [31:0] $end
    $var wire 32 A mem[30] [31:0] $end
    $var wire 32 B mem[31] [31:0] $end
    $var wire 32 & mem[3] [31:0] $end
    $var wire 32 ' mem[4] [31:0] $end
    $var wire 32 ( mem[5] [31:0] $end
    $var wire 32 ) mem[6] [31:0] $end
    $var wire 32 * mem[7] [31:0] $end
    $var wire 32 + mem[8] [31:0] $end
    $var wire 32 , mem[9] [31:0] $end
   $upscope $end
  $upscope $end
 $upscope $end
$enddefinitions $end


#0
b00000000000000000000000000000000 #
b00000000000000000000000000000000 $
b00000000000000000000000000000000 %
b00000000000000000000000000000000 &
b00000000000000000000000000000000 '
b00000000000000000000000000000000 (
b00000000000000000000000000000000 )
b00000000000000000000000000000000 *
b00000000000000000000000000000000 +
b00000000000000000000000000000000 ,
b00000000000000000000000000000000 -
b00000000000000000000000000000000 .
b00000000000000000000000000000000 /
b00000000000000000000000000000000 0
b00000000000000000000000000000000 1
b00000000000000000000000000000000 2
b00000000000000000000000000000000 3
b00000000000000000000000000000000 4
b00000000000000000000000000000000 5
b00000000000000000000000000000000 6
b00000000000000000000000000000000 7
b00000000000000000000000000000000 8
b00000000000000000000000000000000 9
b00000000000000000000000000000000 :
b00000000000000000000000000000000 ;
b00000000000000000000000000000000 <
b00000000000000000000000000000000 =
b00000000000000000000000000000000 >
b00000000000000000000000000000000 ?
b00000000000000000000000000000000 @
b00000000000000000000000000000000 A
b00000000000000000000000000000000 B
b00000000000000000000000000000100 C
b00000000000000000000000000000000 D
b00000000000000000000000000000000 E
b00000000000000000000000000000000 F
b0000000 G
b000 H
0I
b00 J
0K
0L
0M
b000 N
0O
b000 P
0Q
0R
0S
b000000000000 T
b00000 U
b00000 V
b00000 W
b0000000000000000000000000 X
b00 Y
0Z
0[
0\
b00 ]
b00000000000000000000000000000000 ^
0_
b00000000000000000000000000000000 `
b00000000000000000000000000000000 a
b00000000000000000000000000000000 b
b00000000000000000000000000000000 c
b00000000000000000000000000000000 d
b00000000000000000000000000000000 e
1f
0g
b00000000000000000000000000000000 h
0i
b00000000000000000000000000000000 j
b00000000000000000000000000000000 k
b00000000000000000000000000000000 l
b00000000000000000000000000000000 m
b00000000000000000000000000000100 n
b00000000000000000000000000100000 o
b00000000000000000000000000001000 p
b00000000000000000000000000001100 q
#1
b00000000000000000000000000001101 D
b00000000110101100000011000010011 F
b0010011 G
1M
1O
b01100 U
b01101 V
b01100 W
b0000000011010110000001100 X
b00000000000000000000000000001101 ^
b00000000000000000000000000001101 b
b00000000000000000000000000001101 d
0f
b00000000000000000000000000001101 j
#2
b00000000000000000000000000001101 /
b00000000000000000000000000001000 C
b00000000000000000000000000000100 D
b00000000000000000000000000000100 E
b00000000010001101000011010010011 F
b000000000100 T
b01101 U
b00100 V
b01101 W
b0000000001000110100001101 X
b00000000000000000000000000001000 ^
b00000000000000000000000000000100 b
b00000000000000000000000000000100 d
1f
b00000000000000000000000000000100 j
b00000000000000000000000000001000 n
#3
0f
#4
b00000000000000000000000000000100 0
b00000000000000000000000000001100 C
b00000000000000000000000000001101 D
b00000000000000000000000000001000 E
b00000000110101100000010100110011 F
b0110011 G
0M
b000000001000 T
b01100 U
b01101 V
b01010 W
b0000000011010110000001010 X
b10 Y
1\
b10 ]
b00000000000000000000000000010101 ^
b00000000000000000000000000001101 `
b00000000000000000000000000000100 a
b00000000000000000000000000010001 b
b00000000000000000000000000001101 c
b00000000000000000000000000000100 e
1f
b00000000000000000000000000010001 j
b00000000000000000000000000001101 m
b00000000000000000000000000001100 n
#5
0f
#6
b00000000000000000000000000010001 -
b00000000000000000000000000010000 C
b00000000000000000000000000000011 D
b00000000000000000000000000001100 E
b00000000101001101000000110100011 F
b0100011 G
1K
1M
b001 N
0O
1R
b000000001100 T
b01101 U
b01010 V
b00011 W
b0000000010100110100000011 X
b00 Y
b00000000000000000000000000001111 ^
b00000000000000000000000000000100 `
b00000000000000000000000000010001 a
b00000000000000000000000000000111 b
b00000000000000000000000000000100 c
b00000000000000000000000000000011 d
b00000000000000000000000000010001 e
1f
b00000000000000000000000000010001 h
b00000000000000000000000000000111 j
b00000000000000000000000000000100 m
b00000000000000000000000000010000 n
#7
0f
#8
b00000000000000000000000000010100 C
b00000000000000000000000000010000 E
b00000000001101101010010110000011 F
b0000011 G
b010 H
b01 J
0K
b000 N
1O
b000000010000 T
b00011 V
b01011 W
b0000000000110110101001011 X
0\
b00 ]
b00000000000000000000000000010011 ^
b00000000000000000000000000000000 a
b00000000000000000000000000000000 e
1f
b00000000000000000000000000010001 j
b00000000000000000000000000010001 k
b00000000000000000000000000010001 l
b00000000000000000000000000010100 n
#9
0f
#10
b00000000000000000000000000010001 .
b00000000000000000000000000011000 C
b00000000000000000000000000001111 D
b00000000000000000000000000010100 E
b00000000111100000000011000010011 F
b0010011 G
b000 H
b00 J
b000000010100 T
b00000 U
b01111 V
b01100 W
b0000000011110000000001100 X
b00000000000000000000000000100011 ^
b00000000000000000000000000000000 `
b00000000000000000000000000001111 b
b00000000000000000000000000000000 c
b00000000000000000000000000001111 d
1f
b00000000000000000000000000001111 j
b00000000000000000000000000000000 k
b00000000000000000000000000000000 l
b00000000000000000000000000000000 m
b00000000000000000000000000011000 n
#11
0f
#12
b00000000000000000000000000001111 /
b00000000000000000000000000011100 C
b00000000000000000000000000000100 D
b00000000000000000000000000011000 E
b00000000010000000000011010010011 F
b000000011000 T
b00100 V
b01101 W
b0000000001000000000001101 X
b00000000000000000000000000011100 ^
b00000000000000000000000000000100 b
b00000000000000000000000000000100 d
1f
b00000000000000000000000000000100 j
b00010001000000000000000000000000 k
b00010001000000000000000000000000 l
b00000000000000000000000000011100 n
#13
0f
#14
b00000000000000000000000000100000 C
b00000000000000000000000000001101 D
b00000000000000000000000000011100 E
b00000000110101100000010100110011 F
b0110011 G
0M
b000000011100 T
b01100 U
b01101 V
b01010 W
b0000000011010110000001010 X
b10 Y
1\
b10 ]
b00000000000000000000000000101001 ^
b00000000000000000000000000001111 `
b00000000000000000000000000000100 a
b00000000000000000000000000010011 b
b00000000000000000000000000001111 c
b00000000000000000000000000000100 e
1f
b00000000000000000000000000010011 j
b00000000000000000000000000000000 k
b00000000000000000000000000000000 l
b00000000000000000000000000001111 m
b00000000000000000000000000100000 n
#15
0f
#16
b00000000000000000000000000010011 -
b00000000000000000000000000100100 C
b00000000000000000000000000000011 D
b00000000000000000000000000100000 E
b00000000101001101010000110100011 F
b0100011 G
b010 H
1K
1M
b001 N
0O
b000000100000 T
b01101 U
b01010 V
b00011 W
b0000000010100110101000011 X
b00 Y
b00000000000000000000000000100011 ^
b00000000000000000000000000000100 `
b00000000000000000000000000010011 a
b00000000000000000000000000000111 b
b00000000000000000000000000000100 c
b00000000000000000000000000000011 d
b00000000000000000000000000010011 e
1f
b00000000000000000000000000010011 h
b00000000000000000000000000000111 j
b00000000000000000000000000010001 k
b00000000000000000000000000010001 l
b00000000000000000000000000000100 m
b00000000000000000000000000100100 n
#17
0f
#18
b00000000000000000000000000101000 C
b00000000000000000000000000100100 E
b00000000001101101010010110000011 F
b0000011 G
b01 J
0K
b000 N
1O
b000000100100 T
b00011 V
b01011 W
b0000000000110110101001011 X
0\
b00 ]
b00000000000000000000000000100111 ^
b00000000000000000000000000000000 a
b00000000000000000000000000000000 e
1f
b00000000000000000000000000010011 j
b00000000000000000000000000010011 k
b00000000000000000000000000010011 l
b00000000000000000000000000101000 n
#19
0f
#20
b00000000000000000000000000010011 .
b00000000000000000000000000101100 C
b00000000000000000000000000101000 E
b00000000001101101100011000000011 F
b100 H
1Q
b000000101000 T
b01100 W
b0000000000110110110001100 X
b00000000000000000000000000101011 ^
1f
b00000000000000000000000000101100 n
#21
0f
#22
b00000000000000000000000000010011 /
b00000000000000000000000000110000 C
b00000000000000000000000000000000 D
b00000000000000000000000000101100 E
b00000000000000000000000000000000 F
b0000000 G
b000 H
0O
b000000101100 T
b00000 U
b00000 V
b00000 W
b0000000000000000000000000 X
b00000000000000000000000000101100 ^
1_
b00000000000000000000000000000000 `
b00000000000000000000000000000000 b
b00000000000000000000000000000000 c
b00000000000000000000000000000000 d
1f
b00000000000000000000000000000000 j
b00000000000000000000000000000000 k
b00000000000000000000000000000000 l
b00000000000000000000000000000000 m
b00000000000000000000000000110000 n
#23
0f
#24
b00000000000000000000000000110100 C
b00000000000000000000000000110000 E
b000000110000 T
b00000000000000000000000000110000 ^
1f
b00000000000000000000000000110100 n
#25
0f
#26
b00000000000000000000000000111000 C
b00000000000000000000000000110100 E
b000000110100 T
b00000000000000000000000000110100 ^
1f
b00000000000000000000000000111000 n
#27
0f
#28
b00000000000000000000000000111100 C
b00000000000000000000000000111000 E
b000000111000 T
b00000000000000000000000000111000 ^
1f
b00000000000000000000000000111100 n
#29
0f
#30
b00000000000000000000000001000000 C
b00000000000000000000000000111100 E
b000000111100 T
b00000000000000000000000000111100 ^
1f
b00000000000000000000000001000000 n
#31
0f
#32
b00000000000000000000000001000100 C
b00000000000000000000000001000000 E
b000001000000 T
b00000000000000000000000001000000 ^
1f
b00000000000000000000000001000100 n
#33
0f
#34
b00000000000000000000000001001000 C
b00000000000000000000000001000100 E
b000001000100 T
b00000000000000000000000001000100 ^
1f
b00000000000000000000000001001000 n
#35
0f
#36
b00000000000000000000000001001100 C
b00000000000000000000000001001000 E
b000001001000 T
b00000000000000000000000001001000 ^
1f
b00000000000000000000000001001100 n
#37
0f
#38
b00000000000000000000000001010000 C
b00000000000000000000000001001100 E
b000001001100 T
b00000000000000000000000001001100 ^
1f
b00000000000000000000000001010000 n
#39
0f
#40
b00000000000000000000000001010100 C
b00000000000000000000000001010000 E
b000001010000 T
b00000000000000000000000001010000 ^
1f
b00000000000000000000000001010100 n
#41
0f
#42
b00000000000000000000000001011000 C
b00000000000000000000000001010100 E
b000001010100 T
b00000000000000000000000001010100 ^
1f
b00000000000000000000000001011000 n
#43
0f
#44
b00000000000000000000000001011100 C
b00000000000000000000000001011000 E
b000001011000 T
b00000000000000000000000001011000 ^
1f
b00000000000000000000000001011100 n
#45
0f
#46
b00000000000000000000000001100000 C
b00000000000000000000000001011100 E
b000001011100 T
b00000000000000000000000001011100 ^
1f
b00000000000000000000000001100000 n
#47
0f
#48
b00000000000000000000000001100100 C
b00000000000000000000000001100000 E
b000001100000 T
b00000000000000000000000001100000 ^
1f
b00000000000000000000000001100100 n
#49
0f
#50
b00000000000000000000000001101000 C
b00000000000000000000000001100100 E
b000001100100 T
b00000000000000000000000001100100 ^
1f
b00000000000000000000000001101000 n
#51
0f
#52
b00000000000000000000000001101100 C
b00000000000000000000000001101000 E
b000001101000 T
b00000000000000000000000001101000 ^
1f
b00000000000000000000000001101100 n
#53
0f
#54
b00000000000000000000000001110000 C
b00000000000000000000000001101100 E
b000001101100 T
b00000000000000000000000001101100 ^
1f
b00000000000000000000000001110000 n
#55
0f
#56
b00000000000000000000000001110100 C
b00000000000000000000000001110000 E
b000001110000 T
b00000000000000000000000001110000 ^
1f
b00000000000000000000000001110100 n
#57
0f
#58
b00000000000000000000000001111000 C
b00000000000000000000000001110100 E
b000001110100 T
b00000000000000000000000001110100 ^
1f
b00000000000000000000000001111000 n
#59
0f
#60
b00000000000000000000000001111100 C
b00000000000000000000000001111000 E
b000001111000 T
b00000000000000000000000001111000 ^
1f
b00000000000000000000000001111100 n
#61
0f
#62
b00000000000000000000000010000000 C
b00000000000000000000000001111100 E
b000001111100 T
b00000000000000000000000001111100 ^
1f
b00000000000000000000000010000000 n
#63
0f
#64
b00000000000000000000000010000100 C
b00000000000000000000000010000000 E
b000010000000 T
b00000000000000000000000010000000 ^
1f
b00000000000000000000000010000100 n
#65
0f
#66
b00000000000000000000000010001000 C
b00000000000000000000000010000100 E
b000010000100 T
b00000000000000000000000010000100 ^
1f
b00000000000000000000000010001000 n
#67
0f
#68
b00000000000000000000000010001100 C
b00000000000000000000000010001000 E
b000010001000 T
b00000000000000000000000010001000 ^
1f
b00000000000000000000000010001100 n
#69
0f
#70
b00000000000000000000000010010000 C
b00000000000000000000000010001100 E
b000010001100 T
b00000000000000000000000010001100 ^
1f
b00000000000000000000000010010000 n
#71
0f
#72
b00000000000000000000000010010100 C
b00000000000000000000000010010000 E
b000010010000 T
b00000000000000000000000010010000 ^
1f
b00000000000000000000000010010100 n
#73
0f
#74
b00000000000000000000000010011000 C
b00000000000000000000000010010100 E
b000010010100 T
b00000000000000000000000010010100 ^
1f
b00000000000000000000000010011000 n
#75
0f
#76
b00000000000000000000000010011100 C
b00000000000000000000000010011000 E
b000010011000 T
b00000000000000000000000010011000 ^
1f
b00000000000000000000000010011100 n
#77
0f
#78
b00000000000000000000000010100000 C
b00000000000000000000000010011100 E
b000010011100 T
b00000000000000000000000010011100 ^
1f
b00000000000000000000000010100000 n
#79
0f
#80
b00000000000000000000000010100100 C
b00000000000000000000000010100000 E
b000010100000 T
b00000000000000000000000010100000 ^
1f
b00000000000000000000000010100100 n
#81
0f
#82
b00000000000000000000000010101000 C
b00000000000000000000000010100100 E
b000010100100 T
b00000000000000000000000010100100 ^
1f
b00000000000000000000000010101000 n
#83
0f
#84
b00000000000000000000000010101100 C
b00000000000000000000000010101000 E
b000010101000 T
b00000000000000000000000010101000 ^
1f
b00000000000000000000000010101100 n
#85
0f
#86
b00000000000000000000000010110000 C
b00000000000000000000000010101100 E
b000010101100 T
b00000000000000000000000010101100 ^
1f
b00000000000000000000000010110000 n
#87
0f
#88
b00000000000000000000000010110100 C
b00000000000000000000000010110000 E
b000010110000 T
b00000000000000000000000010110000 ^
1f
b00000000000000000000000010110100 n
#89
0f
#90
b00000000000000000000000010111000 C
b00000000000000000000000010110100 E
b000010110100 T
b00000000000000000000000010110100 ^
1f
b00000000000000000000000010111000 n
#91
0f
#92
b00000000000000000000000010111100 C
b00000000000000000000000010111000 E
b000010111000 T
b00000000000000000000000010111000 ^
1f
b00000000000000000000000010111100 n
#93
0f
#94
b00000000000000000000000011000000 C
b00000000000000000000000010111100 E
b000010111100 T
b00000000000000000000000010111100 ^
1f
b00000000000000000000000011000000 n
#95
0f
#96
b00000000000000000000000011000100 C
b00000000000000000000000011000000 E
b000011000000 T
b00000000000000000000000011000000 ^
1f
b00000000000000000000000011000100 n
#97
0f
#98
b00000000000000000000000011001000 C
b00000000000000000000000011000100 E
b000011000100 T
b00000000000000000000000011000100 ^
1f
b00000000000000000000000011001000 n
#99
0f
#100
b00000000000000000000000011001100 C
b00000000000000000000000011001000 E
b000011001000 T
b00000000000000000000000011001000 ^
1f
b00000000000000000000000011001100 n
#101
0f
#102
b00000000000000000000000011010000 C
b00000000000000000000000011001100 E
b000011001100 T
b00000000000000000000000011001100 ^
1f
b00000000000000000000000011010000 n
#103
0f
#104
b00000000000000000000000011010100 C
b00000000000000000000000011010000 E
b000011010000 T
b00000000000000000000000011010000 ^
1f
b00000000000000000000000011010100 n
#105
0f
#106
b00000000000000000000000011011000 C
b00000000000000000000000011010100 E
b000011010100 T
b00000000000000000000000011010100 ^
1f
b00000000000000000000000011011000 n
#107
0f
#108
b00000000000000000000000011011100 C
b00000000000000000000000011011000 E
b000011011000 T
b00000000000000000000000011011000 ^
1f
b00000000000000000000000011011100 n
#109
0f
#110
b00000000000000000000000011100000 C
b00000000000000000000000011011100 E
b000011011100 T
b00000000000000000000000011011100 ^
1f
b00000000000000000000000011100000 n
#111
0f
#112
b00000000000000000000000011100100 C
b00000000000000000000000011100000 E
b000011100000 T
b00000000000000000000000011100000 ^
1f
b00000000000000000000000011100100 n
#113
0f
#114
b00000000000000000000000011101000 C
b00000000000000000000000011100100 E
b000011100100 T
b00000000000000000000000011100100 ^
1f
b00000000000000000000000011101000 n
#115
0f
#116
b00000000000000000000000011101100 C
b00000000000000000000000011101000 E
b000011101000 T
b00000000000000000000000011101000 ^
1f
b00000000000000000000000011101100 n
#117
0f
#118
b00000000000000000000000011110000 C
b00000000000000000000000011101100 E
b000011101100 T
b00000000000000000000000011101100 ^
1f
b00000000000000000000000011110000 n
#119
0f
#120
b00000000000000000000000011110100 C
b00000000000000000000000011110000 E
b000011110000 T
b00000000000000000000000011110000 ^
1f
b00000000000000000000000011110100 n
#121
0f
#122
b00000000000000000000000011111000 C
b00000000000000000000000011110100 E
b000011110100 T
b00000000000000000000000011110100 ^
1f
b00000000000000000000000011111000 n
#123
0f
#124
b00000000000000000000000011111100 C
b00000000000000000000000011111000 E
b000011111000 T
b00000000000000000000000011111000 ^
1f
b00000000000000000000000011111100 n
#125
0f
#126
b00000000000000000000000100000000 C
b00000000000000000000000011111100 E
b000011111100 T
b00000000000000000000000011111100 ^
1f
b00000000000000000000000100000000 n
#127
0f
#128
b00000000000000000000000100000100 C
b00000000000000000000000100000000 E
b000100000000 T
b00000000000000000000000100000000 ^
1f
b00000000000000000000000100000100 n
#129
0f
#130
b00000000000000000000000100001000 C
b00000000000000000000000100000100 E
b000100000100 T
b00000000000000000000000100000100 ^
1f
b00000000000000000000000100001000 n
#131
0f
#132
b00000000000000000000000100001100 C
b00000000000000000000000100001000 E
b000100001000 T
b00000000000000000000000100001000 ^
1f
b00000000000000000000000100001100 n
#133
0f
#134
b00000000000000000000000100010000 C
b00000000000000000000000100001100 E
b000100001100 T
b00000000000000000000000100001100 ^
1f
b00000000000000000000000100010000 n
#135
0f
#136
b00000000000000000000000100010100 C
b00000000000000000000000100010000 E
b000100010000 T
b00000000000000000000000100010000 ^
1f
b00000000000000000000000100010100 n
#137
0f
#138
b00000000000000000000000100011000 C
b00000000000000000000000100010100 E
b000100010100 T
b00000000000000000000000100010100 ^
1f
b00000000000000000000000100011000 n
#139
0f
#140
b00000000000000000000000100011100 C
b00000000000000000000000100011000 E
b000100011000 T
b00000000000000000000000100011000 ^
1f
b00000000000000000000000100011100 n
#141
0f
#142
b00000000000000000000000100100000 C
b00000000000000000000000100011100 E
b000100011100 T
b00000000000000000000000100011100 ^
1f
b00000000000000000000000100100000 n
#143
0f
#144
b00000000000000000000000100100100 C
b00000000000000000000000100100000 E
b000100100000 T
b00000000000000000000000100100000 ^
1f
b00000000000000000000000100100100 n
#145
0f
#146
b00000000000000000000000100101000 C
b00000000000000000000000100100100 E
b000100100100 T
b00000000000000000000000100100100 ^
1f
b00000000000000000000000100101000 n
#147
0f
#148
b00000000000000000000000100101100 C
b00000000000000000000000100101000 E
b000100101000 T
b00000000000000000000000100101000 ^
1f
b00000000000000000000000100101100 n
#149
0f
#150
b00000000000000000000000100110000 C
b00000000000000000000000100101100 E
b000100101100 T
b00000000000000000000000100101100 ^
1f
b00000000000000000000000100110000 n
#151
0f
#152
b00000000000000000000000100110100 C
b00000000000000000000000100110000 E
b000100110000 T
b00000000000000000000000100110000 ^
1f
b00000000000000000000000100110100 n
#153
0f
#154
b00000000000000000000000100111000 C
b00000000000000000000000100110100 E
b000100110100 T
b00000000000000000000000100110100 ^
1f
b00000000000000000000000100111000 n
#155
0f
#156
b00000000000000000000000100111100 C
b00000000000000000000000100111000 E
b000100111000 T
b00000000000000000000000100111000 ^
1f
b00000000000000000000000100111100 n
#157
0f
#158
b00000000000000000000000101000000 C
b00000000000000000000000100111100 E
b000100111100 T
b00000000000000000000000100111100 ^
1f
b00000000000000000000000101000000 n
#159
0f
#160
b00000000000000000000000101000100 C
b00000000000000000000000101000000 E
b000101000000 T
b00000000000000000000000101000000 ^
1f
b00000000000000000000000101000100 n
#161
0f
#162
b00000000000000000000000101001000 C
b00000000000000000000000101000100 E
b000101000100 T
b00000000000000000000000101000100 ^
1f
b00000000000000000000000101001000 n
#163
0f
#164
b00000000000000000000000101001100 C
b00000000000000000000000101001000 E
b000101001000 T
b00000000000000000000000101001000 ^
1f
b00000000000000000000000101001100 n
#165
0f
#166
b00000000000000000000000101010000 C
b00000000000000000000000101001100 E
b000101001100 T
b00000000000000000000000101001100 ^
1f
b00000000000000000000000101010000 n
#167
0f
#168
b00000000000000000000000101010100 C
b00000000000000000000000101010000 E
b000101010000 T
b00000000000000000000000101010000 ^
1f
b00000000000000000000000101010100 n
#169
0f
#170
b00000000000000000000000101011000 C
b00000000000000000000000101010100 E
b000101010100 T
b00000000000000000000000101010100 ^
1f
b00000000000000000000000101011000 n
#171
0f
#172
b00000000000000000000000101011100 C
b00000000000000000000000101011000 E
b000101011000 T
b00000000000000000000000101011000 ^
1f
b00000000000000000000000101011100 n
#173
0f
#174
b00000000000000000000000101100000 C
b00000000000000000000000101011100 E
b000101011100 T
b00000000000000000000000101011100 ^
1f
b00000000000000000000000101100000 n
#175
0f
#176
b00000000000000000000000101100100 C
b00000000000000000000000101100000 E
b000101100000 T
b00000000000000000000000101100000 ^
1f
b00000000000000000000000101100100 n
#177
0f
#178
b00000000000000000000000101101000 C
b00000000000000000000000101100100 E
b000101100100 T
b00000000000000000000000101100100 ^
1f
b00000000000000000000000101101000 n
#179
0f
#180
b00000000000000000000000101101100 C
b00000000000000000000000101101000 E
b000101101000 T
b00000000000000000000000101101000 ^
1f
b00000000000000000000000101101100 n
#181
0f
#182
b00000000000000000000000101110000 C
b00000000000000000000000101101100 E
b000101101100 T
b00000000000000000000000101101100 ^
1f
b00000000000000000000000101110000 n
#183
0f
#184
b00000000000000000000000101110100 C
b00000000000000000000000101110000 E
b000101110000 T
b00000000000000000000000101110000 ^
1f
b00000000000000000000000101110100 n
#185
0f
#186
b00000000000000000000000101111000 C
b00000000000000000000000101110100 E
b000101110100 T
b00000000000000000000000101110100 ^
1f
b00000000000000000000000101111000 n
#187
0f
#188
b00000000000000000000000101111100 C
b00000000000000000000000101111000 E
b000101111000 T
b00000000000000000000000101111000 ^
1f
b00000000000000000000000101111100 n
#189
0f
#190
b00000000000000000000000110000000 C
b00000000000000000000000101111100 E
b000101111100 T
b00000000000000000000000101111100 ^
1f
b00000000000000000000000110000000 n
#191
0f
#192
b00000000000000000000000110000100 C
b00000000000000000000000110000000 E
b000110000000 T
b00000000000000000000000110000000 ^
1f
b00000000000000000000000110000100 n
#193
0f
#194
b00000000000000000000000110001000 C
b00000000000000000000000110000100 E
b000110000100 T
b00000000000000000000000110000100 ^
1f
b00000000000000000000000110001000 n
#195
0f
#196
b00000000000000000000000110001100 C
b00000000000000000000000110001000 E
b000110001000 T
b00000000000000000000000110001000 ^
1f
b00000000000000000000000110001100 n
#197
0f
