top.vcd
$version Generated by VerilatedVcd $end
$date Fri Dec  1 11:52:17 2023 $end
$timescale 1ps $end

 $scope module TOP $end
  $var wire 32 h a0 [31:0] $end
  $var wire  1 e clk $end
  $var wire  1 g rst $end
  $var wire  1 f trigger $end
  $scope module top $end
   $var wire 12 Z A [11:0] $end
   $var wire  5 [ A1 [4:0] $end
   $var wire  5 \ A2 [4:0] $end
   $var wire  5 ] A3 [4:0] $end
   $var wire  3 V ALUControl [2:0] $end
   $var wire 32 & ALUResult [31:0] $end
   $var wire  1 R ALUSrcA $end
   $var wire  1 S ALUSrcB $end
   $var wire 25 ^ Imm [24:0] $end
   $var wire 32 J ImmExt [31:0] $end
   $var wire  3 T ImmSrc [2:0] $end
   $var wire 32 L Instr [31:0] $end
   $var wire  1 Y JalSrc $end
   $var wire  1 W LdSrc $end
   $var wire  1 Q MemWrite $end
   $var wire 32 K PC [31:0] $end
   $var wire  1 i PCSrc $end
   $var wire 32 I PC_Plus [31:0] $end
   $var wire 32 $ RD1 [31:0] $end
   $var wire 32 k ReadData [31:0] $end
   $var wire  1 U RegWrite $end
   $var wire 32 j Result [31:0] $end
   $var wire  2 P ResultSrc [1:0] $end
   $var wire  1 X StSrc $end
   $var wire 32 % WriteData [31:0] $end
   $var wire  1 # Zero $end
   $var wire 32 h a0 [31:0] $end
   $var wire  1 e clk $end
   $var wire  1 O func75 $end
   $var wire  3 N funct3 [2:0] $end
   $var wire  7 M opcode [6:0] $end
   $var wire  1 g rst $end
   $var wire  1 f trigger $end
   $scope module my_DataMux $end
    $var wire 32 & ALUResult [31:0] $end
    $var wire 32 I PCPlus [31:0] $end
    $var wire 32 k RD [31:0] $end
    $var wire 32 j Result [31:0] $end
    $var wire  2 P ResultSrc [1:0] $end
   $upscope $end
   $scope module my_alu_top $end
    $var wire  3 V ALUControl [2:0] $end
    $var wire 32 & ALUResult [31:0] $end
    $var wire  1 R ALUSrcA $end
    $var wire  1 S ALUSrcB $end
    $var wire 32 J ImmExt [31:0] $end
    $var wire 32 K PC [31:0] $end
    $var wire 32 $ RD1 [31:0] $end
    $var wire 32 % RD2 [31:0] $end
    $var wire 32 ' SrcA [31:0] $end
    $var wire 32 ( SrcB [31:0] $end
    $var wire  1 # Zero $end
   $upscope $end
   $scope module my_control_unit $end
    $var wire  3 V ALUControl [2:0] $end
    $var wire  2 _ ALUOp [1:0] $end
    $var wire  1 R ALUSrcA $end
    $var wire  1 S ALUSrcB $end
    $var wire  1 ` Branch $end
    $var wire  3 T ImmSrc [2:0] $end
    $var wire  1 Y JalSrc $end
    $var wire  1 a Jump $end
    $var wire  1 W LdSrc $end
    $var wire  1 Q MemWrite $end
    $var wire  1 i PCSrc $end
    $var wire  1 U RegWrite $end
    $var wire  2 P ResultSrc [1:0] $end
    $var wire  1 X StSrc $end
    $var wire  1 # Zero $end
    $var wire  1 O func75 $end
    $var wire  3 N funct3 [2:0] $end
    $var wire  1 b op5 $end
    $var wire  7 M opcode [6:0] $end
    $scope module ALU_decode $end
     $var wire  3 V ALUControl [2:0] $end
     $var wire  2 _ ALUOp [1:0] $end
     $var wire  2 c decode [1:0] $end
     $var wire  1 O func75 $end
     $var wire  3 N funct3 [2:0] $end
     $var wire  1 b op5 $end
    $upscope $end
    $scope module PCSrc_decode $end
     $var wire  1 ` Branch $end
     $var wire  1 a Jump $end
     $var wire  1 i PCSrc $end
     $var wire  1 # Zero $end
     $var wire  3 N funct3 [2:0] $end
    $upscope $end
    $scope module main_decode $end
     $var wire  2 _ ALUOp [1:0] $end
     $var wire  1 R ALUSrcA $end
     $var wire  1 S ALUSrcB $end
     $var wire  1 ` Branch $end
     $var wire  3 T ImmSrc [2:0] $end
     $var wire  1 Y JalSrc $end
     $var wire  1 a Jump $end
     $var wire  1 W LdSrc $end
     $var wire  1 Q MemWrite $end
     $var wire  1 U RegWrite $end
     $var wire  2 P ResultSrc [1:0] $end
     $var wire  1 X StSrc $end
     $var wire  3 N funct3 [2:0] $end
     $var wire  7 M opcode [6:0] $end
    $upscope $end
   $upscope $end
   $scope module my_data_memory $end
    $var wire 32 & A [31:0] $end
    $var wire 32 n DATA_WIDTH [31:0] $end
    $var wire  1 W LdSrc $end
    $var wire 32 k RD [31:0] $end
    $var wire  1 X StSrc $end
    $var wire 32 % WD [31:0] $end
    $var wire  1 Q WE $end
    $var wire  1 e clk $end
   $upscope $end
   $scope module my_extend $end
    $var wire 25 ^ Imm [31:7] $end
    $var wire 32 J ImmExt [31:0] $end
    $var wire  3 T ImmSrc [2:0] $end
   $upscope $end
   $scope module my_instr_mem $end
    $var wire 12 Z A [11:0] $end
    $var wire 32 o A_length [31:0] $end
    $var wire 32 p D_length [31:0] $end
    $var wire 32 L RD [31:0] $end
   $upscope $end
   $scope module my_pc_top $end
    $var wire 32 J ImmExt [31:0] $end
    $var wire  1 Y JalSrc $end
    $var wire 32 K PC [31:0] $end
    $var wire  1 i PCSrc $end
    $var wire 32 d PC_Jump [31:0] $end
    $var wire 32 m PC_Next [31:0] $end
    $var wire 32 I PC_Plus [31:0] $end
    $var wire 32 l PC_Target [31:0] $end
    $var wire 32 n PC_WIDTH [31:0] $end
    $var wire 32 $ RD1 [31:0] $end
    $var wire  1 e clk $end
    $var wire  1 g rst $end
   $upscope $end
   $scope module my_reg_file $end
    $var wire  5 [ A1 [4:0] $end
    $var wire  5 \ A2 [4:0] $end
    $var wire  5 ] A3 [4:0] $end
    $var wire 32 $ RD1 [31:0] $end
    $var wire 32 % RD2 [31:0] $end
    $var wire 32 j WD3 [31:0] $end
    $var wire  1 U WE3 $end
    $var wire 32 h a0 [31:0] $end
    $var wire  1 e clk $end
    $var wire 32 ) mem[0] [31:0] $end
    $var wire 32 3 mem[10] [31:0] $end
    $var wire 32 4 mem[11] [31:0] $end
    $var wire 32 5 mem[12] [31:0] $end
    $var wire 32 6 mem[13] [31:0] $end
    $var wire 32 7 mem[14] [31:0] $end
    $var wire 32 8 mem[15] [31:0] $end
    $var wire 32 9 mem[16] [31:0] $end
    $var wire 32 : mem[17] [31:0] $end
    $var wire 32 ; mem[18] [31:0] $end
    $var wire 32 < mem[19] [31:0] $end
    $var wire 32 * mem[1] [31:0] $end
    $var wire 32 = mem[20] [31:0] $end
    $var wire 32 > mem[21] [31:0] $end
    $var wire 32 ? mem[22] [31:0] $end
    $var wire 32 @ mem[23] [31:0] $end
    $var wire 32 A mem[24] [31:0] $end
    $var wire 32 B mem[25] [31:0] $end
    $var wire 32 C mem[26] [31:0] $end
    $var wire 32 D mem[27] [31:0] $end
    $var wire 32 E mem[28] [31:0] $end
    $var wire 32 F mem[29] [31:0] $end
    $var wire 32 + mem[2] [31:0] $end
    $var wire 32 G mem[30] [31:0] $end
    $var wire 32 H mem[31] [31:0] $end
    $var wire 32 , mem[3] [31:0] $end
    $var wire 32 - mem[4] [31:0] $end
    $var wire 32 . mem[5] [31:0] $end
    $var wire 32 / mem[6] [31:0] $end
    $var wire 32 0 mem[7] [31:0] $end
    $var wire 32 1 mem[8] [31:0] $end
    $var wire 32 2 mem[9] [31:0] $end
    $var wire  1 f trigger $end
   $upscope $end
  $upscope $end
 $upscope $end
$enddefinitions $end


#0
0#
b00000000000000000000000000000000 $
b00000000000000000000000000000000 %
b00000000000000000000000000000000 &
b00000000000000000000000000000000 '
b00000000000000000000000000000000 (
b00000000000000000000000000000000 )
b00000000000000000000000000000000 *
b00000000000000000000000000000000 +
b00000000000000000000000000000000 ,
b00000000000000000000000000000000 -
b00000000000000000000000000000000 .
b00000000000000000000000000000000 /
b00000000000000000000000000000000 0
b00000000000000000000000000000000 1
b00000000000000000000000000000000 2
b00000000000000000000000000000000 3
b00000000000000000000000000000000 4
b00000000000000000000000000000000 5
b00000000000000000000000000000000 6
b00000000000000000000000000000000 7
b00000000000000000000000000000000 8
b00000000000000000000000000000000 9
b00000000000000000000000000000000 :
b00000000000000000000000000000000 ;
b00000000000000000000000000000000 <
b00000000000000000000000000000000 =
b00000000000000000000000000000000 >
b00000000000000000000000000000000 ?
b00000000000000000000000000000000 @
b00000000000000000000000000000000 A
b00000000000000000000000000000000 B
b00000000000000000000000000000000 C
b00000000000000000000000000000000 D
b00000000000000000000000000000000 E
b00000000000000000000000000000000 F
b00000000000000000000000000000000 G
b00000000000000000000000000000000 H
b00000000000000000000000000000100 I
b00000000000000000000000000000000 J
b00000000000000000000000000000000 K
b00000000000000000000000000000000 L
b0000000 M
b000 N
0O
b00 P
0Q
0R
0S
b000 T
0U
b000 V
0W
0X
0Y
b000000000000 Z
b00000 [
b00000 \
b00000 ]
b0000000000000000000000000 ^
b00 _
0`
0a
0b
b00 c
b00000000000000000000000000000000 d
1e
0f
0g
b00000000000000000000000000000000 h
0i
b00000000000000000000000000000000 j
b00000000000000000000000000000000 k
b00000000000000000000000000000000 l
b00000000000000000000000000000100 m
b00000000000000000000000000100000 n
b00000000000000000000000000001100 o
b00000000000000000000000000001000 p
#1
b00000000000000000000000001111111 &
b00000000000000000000000001111111 (
b00000000000000000000000001111111 J
b00000111111100000000011110010011 L
b0010011 M
1S
1U
b11111 \
b01111 ]
b0000011111110000000001111 ^
b00000000000000000000000001111111 d
0e
b00000000000000000000000001111111 j
#2
b00000000000000000000000001111111 $
b00000000000000000000000000011111 &
b00000000000000000000000001111111 '
b00000000000000000000000000000010 (
b00000000000000000000000001111111 8
b00000000000000000000000000001000 I
b00000000000000000000000000000010 J
b00000000000000000000000000000100 K
b00000000001001111101001010010011 L
b101 N
b100 V
b000000000100 Z
b01111 [
b00010 \
b00101 ]
b0000000000100111110100101 ^
b00000000000000000000000000000110 d
1e
b00000000000000000000000000011111 j
b00000000000000000000000001111111 l
b00000000000000000000000000001000 m
#3
0e
#4
b00000000000000000000000000011111 $
b00000000000000000000000000000001 &
b00000000000000000000000000011111 '
b00000000000000000000000000000001 (
b00000000000000000000000000011111 .
b00000000000000000000000000001100 I
b00000000000000000000000000000001 J
b00000000000000000000000000001000 K
b00000000000100101111001010010011 L
b111 N
b010 V
b000000001000 Z
b00101 [
b00001 \
b0000000000010010111100101 ^
b00000000000000000000000000001001 d
1e
b00000000000000000000000000000001 j
b00000000000000000000000000011111 l
b00000000000000000000000000001100 m
#5
0e
#6
b00000000000000000000000001111111 $
b00000000000000000000000001111111 '
b00000000000000000000000000000110 (
b00000000000000000000000000000001 .
b00000000000000000000000000010000 I
b00000000000000000000000000000110 J
b00000000000000000000000000001100 K
b00000000011001111101001100010011 L
b101 N
b100 V
b000000001100 Z
b01111 [
b00110 \
b00110 ]
b0000000001100111110100110 ^
b00000000000000000000000000010010 d
1e
b00000000000000000000000001111111 l
b00000000000000000000000000010000 m
#7
0e
#8
b00000000000000000000000000000001 $
b00000000000000000000000000000001 '
b00000000000000000000000000000001 (
b00000000000000000000000000000001 /
b00000000000000000000000000010100 I
b00000000000000000000000000000001 J
b00000000000000000000000000010000 K
b00000000000100110111001100010011 L
b111 N
b010 V
b000000010000 Z
b00110 [
b00001 \
b0000000000010011011100110 ^
b00000000000000000000000000010001 d
1e
b00000000000000000000000000000001 l
b00000000000000000000000000010100 m
#9
0e
#10
1#
b00000000000000000000000000000001 %
b00000000000000000000000000000000 &
b00000000000000000000000000011000 I
b00000000000000000000000000000110 J
b00000000000000000000000000010100 K
b00000000011000101100001010110011 L
b0110011 M
b100 N
0S
b101 V
b000000010100 Z
b00101 [
b00110 \
b00101 ]
b0000000001100010110000101 ^
b10 _
1b
b10 c
b00000000000000000000000000011010 d
1e
b00000000000000000000000000000000 j
b00000000000000000000000000011000 m
#11
0e
#12
0#
b00000000000000000000000001111111 $
b00000000000000000000000000000000 %
b00000000000000000000000000111111 &
b00000000000000000000000001111111 '
b00000000000000000000000000111111 (
b00000000000000000000000000000000 .
b00000000000000000000000000011100 I
b00000000000000000000000000111111 J
b00000000000000000000000000011000 K
b00000011111101111111001100010011 L
b0010011 M
b111 N
1S
b010 V
b000000011000 Z
b01111 [
b11111 \
b00110 ]
b0000001111110111111100110 ^
b00 _
0b
b00 c
b00000000000000000000000001010111 d
1e
b00000000000000000000000000111111 j
b00000000000000000000000001111111 l
b00000000000000000000000000011100 m
#13
0e
#14
b00000000000000000000000000111111 $
b00000000000000000000000001111110 &
b00000000000000000000000000111111 '
b00000000000000000000000000000001 (
b00000000000000000000000000111111 /
b00000000000000000000000000100000 I
b00000000000000000000000000000001 J
b00000000000000000000000000011100 K
b00000000000100110001001100010011 L
b001 N
b111 V
b000000011100 Z
b00110 [
b00001 \
b0000000000010011000100110 ^
b00000000000000000000000000011101 d
1e
b00000000000000000000000001111110 j
b00000000000000000000000000111111 l
b00000000000000000000000000100000 m
#15
0e
#16
b00000000000000000000000000000000 $
b00000000000000000000000001111110 %
b00000000000000000000000000000000 '
b00000000000000000000000001111110 (
b00000000000000000000000001111110 /
b00000000000000000000000000100100 I
b00000000000000000000000000000110 J
b00000000000000000000000000100000 K
b00000000011000101000001010110011 L
b0110011 M
b000 N
0S
b000 V
b000000100000 Z
b00101 [
b00110 \
b00101 ]
b0000000001100010100000101 ^
b10 _
1b
b10 c
b00000000000000000000000000100110 d
1e
b00000000000000000000000000000000 l
b00000000000000000000000000100100 m
#17
0e
#18
b00000000000000000000000001111110 $
b00000000000000000000000000000000 %
b00000000000000000000000000111110 &
b00000000000000000000000001111110 '
b00000000000000000000000000111111 (
b00000000000000000000000001111110 .
b00000000000000000000000000101000 I
b00000000000000000000000000111111 J
b00000000000000000000000000100100 K
b00000011111100101111001010010011 L
b0010011 M
b111 N
1S
b010 V
b000000100100 Z
b11111 \
b0000001111110010111100101 ^
b00 _
0b
b00 c
b00000000000000000000000001100011 d
1e
b00000000000000000000000000111110 j
b00000000000000000000000001111110 l
b00000000000000000000000000101000 m
#19
0e
#20
1#
b00000000000000000000000000000000 $
b00000000000000000000000000000000 &
b00000000000000000000000000000000 '
b00000000000000000000000000000000 (
b00000000000000000000000000111110 .
b00000000000000000000000000101100 I
b00000000000000000000000000000000 J
b00000000000000000000000000101000 K
b00000000000000000000000000000000 L
b0000000 M
b000 N
0S
0U
b000 V
b000000101000 Z
b00000 [
b00000 \
b00000 ]
b0000000000000000000000000 ^
b00000000000000000000000000101000 d
1e
b00000000000000000000000000000000 j
b00000000000000000000000000000000 l
b00000000000000000000000000101100 m
#21
0e
#22
b00000000000000000000000000110000 I
b00000000000000000000000000101100 K
b000000101100 Z
b00000000000000000000000000101100 d
1e
b00000000000000000000000000110000 m
#23
0e
#24
b00000000000000000000000000110100 I
b00000000000000000000000000110000 K
b000000110000 Z
b00000000000000000000000000110000 d
1e
b00000000000000000000000000110100 m
#25
0e
#26
b00000000000000000000000000111000 I
b00000000000000000000000000110100 K
b000000110100 Z
b00000000000000000000000000110100 d
1e
b00000000000000000000000000111000 m
#27
0e
#28
b00000000000000000000000000111100 I
b00000000000000000000000000111000 K
b000000111000 Z
b00000000000000000000000000111000 d
1e
b00000000000000000000000000111100 m
#29
0e
#30
b00000000000000000000000001000000 I
b00000000000000000000000000111100 K
b000000111100 Z
b00000000000000000000000000111100 d
1e
b00000000000000000000000001000000 m
#31
0e
#32
b00000000000000000000000001000100 I
b00000000000000000000000001000000 K
b000001000000 Z
b00000000000000000000000001000000 d
1e
b00000000000000000000000001000100 m
#33
0e
#34
b00000000000000000000000001001000 I
b00000000000000000000000001000100 K
b000001000100 Z
b00000000000000000000000001000100 d
1e
b00000000000000000000000001001000 m
#35
0e
#36
b00000000000000000000000001001100 I
b00000000000000000000000001001000 K
b000001001000 Z
b00000000000000000000000001001000 d
1e
b00000000000000000000000001001100 m
#37
0e
#38
b00000000000000000000000001010000 I
b00000000000000000000000001001100 K
b000001001100 Z
b00000000000000000000000001001100 d
1e
b00000000000000000000000001010000 m
#39
0e
#40
b00000000000000000000000001010100 I
b00000000000000000000000001010000 K
b000001010000 Z
b00000000000000000000000001010000 d
1e
b00000000000000000000000001010100 m
#41
0e
#42
b00000000000000000000000001011000 I
b00000000000000000000000001010100 K
b000001010100 Z
b00000000000000000000000001010100 d
1e
b00000000000000000000000001011000 m
#43
0e
#44
b00000000000000000000000001011100 I
b00000000000000000000000001011000 K
b000001011000 Z
b00000000000000000000000001011000 d
1e
b00000000000000000000000001011100 m
#45
0e
#46
b00000000000000000000000001100000 I
b00000000000000000000000001011100 K
b000001011100 Z
b00000000000000000000000001011100 d
1e
b00000000000000000000000001100000 m
#47
0e
#48
b00000000000000000000000001100100 I
b00000000000000000000000001100000 K
b000001100000 Z
b00000000000000000000000001100000 d
1e
b00000000000000000000000001100100 m
#49
0e
#50
b00000000000000000000000001101000 I
b00000000000000000000000001100100 K
b000001100100 Z
b00000000000000000000000001100100 d
1e
b00000000000000000000000001101000 m
#51
0e
#52
b00000000000000000000000001101100 I
b00000000000000000000000001101000 K
b000001101000 Z
b00000000000000000000000001101000 d
1e
b00000000000000000000000001101100 m
#53
0e
#54
b00000000000000000000000001110000 I
b00000000000000000000000001101100 K
b000001101100 Z
b00000000000000000000000001101100 d
1e
b00000000000000000000000001110000 m
#55
0e
#56
b00000000000000000000000001110100 I
b00000000000000000000000001110000 K
b000001110000 Z
b00000000000000000000000001110000 d
1e
b00000000000000000000000001110100 m
#57
0e
#58
b00000000000000000000000001111000 I
b00000000000000000000000001110100 K
b000001110100 Z
b00000000000000000000000001110100 d
1e
b00000000000000000000000001111000 m
#59
0e
#60
b00000000000000000000000001111100 I
b00000000000000000000000001111000 K
b000001111000 Z
b00000000000000000000000001111000 d
1e
b00000000000000000000000001111100 m
#61
0e
#62
b00000000000000000000000010000000 I
b00000000000000000000000001111100 K
b000001111100 Z
b00000000000000000000000001111100 d
1e
b00000000000000000000000010000000 m
#63
0e
#64
b00000000000000000000000010000100 I
b00000000000000000000000010000000 K
b000010000000 Z
b00000000000000000000000010000000 d
1e
b00000000000000000000000010000100 m
#65
0e
#66
b00000000000000000000000010001000 I
b00000000000000000000000010000100 K
b000010000100 Z
b00000000000000000000000010000100 d
1e
b00000000000000000000000010001000 m
#67
0e
#68
b00000000000000000000000010001100 I
b00000000000000000000000010001000 K
b000010001000 Z
b00000000000000000000000010001000 d
1e
b00000000000000000000000010001100 m
#69
0e
#70
b00000000000000000000000010010000 I
b00000000000000000000000010001100 K
b000010001100 Z
b00000000000000000000000010001100 d
1e
b00000000000000000000000010010000 m
#71
0e
#72
b00000000000000000000000010010100 I
b00000000000000000000000010010000 K
b000010010000 Z
b00000000000000000000000010010000 d
1e
b00000000000000000000000010010100 m
#73
0e
#74
b00000000000000000000000010011000 I
b00000000000000000000000010010100 K
b000010010100 Z
b00000000000000000000000010010100 d
1e
b00000000000000000000000010011000 m
#75
0e
#76
b00000000000000000000000010011100 I
b00000000000000000000000010011000 K
b000010011000 Z
b00000000000000000000000010011000 d
1e
b00000000000000000000000010011100 m
#77
0e
#78
b00000000000000000000000010100000 I
b00000000000000000000000010011100 K
b000010011100 Z
b00000000000000000000000010011100 d
1e
b00000000000000000000000010100000 m
#79
0e
#80
b00000000000000000000000010100100 I
b00000000000000000000000010100000 K
b000010100000 Z
b00000000000000000000000010100000 d
1e
b00000000000000000000000010100100 m
#81
0e
#82
b00000000000000000000000010101000 I
b00000000000000000000000010100100 K
b000010100100 Z
b00000000000000000000000010100100 d
1e
b00000000000000000000000010101000 m
#83
0e
#84
b00000000000000000000000010101100 I
b00000000000000000000000010101000 K
b000010101000 Z
b00000000000000000000000010101000 d
1e
b00000000000000000000000010101100 m
#85
0e
#86
b00000000000000000000000010110000 I
b00000000000000000000000010101100 K
b000010101100 Z
b00000000000000000000000010101100 d
1e
b00000000000000000000000010110000 m
#87
0e
#88
b00000000000000000000000010110100 I
b00000000000000000000000010110000 K
b000010110000 Z
b00000000000000000000000010110000 d
1e
b00000000000000000000000010110100 m
#89
0e
#90
b00000000000000000000000010111000 I
b00000000000000000000000010110100 K
b000010110100 Z
b00000000000000000000000010110100 d
1e
b00000000000000000000000010111000 m
#91
0e
#92
b00000000000000000000000010111100 I
b00000000000000000000000010111000 K
b000010111000 Z
b00000000000000000000000010111000 d
1e
b00000000000000000000000010111100 m
#93
0e
#94
b00000000000000000000000011000000 I
b00000000000000000000000010111100 K
b000010111100 Z
b00000000000000000000000010111100 d
1e
b00000000000000000000000011000000 m
#95
0e
#96
b00000000000000000000000011000100 I
b00000000000000000000000011000000 K
b000011000000 Z
b00000000000000000000000011000000 d
1e
b00000000000000000000000011000100 m
#97
0e
#98
b00000000000000000000000011001000 I
b00000000000000000000000011000100 K
b000011000100 Z
b00000000000000000000000011000100 d
1e
b00000000000000000000000011001000 m
#99
0e
#100
b00000000000000000000000011001100 I
b00000000000000000000000011001000 K
b000011001000 Z
b00000000000000000000000011001000 d
1e
b00000000000000000000000011001100 m
#101
0e
#102
b00000000000000000000000011010000 I
b00000000000000000000000011001100 K
b000011001100 Z
b00000000000000000000000011001100 d
1e
b00000000000000000000000011010000 m
#103
0e
#104
b00000000000000000000000011010100 I
b00000000000000000000000011010000 K
b000011010000 Z
b00000000000000000000000011010000 d
1e
b00000000000000000000000011010100 m
#105
0e
#106
b00000000000000000000000011011000 I
b00000000000000000000000011010100 K
b000011010100 Z
b00000000000000000000000011010100 d
1e
b00000000000000000000000011011000 m
#107
0e
#108
b00000000000000000000000011011100 I
b00000000000000000000000011011000 K
b000011011000 Z
b00000000000000000000000011011000 d
1e
b00000000000000000000000011011100 m
#109
0e
#110
b00000000000000000000000011100000 I
b00000000000000000000000011011100 K
b000011011100 Z
b00000000000000000000000011011100 d
1e
b00000000000000000000000011100000 m
#111
0e
#112
b00000000000000000000000011100100 I
b00000000000000000000000011100000 K
b000011100000 Z
b00000000000000000000000011100000 d
1e
b00000000000000000000000011100100 m
#113
0e
#114
b00000000000000000000000011101000 I
b00000000000000000000000011100100 K
b000011100100 Z
b00000000000000000000000011100100 d
1e
b00000000000000000000000011101000 m
#115
0e
#116
b00000000000000000000000011101100 I
b00000000000000000000000011101000 K
b000011101000 Z
b00000000000000000000000011101000 d
1e
b00000000000000000000000011101100 m
#117
0e
#118
b00000000000000000000000011110000 I
b00000000000000000000000011101100 K
b000011101100 Z
b00000000000000000000000011101100 d
1e
b00000000000000000000000011110000 m
#119
0e
#120
b00000000000000000000000011110100 I
b00000000000000000000000011110000 K
b000011110000 Z
b00000000000000000000000011110000 d
1e
b00000000000000000000000011110100 m
#121
0e
#122
b00000000000000000000000011111000 I
b00000000000000000000000011110100 K
b000011110100 Z
b00000000000000000000000011110100 d
1e
b00000000000000000000000011111000 m
#123
0e
#124
b00000000000000000000000011111100 I
b00000000000000000000000011111000 K
b000011111000 Z
b00000000000000000000000011111000 d
1e
b00000000000000000000000011111100 m
#125
0e
#126
b00000000000000000000000100000000 I
b00000000000000000000000011111100 K
b000011111100 Z
b00000000000000000000000011111100 d
1e
b00000000000000000000000100000000 m
#127
0e
#128
b00000000000000000000000100000100 I
b00000000000000000000000100000000 K
b000100000000 Z
b00000000000000000000000100000000 d
1e
b00000000000000000000000100000100 m
#129
0e
#130
b00000000000000000000000100001000 I
b00000000000000000000000100000100 K
b000100000100 Z
b00000000000000000000000100000100 d
1e
b00000000000000000000000100001000 m
#131
0e
#132
b00000000000000000000000100001100 I
b00000000000000000000000100001000 K
b000100001000 Z
b00000000000000000000000100001000 d
1e
b00000000000000000000000100001100 m
#133
0e
#134
b00000000000000000000000100010000 I
b00000000000000000000000100001100 K
b000100001100 Z
b00000000000000000000000100001100 d
1e
b00000000000000000000000100010000 m
#135
0e
#136
b00000000000000000000000100010100 I
b00000000000000000000000100010000 K
b000100010000 Z
b00000000000000000000000100010000 d
1e
b00000000000000000000000100010100 m
#137
0e
#138
b00000000000000000000000100011000 I
b00000000000000000000000100010100 K
b000100010100 Z
b00000000000000000000000100010100 d
1e
b00000000000000000000000100011000 m
#139
0e
#140
b00000000000000000000000100011100 I
b00000000000000000000000100011000 K
b000100011000 Z
b00000000000000000000000100011000 d
1e
b00000000000000000000000100011100 m
#141
0e
#142
b00000000000000000000000100100000 I
b00000000000000000000000100011100 K
b000100011100 Z
b00000000000000000000000100011100 d
1e
b00000000000000000000000100100000 m
#143
0e
#144
b00000000000000000000000100100100 I
b00000000000000000000000100100000 K
b000100100000 Z
b00000000000000000000000100100000 d
1e
b00000000000000000000000100100100 m
#145
0e
#146
b00000000000000000000000100101000 I
b00000000000000000000000100100100 K
b000100100100 Z
b00000000000000000000000100100100 d
1e
b00000000000000000000000100101000 m
#147
0e
#148
b00000000000000000000000100101100 I
b00000000000000000000000100101000 K
b000100101000 Z
b00000000000000000000000100101000 d
1e
b00000000000000000000000100101100 m
#149
0e
#150
b00000000000000000000000100110000 I
b00000000000000000000000100101100 K
b000100101100 Z
b00000000000000000000000100101100 d
1e
b00000000000000000000000100110000 m
#151
0e
#152
b00000000000000000000000100110100 I
b00000000000000000000000100110000 K
b000100110000 Z
b00000000000000000000000100110000 d
1e
b00000000000000000000000100110100 m
#153
0e
#154
b00000000000000000000000100111000 I
b00000000000000000000000100110100 K
b000100110100 Z
b00000000000000000000000100110100 d
1e
b00000000000000000000000100111000 m
#155
0e
#156
b00000000000000000000000100111100 I
b00000000000000000000000100111000 K
b000100111000 Z
b00000000000000000000000100111000 d
1e
b00000000000000000000000100111100 m
#157
0e
#158
b00000000000000000000000101000000 I
b00000000000000000000000100111100 K
b000100111100 Z
b00000000000000000000000100111100 d
1e
b00000000000000000000000101000000 m
#159
0e
#160
b00000000000000000000000101000100 I
b00000000000000000000000101000000 K
b000101000000 Z
b00000000000000000000000101000000 d
1e
b00000000000000000000000101000100 m
#161
0e
#162
b00000000000000000000000101001000 I
b00000000000000000000000101000100 K
b000101000100 Z
b00000000000000000000000101000100 d
1e
b00000000000000000000000101001000 m
#163
0e
#164
b00000000000000000000000101001100 I
b00000000000000000000000101001000 K
b000101001000 Z
b00000000000000000000000101001000 d
1e
b00000000000000000000000101001100 m
#165
0e
#166
b00000000000000000000000101010000 I
b00000000000000000000000101001100 K
b000101001100 Z
b00000000000000000000000101001100 d
1e
b00000000000000000000000101010000 m
#167
0e
#168
b00000000000000000000000101010100 I
b00000000000000000000000101010000 K
b000101010000 Z
b00000000000000000000000101010000 d
1e
b00000000000000000000000101010100 m
#169
0e
#170
b00000000000000000000000101011000 I
b00000000000000000000000101010100 K
b000101010100 Z
b00000000000000000000000101010100 d
1e
b00000000000000000000000101011000 m
#171
0e
#172
b00000000000000000000000101011100 I
b00000000000000000000000101011000 K
b000101011000 Z
b00000000000000000000000101011000 d
1e
b00000000000000000000000101011100 m
#173
0e
#174
b00000000000000000000000101100000 I
b00000000000000000000000101011100 K
b000101011100 Z
b00000000000000000000000101011100 d
1e
b00000000000000000000000101100000 m
#175
0e
#176
b00000000000000000000000101100100 I
b00000000000000000000000101100000 K
b000101100000 Z
b00000000000000000000000101100000 d
1e
b00000000000000000000000101100100 m
#177
0e
#178
b00000000000000000000000101101000 I
b00000000000000000000000101100100 K
b000101100100 Z
b00000000000000000000000101100100 d
1e
b00000000000000000000000101101000 m
#179
0e
#180
b00000000000000000000000101101100 I
b00000000000000000000000101101000 K
b000101101000 Z
b00000000000000000000000101101000 d
1e
b00000000000000000000000101101100 m
#181
0e
#182
b00000000000000000000000101110000 I
b00000000000000000000000101101100 K
b000101101100 Z
b00000000000000000000000101101100 d
1e
b00000000000000000000000101110000 m
#183
0e
#184
b00000000000000000000000101110100 I
b00000000000000000000000101110000 K
b000101110000 Z
b00000000000000000000000101110000 d
1e
b00000000000000000000000101110100 m
#185
0e
#186
b00000000000000000000000101111000 I
b00000000000000000000000101110100 K
b000101110100 Z
b00000000000000000000000101110100 d
1e
b00000000000000000000000101111000 m
#187
0e
#188
b00000000000000000000000101111100 I
b00000000000000000000000101111000 K
b000101111000 Z
b00000000000000000000000101111000 d
1e
b00000000000000000000000101111100 m
#189
0e
#190
b00000000000000000000000110000000 I
b00000000000000000000000101111100 K
b000101111100 Z
b00000000000000000000000101111100 d
1e
b00000000000000000000000110000000 m
#191
0e
#192
b00000000000000000000000110000100 I
b00000000000000000000000110000000 K
b000110000000 Z
b00000000000000000000000110000000 d
1e
b00000000000000000000000110000100 m
#193
0e
#194
b00000000000000000000000110001000 I
b00000000000000000000000110000100 K
b000110000100 Z
b00000000000000000000000110000100 d
1e
b00000000000000000000000110001000 m
#195
0e
#196
b00000000000000000000000110001100 I
b00000000000000000000000110001000 K
b000110001000 Z
b00000000000000000000000110001000 d
1e
b00000000000000000000000110001100 m
#197
0e
#198
b00000000000000000000000110010000 I
b00000000000000000000000110001100 K
b000110001100 Z
b00000000000000000000000110001100 d
1e
b00000000000000000000000110010000 m
#199
0e
#200
b00000000000000000000000110010100 I
b00000000000000000000000110010000 K
b000110010000 Z
b00000000000000000000000110010000 d
1e
b00000000000000000000000110010100 m
#201
0e
#202
b00000000000000000000000110011000 I
b00000000000000000000000110010100 K
b000110010100 Z
b00000000000000000000000110010100 d
1e
b00000000000000000000000110011000 m
#203
0e
#204
b00000000000000000000000110011100 I
b00000000000000000000000110011000 K
b000110011000 Z
b00000000000000000000000110011000 d
1e
b00000000000000000000000110011100 m
#205
0e
#206
b00000000000000000000000110100000 I
b00000000000000000000000110011100 K
b000110011100 Z
b00000000000000000000000110011100 d
1e
b00000000000000000000000110100000 m
#207
0e
#208
b00000000000000000000000110100100 I
b00000000000000000000000110100000 K
b000110100000 Z
b00000000000000000000000110100000 d
1e
b00000000000000000000000110100100 m
#209
0e
#210
b00000000000000000000000110101000 I
b00000000000000000000000110100100 K
b000110100100 Z
b00000000000000000000000110100100 d
1e
b00000000000000000000000110101000 m
#211
0e
#212
b00000000000000000000000110101100 I
b00000000000000000000000110101000 K
b000110101000 Z
b00000000000000000000000110101000 d
1e
b00000000000000000000000110101100 m
#213
0e
