top.vcd
$version Generated by VerilatedVcd $end
$timescale 1ps $end

 $scope module TOP $end
  $var wire 32 h a0 [31:0] $end
  $var wire  1 f clk $end
  $var wire  1 g rst $end
  $scope module top $end
   $var wire 12 T A [11:0] $end
   $var wire  5 U A1 [4:0] $end
   $var wire  5 V A2 [4:0] $end
   $var wire  5 W A3 [4:0] $end
   $var wire  3 P ALUControl [2:0] $end
   $var wire 32 b ALUResult [31:0] $end
   $var wire  1 L ALUSrcA $end
   $var wire  1 M ALUSrcB $end
   $var wire 25 X Imm [24:0] $end
   $var wire 32 D ImmExt [31:0] $end
   $var wire  3 N ImmSrc [2:0] $end
   $var wire 32 F Instr [31:0] $end
   $var wire  1 S JalSrc $end
   $var wire  1 Q LdSrc $end
   $var wire  1 K MemWrite $end
   $var wire 32 E PC [31:0] $end
   $var wire  1 i PCSrc $end
   $var wire 32 C PC_Plus [31:0] $end
   $var wire 32 ` RD1 [31:0] $end
   $var wire 32 k ReadData [31:0] $end
   $var wire  1 O RegWrite $end
   $var wire 32 j Result [31:0] $end
   $var wire  2 J ResultSrc [1:0] $end
   $var wire  1 R StSrc $end
   $var wire 32 a WriteData [31:0] $end
   $var wire  1 _ Zero $end
   $var wire 32 h a0 [31:0] $end
   $var wire  1 f clk $end
   $var wire  1 I func75 $end
   $var wire  3 H funct3 [2:0] $end
   $var wire  7 G opcode [6:0] $end
   $var wire  1 g rst $end
   $scope module my_DataMux $end
    $var wire 32 b ALUResult [31:0] $end
    $var wire 32 C PCPlus [31:0] $end
    $var wire 32 k RD [31:0] $end
    $var wire 32 j Result [31:0] $end
    $var wire  2 J ResultSrc [1:0] $end
   $upscope $end
   $scope module my_alu_top $end
    $var wire  3 P ALUControl [2:0] $end
    $var wire 32 b ALUResult [31:0] $end
    $var wire  1 L ALUSrcA $end
    $var wire  1 M ALUSrcB $end
    $var wire 32 D ImmExt [31:0] $end
    $var wire 32 E PC [31:0] $end
    $var wire 32 ` RD1 [31:0] $end
    $var wire 32 a RD2 [31:0] $end
    $var wire 32 c SrcA [31:0] $end
    $var wire 32 d SrcB [31:0] $end
    $var wire  1 _ Zero $end
   $upscope $end
   $scope module my_control_unit $end
    $var wire  3 P ALUControl [2:0] $end
    $var wire  2 Y ALUOp [1:0] $end
    $var wire  1 L ALUSrcA $end
    $var wire  1 M ALUSrcB $end
    $var wire  1 Z Branch $end
    $var wire  3 N ImmSrc [2:0] $end
    $var wire  1 S JalSrc $end
    $var wire  1 [ Jump $end
    $var wire  1 Q LdSrc $end
    $var wire  1 K MemWrite $end
    $var wire  1 i PCSrc $end
    $var wire  1 O RegWrite $end
    $var wire  2 J ResultSrc [1:0] $end
    $var wire  1 R StSrc $end
    $var wire  1 _ Zero $end
    $var wire  1 I func75 $end
    $var wire  3 H funct3 [2:0] $end
    $var wire  1 \ op5 $end
    $var wire  7 G opcode [6:0] $end
    $scope module ALU_decode $end
     $var wire  3 P ALUControl [2:0] $end
     $var wire  2 Y ALUOp [1:0] $end
     $var wire  2 ] decode [1:0] $end
     $var wire  1 I func75 $end
     $var wire  3 H funct3 [2:0] $end
     $var wire  1 \ op5 $end
    $upscope $end
    $scope module PCSrc_decode $end
     $var wire  1 Z Branch $end
     $var wire  1 [ Jump $end
     $var wire  1 i PCSrc $end
     $var wire  1 _ Zero $end
     $var wire  3 H funct3 [2:0] $end
    $upscope $end
    $scope module main_decode $end
     $var wire  2 Y ALUOp [1:0] $end
     $var wire  1 L ALUSrcA $end
     $var wire  1 M ALUSrcB $end
     $var wire  1 Z Branch $end
     $var wire  3 N ImmSrc [2:0] $end
     $var wire  1 S JalSrc $end
     $var wire  1 [ Jump $end
     $var wire  1 Q LdSrc $end
     $var wire  1 K MemWrite $end
     $var wire  1 O RegWrite $end
     $var wire  2 J ResultSrc [1:0] $end
     $var wire  1 R StSrc $end
     $var wire  3 H funct3 [2:0] $end
     $var wire  7 G opcode [6:0] $end
    $upscope $end
   $upscope $end
   $scope module my_data_memory $end
    $var wire 32 b A [31:0] $end
    $var wire 32 o DATA_WIDTH [31:0] $end
    $var wire  1 Q LdSrc $end
    $var wire 32 k RD [31:0] $end
    $var wire  1 R StSrc $end
    $var wire 32 a WD [31:0] $end
    $var wire  1 K WE $end
    $var wire  1 f clk $end
    $var wire 32 e corrected_WD [31:0] $end
    $var wire 32 l read_data_internal [31:0] $end
    $scope module my_mem $end
     $var wire 32 b A [31:0] $end
     $var wire 32 p DATA_WIDTH [31:0] $end
     $var wire 32 l RD [31:0] $end
     $var wire 32 e WD [31:0] $end
     $var wire  1 K WE $end
     $var wire  1 f clk $end
    $upscope $end
    $scope module my_mem_i $end
     $var wire 32 o DATA_WIDTH [31:0] $end
     $var wire  1 R StSrc $end
     $var wire 32 a WD_i [31:0] $end
     $var wire 32 e WD_o [31:0] $end
    $upscope $end
    $scope module my_mem_o $end
     $var wire 32 o DATA_WIDTH [31:0] $end
     $var wire  1 Q LdSrc $end
     $var wire 32 l RD_i [31:0] $end
     $var wire 32 k RD_o [31:0] $end
    $upscope $end
   $upscope $end
   $scope module my_extend $end
    $var wire 25 X Imm [31:7] $end
    $var wire 32 D ImmExt [31:0] $end
    $var wire  3 N ImmSrc [2:0] $end
   $upscope $end
   $scope module my_instr_mem $end
    $var wire 12 T A [11:0] $end
    $var wire 32 q A_length [31:0] $end
    $var wire 32 p D_length [31:0] $end
    $var wire 32 F RD [31:0] $end
   $upscope $end
   $scope module my_pc_top $end
    $var wire 32 D ImmExt [31:0] $end
    $var wire  1 S JalSrc $end
    $var wire 32 E PC [31:0] $end
    $var wire  1 i PCSrc $end
    $var wire 32 ^ PC_Jump [31:0] $end
    $var wire 32 n PC_Next [31:0] $end
    $var wire 32 C PC_Plus [31:0] $end
    $var wire 32 m PC_Target [31:0] $end
    $var wire 32 o PC_WIDTH [31:0] $end
    $var wire 32 ` RD1 [31:0] $end
    $var wire  1 f clk $end
    $var wire  1 g rst $end
   $upscope $end
   $scope module my_reg_file $end
    $var wire  5 U A1 [4:0] $end
    $var wire  5 V A2 [4:0] $end
    $var wire  5 W A3 [4:0] $end
    $var wire 32 ` RD1 [31:0] $end
    $var wire 32 a RD2 [31:0] $end
    $var wire 32 j WD3 [31:0] $end
    $var wire  1 O WE3 $end
    $var wire 32 h a0 [31:0] $end
    $var wire  1 f clk $end
    $var wire 32 # mem[0] [31:0] $end
    $var wire 32 - mem[10] [31:0] $end
    $var wire 32 . mem[11] [31:0] $end
    $var wire 32 / mem[12] [31:0] $end
    $var wire 32 0 mem[13] [31:0] $end
    $var wire 32 1 mem[14] [31:0] $end
    $var wire 32 2 mem[15] [31:0] $end
    $var wire 32 3 mem[16] [31:0] $end
    $var wire 32 4 mem[17] [31:0] $end
    $var wire 32 5 mem[18] [31:0] $end
    $var wire 32 6 mem[19] [31:0] $end
    $var wire 32 $ mem[1] [31:0] $end
    $var wire 32 7 mem[20] [31:0] $end
    $var wire 32 8 mem[21] [31:0] $end
    $var wire 32 9 mem[22] [31:0] $end
    $var wire 32 : mem[23] [31:0] $end
    $var wire 32 ; mem[24] [31:0] $end
    $var wire 32 < mem[25] [31:0] $end
    $var wire 32 = mem[26] [31:0] $end
    $var wire 32 > mem[27] [31:0] $end
    $var wire 32 ? mem[28] [31:0] $end
    $var wire 32 @ mem[29] [31:0] $end
    $var wire 32 % mem[2] [31:0] $end
    $var wire 32 A mem[30] [31:0] $end
    $var wire 32 B mem[31] [31:0] $end
    $var wire 32 & mem[3] [31:0] $end
    $var wire 32 ' mem[4] [31:0] $end
    $var wire 32 ( mem[5] [31:0] $end
    $var wire 32 ) mem[6] [31:0] $end
    $var wire 32 * mem[7] [31:0] $end
    $var wire 32 + mem[8] [31:0] $end
    $var wire 32 , mem[9] [31:0] $end
   $upscope $end
  $upscope $end
 $upscope $end
$enddefinitions $end


#0
b00000000000000000000000000000000 #
b00000000000000000000000000000000 $
b00000000000000000000000000000000 %
b00000000000000000000000000000000 &
b00000000000000000000000000000000 '
b00000000000000000000000000000000 (
b00000000000000000000000000000000 )
b00000000000000000000000000000000 *
b00000000000000000000000000000000 +
b00000000000000000000000000000000 ,
b00000000000000000000000000000000 -
b00000000000000000000000000000000 .
b00000000000000000000000000000000 /
b00000000000000000000000000000000 0
b00000000000000000000000000000000 1
b00000000000000000000000000000000 2
b00000000000000000000000000000000 3
b00000000000000000000000000000000 4
b00000000000000000000000000000000 5
b00000000000000000000000000000000 6
b00000000000000000000000000000000 7
b00000000000000000000000000000000 8
b00000000000000000000000000000000 9
b00000000000000000000000000000000 :
b00000000000000000000000000000000 ;
b00000000000000000000000000000000 <
b00000000000000000000000000000000 =
b00000000000000000000000000000000 >
b00000000000000000000000000000000 ?
b00000000000000000000000000000000 @
b00000000000000000000000000000000 A
b00000000000000000000000000000000 B
b00000000000000000000000000000100 C
b00000000000000000000000000000000 D
b00000000000000000000000000000000 E
b00000000000000000000000000000000 F
b0000000 G
b000 H
0I
b00 J
0K
0L
0M
b000 N
0O
b000 P
0Q
0R
0S
b000000000000 T
b00000 U
b00000 V
b00000 W
b0000000000000000000000000 X
b00 Y
0Z
0[
0\
b00 ]
b00000000000000000000000000000000 ^
0_
b00000000000000000000000000000000 `
b00000000000000000000000000000000 a
b00000000000000000000000000000000 b
b00000000000000000000000000000000 c
b00000000000000000000000000000000 d
b00000000000000000000000000000000 e
1f
0g
b00000000000000000000000000000000 h
0i
b00000000000000000000000000000000 j
b00000000000000000000000000000000 k
b00000000000000000000000000000000 l
b00000000000000000000000000000000 m
b00000000000000000000000000000100 n
b00000000000000000000000000100000 o
b00000000000000000000000000001000 p
b00000000000000000000000000001100 q
#1
b00000000000000000000000000010000 D
b00000001000000000000000011101111 F
b1101111 G
b10 J
b011 N
1O
1S
b10000 V
b00001 W
b0000000100000000000000001 X
1[
1\
b10 ]
b00000000000000000000000000010000 ^
1_
0f
1i
b00000000000000000000000000000100 j
b00000000000000000000000000010000 m
b00000000000000000000000000010000 n
#2
b00000000000000000000000000000100 $
b00000000000000000000000000010100 C
b00000000000000000000000100000000 D
b00000000000000000000000000010000 E
b00010000000000000000010110010011 F
b0010011 G
b00 J
1M
b000 N
b000000010000 T
b00000 V
b01011 W
b0001000000000000000001011 X
0[
0\
b00 ]
b00000000000000000000000100010000 ^
0_
b00000000000000000000000100000000 b
b00000000000000000000000100000000 d
1f
0i
b00000000000000000000000100000000 j
b00000000000000000000000100010000 m
b00000000000000000000000000010100 n
#3
0f
#4
b00000000000000000000000100000000 .
b00000000000000000000000000011000 C
b11111111111111111111111111111111 D
b00000000000000000000000000010100 E
b11111111111101011000010110010011 F
1I
b000000010100 T
b01011 U
b11111 V
b1111111111110101100001011 X
b01 ]
b00000000000000000000000000010011 ^
b00000000000000000000000100000000 `
b00000000000000000000000011111111 b
b00000000000000000000000100000000 c
b11111111111111111111111111111111 d
1f
b00000000000000000000000011111111 j
b00000000000000000000000000010011 m
b00000000000000000000000000011000 n
#5
0f
#6
b00000000000000000000000011111111 .
b00000000000000000000000000011100 C
b00000000000000000000000100000000 D
b00000000000000000000000000011000 E
b00010000000001011000000000100011 F
b0100011 G
0I
1K
b001 N
0O
1R
b000000011000 T
b00000 V
b00000 W
b0001000000000101100000000 X
1\
b10 ]
b00000000000000000000000100011000 ^
b00000000000000000000000011111111 `
b00000000000000000000000111111111 b
b00000000000000000000000011111111 c
b00000000000000000000000100000000 d
1f
b00000000000000000000000111111111 j
b00000000000000000000000100011000 m
b00000000000000000000000000011100 n
#7
0f
#8
b00000000000000000000000000100000 C
b11111111111111111111111111111000 D
b00000000000000000000000000011100 E
b11111110000001011001110011100011 F
b1100011 G
b001 H
1I
0K
0M
b010 N
b001 P
b000000011100 T
b11001 W
b1111111000000101100111001 X
b01 Y
1Z
b11 ]
b00000000000000000000000000010100 ^
b00000000000000000000000011111111 b
b00000000000000000000000000000000 d
1f
1i
b00000000000000000000000011111111 j
b00000000000000000000000000010100 m
b00000000000000000000000000010100 n
#9
0f
#10
b00000000000000000000000000011000 C
b11111111111111111111111111111111 D
b00000000000000000000000000010100 E
b11111111111101011000010110010011 F
b0010011 G
b000 H
1M
b000 N
1O
b000 P
b000000010100 T
b11111 V
b01011 W
b1111111111110101100001011 X
b00 Y
0Z
0\
b01 ]
b00000000000000000000000000010011 ^
b00000000000000000000000011111110 b
b11111111111111111111111111111111 d
1f
0i
b00000000000000000000000011111110 j
b00000000000000000000000000010011 m
b00000000000000000000000000011000 n
#11
0f
#12
b00000000000000000000000011111110 .
b00000000000000000000000000011100 C
b00000000000000000000000100000000 D
b00000000000000000000000000011000 E
b00010000000001011000000000100011 F
b0100011 G
0I
1K
b001 N
0O
b000000011000 T
b00000 V
b00000 W
b0001000000000101100000000 X
1\
b10 ]
b00000000000000000000000100011000 ^
b00000000000000000000000011111110 `
b00000000000000000000000111111110 b
b00000000000000000000000011111110 c
b00000000000000000000000100000000 d
1f
b00000000000000000000000111111110 j
b00000000000000000000000100011000 m
b00000000000000000000000000011100 n
#13
0f
#14
b00000000000000000000000000100000 C
b11111111111111111111111111111000 D
b00000000000000000000000000011100 E
b11111110000001011001110011100011 F
b1100011 G
b001 H
1I
0K
0M
b010 N
b001 P
b000000011100 T
b11001 W
b1111111000000101100111001 X
b01 Y
1Z
b11 ]
b00000000000000000000000000010100 ^
b00000000000000000000000011111110 b
b00000000000000000000000000000000 d
1f
1i
b00000000000000000000000011111110 j
b00000000000000000000000000010100 m
b00000000000000000000000000010100 n
#15
0f
#16
b00000000000000000000000000011000 C
b11111111111111111111111111111111 D
b00000000000000000000000000010100 E
b11111111111101011000010110010011 F
b0010011 G
b000 H
1M
b000 N
1O
b000 P
b000000010100 T
b11111 V
b01011 W
b1111111111110101100001011 X
b00 Y
0Z
0\
b01 ]
b00000000000000000000000000010011 ^
b00000000000000000000000011111101 b
b11111111111111111111111111111111 d
1f
0i
b00000000000000000000000011111101 j
b00000000000000000000000000010011 m
b00000000000000000000000000011000 n
#17
0f
#18
b00000000000000000000000011111101 .
b00000000000000000000000000011100 C
b00000000000000000000000100000000 D
b00000000000000000000000000011000 E
b00010000000001011000000000100011 F
b0100011 G
0I
1K
b001 N
0O
b000000011000 T
b00000 V
b00000 W
b0001000000000101100000000 X
1\
b10 ]
b00000000000000000000000100011000 ^
b00000000000000000000000011111101 `
b00000000000000000000000111111101 b
b00000000000000000000000011111101 c
b00000000000000000000000100000000 d
1f
b00000000000000000000000111111101 j
b00000000000000000000000100011000 m
b00000000000000000000000000011100 n
#19
0f
#20
b00000000000000000000000000100000 C
b11111111111111111111111111111000 D
b00000000000000000000000000011100 E
b11111110000001011001110011100011 F
b1100011 G
b001 H
1I
0K
0M
b010 N
b001 P
b000000011100 T
b11001 W
b1111111000000101100111001 X
b01 Y
1Z
b11 ]
b00000000000000000000000000010100 ^
b00000000000000000000000011111101 b
b00000000000000000000000000000000 d
1f
1i
b00000000000000000000000011111101 j
b00000000000000000000000000010100 m
b00000000000000000000000000010100 n
#21
0f
#22
b00000000000000000000000000011000 C
b11111111111111111111111111111111 D
b00000000000000000000000000010100 E
b11111111111101011000010110010011 F
b0010011 G
b000 H
1M
b000 N
1O
b000 P
b000000010100 T
b11111 V
b01011 W
b1111111111110101100001011 X
b00 Y
0Z
0\
b01 ]
b00000000000000000000000000010011 ^
b00000000000000000000000011111100 b
b11111111111111111111111111111111 d
1f
0i
b00000000000000000000000011111100 j
b00000000000000000000000000010011 m
b00000000000000000000000000011000 n
#23
0f
#24
b00000000000000000000000011111100 .
b00000000000000000000000000011100 C
b00000000000000000000000100000000 D
b00000000000000000000000000011000 E
b00010000000001011000000000100011 F
b0100011 G
0I
1K
b001 N
0O
b000000011000 T
b00000 V
b00000 W
b0001000000000101100000000 X
1\
b10 ]
b00000000000000000000000100011000 ^
b00000000000000000000000011111100 `
b00000000000000000000000111111100 b
b00000000000000000000000011111100 c
b00000000000000000000000100000000 d
1f
b00000000000000000000000111111100 j
b00000000000000000000000100011000 m
b00000000000000000000000000011100 n
#25
0f
#26
b00000000000000000000000000100000 C
b11111111111111111111111111111000 D
b00000000000000000000000000011100 E
b11111110000001011001110011100011 F
b1100011 G
b001 H
1I
0K
0M
b010 N
b001 P
b000000011100 T
b11001 W
b1111111000000101100111001 X
b01 Y
1Z
b11 ]
b00000000000000000000000000010100 ^
b00000000000000000000000011111100 b
b00000000000000000000000000000000 d
1f
1i
b00000000000000000000000011111100 j
b00000000000000000000000000010100 m
b00000000000000000000000000010100 n
#27
0f
#28
b00000000000000000000000000011000 C
b11111111111111111111111111111111 D
b00000000000000000000000000010100 E
b11111111111101011000010110010011 F
b0010011 G
b000 H
1M
b000 N
1O
b000 P
b000000010100 T
b11111 V
b01011 W
b1111111111110101100001011 X
b00 Y
0Z
0\
b01 ]
b00000000000000000000000000010011 ^
b00000000000000000000000011111011 b
b11111111111111111111111111111111 d
1f
0i
b00000000000000000000000011111011 j
b00000000000000000000000000010011 m
b00000000000000000000000000011000 n
#29
0f
#30
b00000000000000000000000011111011 .
b00000000000000000000000000011100 C
b00000000000000000000000100000000 D
b00000000000000000000000000011000 E
b00010000000001011000000000100011 F
b0100011 G
0I
1K
b001 N
0O
b000000011000 T
b00000 V
b00000 W
b0001000000000101100000000 X
1\
b10 ]
b00000000000000000000000100011000 ^
b00000000000000000000000011111011 `
b00000000000000000000000111111011 b
b00000000000000000000000011111011 c
b00000000000000000000000100000000 d
1f
b00000000000000000000000111111011 j
b00000000000000000000000100011000 m
b00000000000000000000000000011100 n
#31
0f
#32
b00000000000000000000000000100000 C
b11111111111111111111111111111000 D
b00000000000000000000000000011100 E
b11111110000001011001110011100011 F
b1100011 G
b001 H
1I
0K
0M
b010 N
b001 P
b000000011100 T
b11001 W
b1111111000000101100111001 X
b01 Y
1Z
b11 ]
b00000000000000000000000000010100 ^
b00000000000000000000000011111011 b
b00000000000000000000000000000000 d
1f
1i
b00000000000000000000000011111011 j
b00000000000000000000000000010100 m
b00000000000000000000000000010100 n
#33
0f
#34
b00000000000000000000000000011000 C
b11111111111111111111111111111111 D
b00000000000000000000000000010100 E
b11111111111101011000010110010011 F
b0010011 G
b000 H
1M
b000 N
1O
b000 P
b000000010100 T
b11111 V
b01011 W
b1111111111110101100001011 X
b00 Y
0Z
0\
b01 ]
b00000000000000000000000000010011 ^
b00000000000000000000000011111010 b
b11111111111111111111111111111111 d
1f
0i
b00000000000000000000000011111010 j
b00000000000000000000000000010011 m
b00000000000000000000000000011000 n
#35
0f
#36
b00000000000000000000000011111010 .
b00000000000000000000000000011100 C
b00000000000000000000000100000000 D
b00000000000000000000000000011000 E
b00010000000001011000000000100011 F
b0100011 G
0I
1K
b001 N
0O
b000000011000 T
b00000 V
b00000 W
b0001000000000101100000000 X
1\
b10 ]
b00000000000000000000000100011000 ^
b00000000000000000000000011111010 `
b00000000000000000000000111111010 b
b00000000000000000000000011111010 c
b00000000000000000000000100000000 d
1f
b00000000000000000000000111111010 j
b00000000000000000000000100011000 m
b00000000000000000000000000011100 n
#37
0f
#38
b00000000000000000000000000100000 C
b11111111111111111111111111111000 D
b00000000000000000000000000011100 E
b11111110000001011001110011100011 F
b1100011 G
b001 H
1I
0K
0M
b010 N
b001 P
b000000011100 T
b11001 W
b1111111000000101100111001 X
b01 Y
1Z
b11 ]
b00000000000000000000000000010100 ^
b00000000000000000000000011111010 b
b00000000000000000000000000000000 d
1f
1i
b00000000000000000000000011111010 j
b00000000000000000000000000010100 m
b00000000000000000000000000010100 n
#39
0f
#40
b00000000000000000000000000011000 C
b11111111111111111111111111111111 D
b00000000000000000000000000010100 E
b11111111111101011000010110010011 F
b0010011 G
b000 H
1M
b000 N
1O
b000 P
b000000010100 T
b11111 V
b01011 W
b1111111111110101100001011 X
b00 Y
0Z
0\
b01 ]
b00000000000000000000000000010011 ^
b00000000000000000000000011111001 b
b11111111111111111111111111111111 d
1f
0i
b00000000000000000000000011111001 j
b00000000000000000000000000010011 m
b00000000000000000000000000011000 n
#41
0f
#42
b00000000000000000000000011111001 .
b00000000000000000000000000011100 C
b00000000000000000000000100000000 D
b00000000000000000000000000011000 E
b00010000000001011000000000100011 F
b0100011 G
0I
1K
b001 N
0O
b000000011000 T
b00000 V
b00000 W
b0001000000000101100000000 X
1\
b10 ]
b00000000000000000000000100011000 ^
b00000000000000000000000011111001 `
b00000000000000000000000111111001 b
b00000000000000000000000011111001 c
b00000000000000000000000100000000 d
1f
b00000000000000000000000111111001 j
b00000000000000000000000100011000 m
b00000000000000000000000000011100 n
#43
0f
#44
b00000000000000000000000000100000 C
b11111111111111111111111111111000 D
b00000000000000000000000000011100 E
b11111110000001011001110011100011 F
b1100011 G
b001 H
1I
0K
0M
b010 N
b001 P
b000000011100 T
b11001 W
b1111111000000101100111001 X
b01 Y
1Z
b11 ]
b00000000000000000000000000010100 ^
b00000000000000000000000011111001 b
b00000000000000000000000000000000 d
1f
1i
b00000000000000000000000011111001 j
b00000000000000000000000000010100 m
b00000000000000000000000000010100 n
#45
0f
#46
b00000000000000000000000000011000 C
b11111111111111111111111111111111 D
b00000000000000000000000000010100 E
b11111111111101011000010110010011 F
b0010011 G
b000 H
1M
b000 N
1O
b000 P
b000000010100 T
b11111 V
b01011 W
b1111111111110101100001011 X
b00 Y
0Z
0\
b01 ]
b00000000000000000000000000010011 ^
b00000000000000000000000011111000 b
b11111111111111111111111111111111 d
1f
0i
b00000000000000000000000011111000 j
b00000000000000000000000000010011 m
b00000000000000000000000000011000 n
#47
0f
#48
b00000000000000000000000011111000 .
b00000000000000000000000000011100 C
b00000000000000000000000100000000 D
b00000000000000000000000000011000 E
b00010000000001011000000000100011 F
b0100011 G
0I
1K
b001 N
0O
b000000011000 T
b00000 V
b00000 W
b0001000000000101100000000 X
1\
b10 ]
b00000000000000000000000100011000 ^
b00000000000000000000000011111000 `
b00000000000000000000000111111000 b
b00000000000000000000000011111000 c
b00000000000000000000000100000000 d
1f
b00000000000000000000000111111000 j
b00000000000000000000000100011000 m
b00000000000000000000000000011100 n
#49
0f
#50
b00000000000000000000000000100000 C
b11111111111111111111111111111000 D
b00000000000000000000000000011100 E
b11111110000001011001110011100011 F
b1100011 G
b001 H
1I
0K
0M
b010 N
b001 P
b000000011100 T
b11001 W
b1111111000000101100111001 X
b01 Y
1Z
b11 ]
b00000000000000000000000000010100 ^
b00000000000000000000000011111000 b
b00000000000000000000000000000000 d
1f
1i
b00000000000000000000000011111000 j
b00000000000000000000000000010100 m
b00000000000000000000000000010100 n
#51
0f
#52
b00000000000000000000000000011000 C
b11111111111111111111111111111111 D
b00000000000000000000000000010100 E
b11111111111101011000010110010011 F
b0010011 G
b000 H
1M
b000 N
1O
b000 P
b000000010100 T
b11111 V
b01011 W
b1111111111110101100001011 X
b00 Y
0Z
0\
b01 ]
b00000000000000000000000000010011 ^
b00000000000000000000000011110111 b
b11111111111111111111111111111111 d
1f
0i
b00000000000000000000000011110111 j
b00000000000000000000000000010011 m
b00000000000000000000000000011000 n
#53
0f
#54
b00000000000000000000000011110111 .
b00000000000000000000000000011100 C
b00000000000000000000000100000000 D
b00000000000000000000000000011000 E
b00010000000001011000000000100011 F
b0100011 G
0I
1K
b001 N
0O
b000000011000 T
b00000 V
b00000 W
b0001000000000101100000000 X
1\
b10 ]
b00000000000000000000000100011000 ^
b00000000000000000000000011110111 `
b00000000000000000000000111110111 b
b00000000000000000000000011110111 c
b00000000000000000000000100000000 d
1f
b00000000000000000000000111110111 j
b00000000000000000000000100011000 m
b00000000000000000000000000011100 n
#55
0f
#56
b00000000000000000000000000100000 C
b11111111111111111111111111111000 D
b00000000000000000000000000011100 E
b11111110000001011001110011100011 F
b1100011 G
b001 H
1I
0K
0M
b010 N
b001 P
b000000011100 T
b11001 W
b1111111000000101100111001 X
b01 Y
1Z
b11 ]
b00000000000000000000000000010100 ^
b00000000000000000000000011110111 b
b00000000000000000000000000000000 d
1f
1i
b00000000000000000000000011110111 j
b00000000000000000000000000010100 m
b00000000000000000000000000010100 n
#57
0f
#58
b00000000000000000000000000011000 C
b11111111111111111111111111111111 D
b00000000000000000000000000010100 E
b11111111111101011000010110010011 F
b0010011 G
b000 H
1M
b000 N
1O
b000 P
b000000010100 T
b11111 V
b01011 W
b1111111111110101100001011 X
b00 Y
0Z
0\
b01 ]
b00000000000000000000000000010011 ^
b00000000000000000000000011110110 b
b11111111111111111111111111111111 d
1f
0i
b00000000000000000000000011110110 j
b00000000000000000000000000010011 m
b00000000000000000000000000011000 n
#59
0f
#60
b00000000000000000000000011110110 .
b00000000000000000000000000011100 C
b00000000000000000000000100000000 D
b00000000000000000000000000011000 E
b00010000000001011000000000100011 F
b0100011 G
0I
1K
b001 N
0O
b000000011000 T
b00000 V
b00000 W
b0001000000000101100000000 X
1\
b10 ]
b00000000000000000000000100011000 ^
b00000000000000000000000011110110 `
b00000000000000000000000111110110 b
b00000000000000000000000011110110 c
b00000000000000000000000100000000 d
1f
b00000000000000000000000111110110 j
b00000000000000000000000100011000 m
b00000000000000000000000000011100 n
#61
0f
#62
b00000000000000000000000000100000 C
b11111111111111111111111111111000 D
b00000000000000000000000000011100 E
b11111110000001011001110011100011 F
b1100011 G
b001 H
1I
0K
0M
b010 N
b001 P
b000000011100 T
b11001 W
b1111111000000101100111001 X
b01 Y
1Z
b11 ]
b00000000000000000000000000010100 ^
b00000000000000000000000011110110 b
b00000000000000000000000000000000 d
1f
1i
b00000000000000000000000011110110 j
b00000000000000000000000000010100 m
b00000000000000000000000000010100 n
#63
0f
#64
b00000000000000000000000000011000 C
b11111111111111111111111111111111 D
b00000000000000000000000000010100 E
b11111111111101011000010110010011 F
b0010011 G
b000 H
1M
b000 N
1O
b000 P
b000000010100 T
b11111 V
b01011 W
b1111111111110101100001011 X
b00 Y
0Z
0\
b01 ]
b00000000000000000000000000010011 ^
b00000000000000000000000011110101 b
b11111111111111111111111111111111 d
1f
0i
b00000000000000000000000011110101 j
b00000000000000000000000000010011 m
b00000000000000000000000000011000 n
#65
0f
#66
b00000000000000000000000011110101 .
b00000000000000000000000000011100 C
b00000000000000000000000100000000 D
b00000000000000000000000000011000 E
b00010000000001011000000000100011 F
b0100011 G
0I
1K
b001 N
0O
b000000011000 T
b00000 V
b00000 W
b0001000000000101100000000 X
1\
b10 ]
b00000000000000000000000100011000 ^
b00000000000000000000000011110101 `
b00000000000000000000000111110101 b
b00000000000000000000000011110101 c
b00000000000000000000000100000000 d
1f
b00000000000000000000000111110101 j
b00000000000000000000000100011000 m
b00000000000000000000000000011100 n
#67
0f
#68
b00000000000000000000000000100000 C
b11111111111111111111111111111000 D
b00000000000000000000000000011100 E
b11111110000001011001110011100011 F
b1100011 G
b001 H
1I
0K
0M
b010 N
b001 P
b000000011100 T
b11001 W
b1111111000000101100111001 X
b01 Y
1Z
b11 ]
b00000000000000000000000000010100 ^
b00000000000000000000000011110101 b
b00000000000000000000000000000000 d
1f
1i
b00000000000000000000000011110101 j
b00000000000000000000000000010100 m
b00000000000000000000000000010100 n
#69
0f
#70
b00000000000000000000000000011000 C
b11111111111111111111111111111111 D
b00000000000000000000000000010100 E
b11111111111101011000010110010011 F
b0010011 G
b000 H
1M
b000 N
1O
b000 P
b000000010100 T
b11111 V
b01011 W
b1111111111110101100001011 X
b00 Y
0Z
0\
b01 ]
b00000000000000000000000000010011 ^
b00000000000000000000000011110100 b
b11111111111111111111111111111111 d
1f
0i
b00000000000000000000000011110100 j
b00000000000000000000000000010011 m
b00000000000000000000000000011000 n
#71
0f
#72
b00000000000000000000000011110100 .
b00000000000000000000000000011100 C
b00000000000000000000000100000000 D
b00000000000000000000000000011000 E
b00010000000001011000000000100011 F
b0100011 G
0I
1K
b001 N
0O
b000000011000 T
b00000 V
b00000 W
b0001000000000101100000000 X
1\
b10 ]
b00000000000000000000000100011000 ^
b00000000000000000000000011110100 `
b00000000000000000000000111110100 b
b00000000000000000000000011110100 c
b00000000000000000000000100000000 d
1f
b00000000000000000000000111110100 j
b00000000000000000000000100011000 m
b00000000000000000000000000011100 n
#73
0f
#74
b00000000000000000000000000100000 C
b11111111111111111111111111111000 D
b00000000000000000000000000011100 E
b11111110000001011001110011100011 F
b1100011 G
b001 H
1I
0K
0M
b010 N
b001 P
b000000011100 T
b11001 W
b1111111000000101100111001 X
b01 Y
1Z
b11 ]
b00000000000000000000000000010100 ^
b00000000000000000000000011110100 b
b00000000000000000000000000000000 d
1f
1i
b00000000000000000000000011110100 j
b00000000000000000000000000010100 m
b00000000000000000000000000010100 n
#75
0f
#76
b00000000000000000000000000011000 C
b11111111111111111111111111111111 D
b00000000000000000000000000010100 E
b11111111111101011000010110010011 F
b0010011 G
b000 H
1M
b000 N
1O
b000 P
b000000010100 T
b11111 V
b01011 W
b1111111111110101100001011 X
b00 Y
0Z
0\
b01 ]
b00000000000000000000000000010011 ^
b00000000000000000000000011110011 b
b11111111111111111111111111111111 d
1f
0i
b00000000000000000000000011110011 j
b00000000000000000000000000010011 m
b00000000000000000000000000011000 n
#77
0f
#78
b00000000000000000000000011110011 .
b00000000000000000000000000011100 C
b00000000000000000000000100000000 D
b00000000000000000000000000011000 E
b00010000000001011000000000100011 F
b0100011 G
0I
1K
b001 N
0O
b000000011000 T
b00000 V
b00000 W
b0001000000000101100000000 X
1\
b10 ]
b00000000000000000000000100011000 ^
b00000000000000000000000011110011 `
b00000000000000000000000111110011 b
b00000000000000000000000011110011 c
b00000000000000000000000100000000 d
1f
b00000000000000000000000111110011 j
b00000000000000000000000100011000 m
b00000000000000000000000000011100 n
#79
0f
