top.vcd
$version Generated by VerilatedVcd $end
$timescale 1ps $end

 $scope module TOP $end
  $var wire 32 f a0 [31:0] $end
  $var wire  1 d clk $end
  $var wire  1 e rst $end
  $scope module top $end
   $var wire 12 S A [11:0] $end
   $var wire  5 T A1 [4:0] $end
   $var wire  5 U A2 [4:0] $end
   $var wire  5 V A3 [4:0] $end
   $var wire  3 P ALUControl [2:0] $end
   $var wire 32 ` ALUResult [31:0] $end
   $var wire  1 L ALUSrcA $end
   $var wire  1 M ALUSrcB $end
   $var wire 25 W Imm [24:0] $end
   $var wire 32 D ImmExt [31:0] $end
   $var wire  3 N ImmSrc [2:0] $end
   $var wire 32 F Instr [31:0] $end
   $var wire  1 Q LdSrc $end
   $var wire  1 K MemWrite $end
   $var wire 32 E PC [31:0] $end
   $var wire  1 g PCSrc $end
   $var wire 32 C PC_Plus [31:0] $end
   $var wire 32 h RD1 [31:0] $end
   $var wire 32 j ReadData [31:0] $end
   $var wire  1 O RegWrite $end
   $var wire 32 i Result [31:0] $end
   $var wire  2 J ResultSrc [1:0] $end
   $var wire  1 R StSrc $end
   $var wire 32 _ WriteData [31:0] $end
   $var wire  1 ^ Zero $end
   $var wire 32 f a0 [31:0] $end
   $var wire  1 d clk $end
   $var wire  1 I func75 $end
   $var wire  3 H funct3 [2:0] $end
   $var wire  7 G opcode [6:0] $end
   $var wire  1 e rst $end
   $scope module my_DataMux $end
    $var wire 32 ` ALUResult [31:0] $end
    $var wire 32 C PCPlus [31:0] $end
    $var wire 32 j RD [31:0] $end
    $var wire 32 i Result [31:0] $end
    $var wire  2 J ResultSrc [1:0] $end
   $upscope $end
   $scope module my_alu_top $end
    $var wire  3 P ALUControl [2:0] $end
    $var wire 32 ` ALUResult [31:0] $end
    $var wire  1 L ALUSrcA $end
    $var wire  1 M ALUSrcB $end
    $var wire 32 D ImmExt [31:0] $end
    $var wire 32 E PC [31:0] $end
    $var wire 32 h RD1 [31:0] $end
    $var wire 32 _ RD2 [31:0] $end
    $var wire 32 a SrcA [31:0] $end
    $var wire 32 b SrcB [31:0] $end
    $var wire  1 ^ Zero $end
   $upscope $end
   $scope module my_control_unit $end
    $var wire  3 P ALUControl [2:0] $end
    $var wire  2 X ALUOp [1:0] $end
    $var wire  1 L ALUSrcA $end
    $var wire  1 M ALUSrcB $end
    $var wire  1 Y Branch $end
    $var wire  3 N ImmSrc [2:0] $end
    $var wire  1 Z Jump $end
    $var wire  1 Q LdSrc $end
    $var wire  1 K MemWrite $end
    $var wire  1 g PCSrc $end
    $var wire  1 O RegWrite $end
    $var wire  2 J ResultSrc [1:0] $end
    $var wire  1 R StSrc $end
    $var wire  1 ^ Zero $end
    $var wire  1 I func75 $end
    $var wire  3 H funct3 [2:0] $end
    $var wire  1 [ op5 $end
    $var wire  7 G opcode [6:0] $end
    $scope module ALU_decode $end
     $var wire  3 P ALUControl [2:0] $end
     $var wire  2 X ALUOp [1:0] $end
     $var wire  2 \ decode [1:0] $end
     $var wire  1 I func75 $end
     $var wire  3 H funct3 [2:0] $end
     $var wire  1 [ op5 $end
    $upscope $end
    $scope module PCSrc_decode $end
     $var wire  1 Y Branch $end
     $var wire  1 Z Jump $end
     $var wire  1 g PCSrc $end
     $var wire  1 ^ Zero $end
     $var wire  3 H funct3 [2:0] $end
    $upscope $end
    $scope module main_decode $end
     $var wire  2 X ALUOp [1:0] $end
     $var wire  1 L ALUSrcA $end
     $var wire  1 M ALUSrcB $end
     $var wire  1 Y Branch $end
     $var wire  3 N ImmSrc [2:0] $end
     $var wire  1 Z Jump $end
     $var wire  1 Q LdSrc $end
     $var wire  1 K MemWrite $end
     $var wire  1 O RegWrite $end
     $var wire  2 J ResultSrc [1:0] $end
     $var wire  1 R StSrc $end
     $var wire  3 H funct3 [2:0] $end
     $var wire  7 G opcode [6:0] $end
    $upscope $end
   $upscope $end
   $scope module my_data_memory $end
    $var wire 32 ` A [31:0] $end
    $var wire 32 m DATA_WIDTH [31:0] $end
    $var wire  1 Q LdSrc $end
    $var wire 32 j RD [31:0] $end
    $var wire  1 R StSrc $end
    $var wire 32 _ WD [31:0] $end
    $var wire  1 K WE $end
    $var wire  1 d clk $end
    $var wire 32 c corrected_WD [31:0] $end
    $var wire 32 k read_data_internal [31:0] $end
    $scope module my_mem $end
     $var wire 32 ` A [31:0] $end
     $var wire 32 n ADDRESS_WIDTH [31:0] $end
     $var wire 32 o DATA_WIDTH [31:0] $end
     $var wire 32 k RD [31:0] $end
     $var wire 32 c WD [31:0] $end
     $var wire  1 K WE $end
     $var wire  1 d clk $end
    $upscope $end
    $scope module my_mem_i $end
     $var wire 32 m DATA_WIDTH [31:0] $end
     $var wire  1 R StSrc $end
     $var wire 32 _ WD_i [31:0] $end
     $var wire 32 c WD_o [31:0] $end
    $upscope $end
    $scope module my_mem_o $end
     $var wire 32 m DATA_WIDTH [31:0] $end
     $var wire  1 Q LdSrc $end
     $var wire 32 k RD_i [31:0] $end
     $var wire 32 j RD_o [31:0] $end
    $upscope $end
   $upscope $end
   $scope module my_extend $end
    $var wire 25 W Imm [31:7] $end
    $var wire 32 D ImmExt [31:0] $end
    $var wire  3 N ImmSrc [2:0] $end
   $upscope $end
   $scope module my_instr_mem $end
    $var wire 12 S A [11:0] $end
    $var wire 32 p A_length [31:0] $end
    $var wire 32 o D_length [31:0] $end
    $var wire 32 F RD [31:0] $end
   $upscope $end
   $scope module my_pc_top $end
    $var wire 32 D ImmExt [31:0] $end
    $var wire 32 E PC [31:0] $end
    $var wire  1 g PCSrc $end
    $var wire 32 l PC_Next [31:0] $end
    $var wire 32 C PC_Plus [31:0] $end
    $var wire 32 ] PC_Target [31:0] $end
    $var wire 32 m PC_WIDTH [31:0] $end
    $var wire  1 d clk $end
    $var wire  1 e rst $end
   $upscope $end
   $scope module my_reg_file $end
    $var wire  5 T A1 [4:0] $end
    $var wire  5 U A2 [4:0] $end
    $var wire  5 V A3 [4:0] $end
    $var wire 32 h RD1 [31:0] $end
    $var wire 32 _ RD2 [31:0] $end
    $var wire 32 i WD3 [31:0] $end
    $var wire  1 O WE3 $end
    $var wire 32 f a0 [31:0] $end
    $var wire  1 d clk $end
    $var wire 32 # mem[0] [31:0] $end
    $var wire 32 - mem[10] [31:0] $end
    $var wire 32 . mem[11] [31:0] $end
    $var wire 32 / mem[12] [31:0] $end
    $var wire 32 0 mem[13] [31:0] $end
    $var wire 32 1 mem[14] [31:0] $end
    $var wire 32 2 mem[15] [31:0] $end
    $var wire 32 3 mem[16] [31:0] $end
    $var wire 32 4 mem[17] [31:0] $end
    $var wire 32 5 mem[18] [31:0] $end
    $var wire 32 6 mem[19] [31:0] $end
    $var wire 32 $ mem[1] [31:0] $end
    $var wire 32 7 mem[20] [31:0] $end
    $var wire 32 8 mem[21] [31:0] $end
    $var wire 32 9 mem[22] [31:0] $end
    $var wire 32 : mem[23] [31:0] $end
    $var wire 32 ; mem[24] [31:0] $end
    $var wire 32 < mem[25] [31:0] $end
    $var wire 32 = mem[26] [31:0] $end
    $var wire 32 > mem[27] [31:0] $end
    $var wire 32 ? mem[28] [31:0] $end
    $var wire 32 @ mem[29] [31:0] $end
    $var wire 32 % mem[2] [31:0] $end
    $var wire 32 A mem[30] [31:0] $end
    $var wire 32 B mem[31] [31:0] $end
    $var wire 32 & mem[3] [31:0] $end
    $var wire 32 ' mem[4] [31:0] $end
    $var wire 32 ( mem[5] [31:0] $end
    $var wire 32 ) mem[6] [31:0] $end
    $var wire 32 * mem[7] [31:0] $end
    $var wire 32 + mem[8] [31:0] $end
    $var wire 32 , mem[9] [31:0] $end
   $upscope $end
  $upscope $end
 $upscope $end
$enddefinitions $end


#0
b00000000000000000000000000000000 #
b00000000000000000000000000000000 $
b00000000000000000000000000000000 %
b00000000000000000000000000000000 &
b00000000000000000000000000000000 '
b00000000000000000000000000000000 (
b00000000000000000000000000000000 )
b00000000000000000000000000000000 *
b00000000000000000000000000000000 +
b00000000000000000000000000000000 ,
b00000000000000000000000000000000 -
b00000000000000000000000000000000 .
b00000000000000000000000000000000 /
b00000000000000000000000000000000 0
b00000000000000000000000000000000 1
b00000000000000000000000000000000 2
b00000000000000000000000000000000 3
b00000000000000000000000000000000 4
b00000000000000000000000000000000 5
b00000000000000000000000000000000 6
b00000000000000000000000000000000 7
b00000000000000000000000000000000 8
b00000000000000000000000000000000 9
b00000000000000000000000000000000 :
b00000000000000000000000000000000 ;
b00000000000000000000000000000000 <
b00000000000000000000000000000000 =
b00000000000000000000000000000000 >
b00000000000000000000000000000000 ?
b00000000000000000000000000000000 @
b00000000000000000000000000000000 A
b00000000000000000000000000000000 B
b00000000000000000000000000000100 C
b00000000000000000000000000000000 D
b00000000000000000000000000000000 E
b00000000000000000000000000000000 F
b0000000 G
b000 H
0I
b00 J
0K
0L
0M
b000 N
0O
b000 P
0Q
0R
b000000000000 S
b00000 T
b00000 U
b00000 V
b0000000000000000000000000 W
b00 X
0Y
0Z
0[
b00 \
b00000000000000000000000000000000 ]
0^
b00000000000000000000000000000000 _
b00000000000000000000000000000000 `
b00000000000000000000000000000000 a
b00000000000000000000000000000000 b
b00000000000000000000000000000000 c
1d
0e
b00000000000000000000000000000000 f
0g
b00000000000000000000000000000000 h
b00000000000000000000000000000000 i
b00000000000000000000000000000000 j
b00000000000000000000000000000000 k
b00000000000000000000000000000100 l
b00000000000000000000000000100000 m
b00000000000000000000000000010001 n
b00000000000000000000000000001000 o
b00000000000000000000000000001100 p
#1
b00000000000000000000000000010000 D
b00000001000000000000000011101111 F
b1101111 G
b10 J
b011 N
1O
b10000 U
b00001 V
b0000000100000000000000001 W
1Z
1[
b10 \
b00000000000000000000000000010000 ]
1^
0d
1g
b00000000000000000000000000000100 i
b00111100010011110100001001010101 j
b00111100010011110100001001010101 k
b00000000000000000000000000010000 l
#2
b00000000000000000000000000000100 $
b00000000000000000000000000010100 C
b00000000000000000000000100000000 D
b00000000000000000000000000010000 E
b00010000000000000000010110010011 F
b0010011 G
b00 J
1M
b000 N
b000000010000 S
b00000 U
b01011 V
b0001000000000000000001011 W
0Z
0[
b00 \
b00000000000000000000000100010000 ]
0^
b00000000000000000000000100000000 `
b00000000000000000000000100000000 b
1d
0g
b00000000000000000000000100000000 i
b01010011011111011000110001001110 j
b01010011011111011000110001001110 k
b00000000000000000000000000010100 l
#3
0d
#4
b00000000000000000000000100000000 .
b00000000000000000000000000011000 C
b11111111111111111111111111111111 D
b00000000000000000000000000010100 E
b11111111111101011000010110010011 F
1I
b000000010100 S
b01011 T
b11111 U
b1111111111110101100001011 W
b01 \
b00000000000000000000000000010011 ]
b00000000000000000000000011111111 `
b00000000000000000000000100000000 a
b11111111111111111111111111111111 b
1d
b00000000000000000000000100000000 h
b00000000000000000000000011111111 i
b01111101100011000100111001001000 j
b01111101100011000100111001001000 k
b00000000000000000000000000011000 l
#5
0d
#6
b00000000000000000000000011111111 .
b00000000000000000000000000011100 C
b00000000000000000000000100000000 D
b00000000000000000000000000011000 E
b00010000000001011000000000100011 F
b0100011 G
0I
1K
b001 N
0O
1R
b000000011000 S
b00000 U
b00000 V
b0001000000000101100000000 W
1[
b10 \
b00000000000000000000000100011000 ]
b00000000000000000000000111111111 `
b00000000000000000000000011111111 a
b00000000000000000000000100000000 b
1d
b00000000000000000000000011111111 h
b00000000000000000000000111111111 i
b00111110011000111000000001101011 j
b00111110011000111000000001101011 k
b00000000000000000000000000011100 l
#7
0d
#8
b00000000000000000000000000100000 C
b11111111111111111111111111111000 D
b00000000000000000000000000011100 E
b11111110000001011001110011100011 F
b1100011 G
b001 H
1I
0K
0M
b010 N
b001 P
b000000011100 S
b11001 V
b1111111000000101100111001 W
b01 X
1Y
b11 \
b00000000000000000000000000010100 ]
b00000000000000000000000011111111 `
b00000000000000000000000000000000 b
1d
1g
b00000000000000000000000011111111 i
b01111101100011000100111001001000 j
b01111101100011000100111001001000 k
b00000000000000000000000000010100 l
#9
0d
#10
b00000000000000000000000000011000 C
b11111111111111111111111111111111 D
b00000000000000000000000000010100 E
b11111111111101011000010110010011 F
b0010011 G
b000 H
1M
b000 N
1O
b000 P
b000000010100 S
b11111 U
b01011 V
b1111111111110101100001011 W
b00 X
0Y
0[
b01 \
b00000000000000000000000000010011 ]
b00000000000000000000000011111110 `
b11111111111111111111111111111111 b
1d
0g
b00000000000000000000000011111110 i
b10001100010011100100100001110101 j
b10001100010011100100100001110101 k
b00000000000000000000000000011000 l
#11
0d
#12
b00000000000000000000000011111110 .
b00000000000000000000000000011100 C
b00000000000000000000000100000000 D
b00000000000000000000000000011000 E
b00010000000001011000000000100011 F
b0100011 G
0I
1K
b001 N
0O
b000000011000 S
b00000 U
b00000 V
b0001000000000101100000000 W
1[
b10 \
b00000000000000000000000100011000 ]
b00000000000000000000000111111110 `
b00000000000000000000000011111110 a
b00000000000000000000000100000000 b
1d
b00000000000000000000000011111110 h
b00000000000000000000000111111110 i
b00000000000000000000000000101001 j
b00000000000000000000000000101001 k
b00000000000000000000000000011100 l
#13
0d
#14
b00000000000000000000000000100000 C
b11111111111111111111111111111000 D
b00000000000000000000000000011100 E
b11111110000001011001110011100011 F
b1100011 G
b001 H
1I
0K
0M
b010 N
b001 P
b000000011100 S
b11001 V
b1111111000000101100111001 W
b01 X
1Y
b11 \
b00000000000000000000000000010100 ]
b00000000000000000000000011111110 `
b00000000000000000000000000000000 b
1d
1g
b00000000000000000000000011111110 i
b10001100010011100100100001110101 j
b10001100010011100100100001110101 k
b00000000000000000000000000010100 l
#15
0d
#16
b00000000000000000000000000011000 C
b11111111111111111111111111111111 D
b00000000000000000000000000010100 E
b11111111111101011000010110010011 F
b0010011 G
b000 H
1M
b000 N
1O
b000 P
b000000010100 S
b11111 U
b01011 V
b1111111111110101100001011 W
b00 X
0Y
0[
b01 \
b00000000000000000000000000010011 ]
b00000000000000000000000011111101 `
b11111111111111111111111111111111 b
1d
0g
b00000000000000000000000011111101 i
b01001110010010000111010101011011 j
b01001110010010000111010101011011 k
b00000000000000000000000000011000 l
#17
0d
#18
b00000000000000000000000011111101 .
b00000000000000000000000000011100 C
b00000000000000000000000100000000 D
b00000000000000000000000000011000 E
b00010000000001011000000000100011 F
b0100011 G
0I
1K
b001 N
0O
b000000011000 S
b00000 U
b00000 V
b0001000000000101100000000 W
1[
b10 \
b00000000000000000000000100011000 ]
b00000000000000000000000111111101 `
b00000000000000000000000011111101 a
b00000000000000000000000100000000 b
1d
b00000000000000000000000011111101 h
b00000000000000000000000111111101 i
b00000000000000000000000001100011 j
b00000000000000000000000001100011 k
b00000000000000000000000000011100 l
#19
0d
#20
b00000000000000000000000000100000 C
b11111111111111111111111111111000 D
b00000000000000000000000000011100 E
b11111110000001011001110011100011 F
b1100011 G
b001 H
1I
0K
0M
b010 N
b001 P
b000000011100 S
b11001 V
b1111111000000101100111001 W
b01 X
1Y
b11 \
b00000000000000000000000000010100 ]
b00000000000000000000000011111101 `
b00000000000000000000000000000000 b
1d
1g
b00000000000000000000000011111101 i
b01001110010010000111010101011011 j
b01001110010010000111010101011011 k
b00000000000000000000000000010100 l
#21
0d
#22
b00000000000000000000000000011000 C
b11111111111111111111111111111111 D
b00000000000000000000000000010100 E
b11111111111101011000010110010011 F
b0010011 G
b000 H
1M
b000 N
1O
b000 P
b000000010100 S
b11111 U
b01011 V
b1111111111110101100001011 W
b00 X
0Y
0[
b01 \
b00000000000000000000000000010011 ]
b00000000000000000000000011111100 `
b11111111111111111111111111111111 b
1d
0g
b00000000000000000000000011111100 i
b01001000011101010101101100111000 j
b01001000011101010101101100111000 k
b00000000000000000000000000011000 l
#23
0d
#24
b00000000000000000000000011111100 .
b00000000000000000000000000011100 C
b00000000000000000000000100000000 D
b00000000000000000000000000011000 E
b00010000000001011000000000100011 F
b0100011 G
0I
1K
b001 N
0O
b000000011000 S
b00000 U
b00000 V
b0001000000000101100000000 W
1[
b10 \
b00000000000000000000000100011000 ]
b00000000000000000000000111111100 `
b00000000000000000000000011111100 a
b00000000000000000000000100000000 b
1d
b00000000000000000000000011111100 h
b00000000000000000000000111111100 i
b00000000000000000000000010001001 j
b00000000000000000000000010001001 k
b00000000000000000000000000011100 l
#25
0d
#26
b00000000000000000000000000100000 C
b11111111111111111111111111111000 D
b00000000000000000000000000011100 E
b11111110000001011001110011100011 F
b1100011 G
b001 H
1I
0K
0M
b010 N
b001 P
b000000011100 S
b11001 V
b1111111000000101100111001 W
b01 X
1Y
b11 \
b00000000000000000000000000010100 ]
b00000000000000000000000011111100 `
b00000000000000000000000000000000 b
1d
1g
b00000000000000000000000011111100 i
b01001000011101010101101100111000 j
b01001000011101010101101100111000 k
b00000000000000000000000000010100 l
#27
0d
#28
b00000000000000000000000000011000 C
b11111111111111111111111111111111 D
b00000000000000000000000000010100 E
b11111111111101011000010110010011 F
b0010011 G
b000 H
1M
b000 N
1O
b000 P
b000000010100 S
b11111 U
b01011 V
b1111111111110101100001011 W
b00 X
0Y
0[
b01 \
b00000000000000000000000000010011 ]
b00000000000000000000000011111011 `
b11111111111111111111111111111111 b
1d
0g
b00000000000000000000000011111011 i
b01110101010110110011100000111111 j
b01110101010110110011100000111111 k
b00000000000000000000000000011000 l
#29
0d
#30
b00000000000000000000000011111011 .
b00000000000000000000000000011100 C
b00000000000000000000000100000000 D
b00000000000000000000000000011000 E
b00010000000001011000000000100011 F
b0100011 G
0I
1K
b001 N
0O
b000000011000 S
b00000 U
b00000 V
b0001000000000101100000000 W
1[
b10 \
b00000000000000000000000100011000 ]
b00000000000000000000000111111011 `
b00000000000000000000000011111011 a
b00000000000000000000000100000000 b
1d
b00000000000000000000000011111011 h
b00000000000000000000000111111011 i
b00000000000000000000000001110011 j
b00000000000000000000000001110011 k
b00000000000000000000000000011100 l
#31
0d
#32
b00000000000000000000000000100000 C
b11111111111111111111111111111000 D
b00000000000000000000000000011100 E
b11111110000001011001110011100011 F
b1100011 G
b001 H
1I
0K
0M
b010 N
b001 P
b000000011100 S
b11001 V
b1111111000000101100111001 W
b01 X
1Y
b11 \
b00000000000000000000000000010100 ]
b00000000000000000000000011111011 `
b00000000000000000000000000000000 b
1d
1g
b00000000000000000000000011111011 i
b01110101010110110011100000111111 j
b01110101010110110011100000111111 k
b00000000000000000000000000010100 l
#33
0d
#34
b00000000000000000000000000011000 C
b11111111111111111111111111111111 D
b00000000000000000000000000010100 E
b11111111111101011000010110010011 F
b0010011 G
b000 H
1M
b000 N
1O
b000 P
b000000010100 S
b11111 U
b01011 V
b1111111111110101100001011 W
b00 X
0Y
0[
b01 \
b00000000000000000000000000010011 ]
b00000000000000000000000011111010 `
b11111111111111111111111111111111 b
1d
0g
b00000000000000000000000011111010 i
b01011011001110000011111110000010 j
b01011011001110000011111110000010 k
b00000000000000000000000000011000 l
#35
0d
#36
b00000000000000000000000011111010 .
b00000000000000000000000000011100 C
b00000000000000000000000100000000 D
b00000000000000000000000000011000 E
b00010000000001011000000000100011 F
b0100011 G
0I
1K
b001 N
0O
b000000011000 S
b00000 U
b00000 V
b0001000000000101100000000 W
1[
b10 \
b00000000000000000000000100011000 ]
b00000000000000000000000111111010 `
b00000000000000000000000011111010 a
b00000000000000000000000100000000 b
1d
b00000000000000000000000011111010 h
b00000000000000000000000111111010 i
b00000000000000000000000001110100 j
b00000000000000000000000001110100 k
b00000000000000000000000000011100 l
#37
0d
#38
b00000000000000000000000000100000 C
b11111111111111111111111111111000 D
b00000000000000000000000000011100 E
b11111110000001011001110011100011 F
b1100011 G
b001 H
1I
0K
0M
b010 N
b001 P
b000000011100 S
b11001 V
b1111111000000101100111001 W
b01 X
1Y
b11 \
b00000000000000000000000000010100 ]
b00000000000000000000000011111010 `
b00000000000000000000000000000000 b
1d
1g
b00000000000000000000000011111010 i
b01011011001110000011111110000010 j
b01011011001110000011111110000010 k
b00000000000000000000000000010100 l
#39
0d
#40
b00000000000000000000000000011000 C
b11111111111111111111111111111111 D
b00000000000000000000000000010100 E
b11111111111101011000010110010011 F
b0010011 G
b000 H
1M
b000 N
1O
b000 P
b000000010100 S
b11111 U
b01011 V
b1111111111110101100001011 W
b00 X
0Y
0[
b01 \
b00000000000000000000000000010011 ]
b00000000000000000000000011111001 `
b11111111111111111111111111111111 b
1d
0g
b00000000000000000000000011111001 i
b00111000001111111000001001001100 j
b00111000001111111000001001001100 k
b00000000000000000000000000011000 l
#41
0d
#42
b00000000000000000000000011111001 .
b00000000000000000000000000011100 C
b00000000000000000000000100000000 D
b00000000000000000000000000011000 E
b00010000000001011000000000100011 F
b0100011 G
0I
1K
b001 N
0O
b000000011000 S
b00000 U
b00000 V
b0001000000000101100000000 W
1[
b10 \
b00000000000000000000000100011000 ]
b00000000000000000000000111111001 `
b00000000000000000000000011111001 a
b00000000000000000000000100000000 b
1d
b00000000000000000000000011111001 h
b00000000000000000000000111111001 i
b00000000000000000000000000011110 j
b00000000000000000000000000011110 k
b00000000000000000000000000011100 l
#43
0d
#44
b00000000000000000000000000100000 C
b11111111111111111111111111111000 D
b00000000000000000000000000011100 E
b11111110000001011001110011100011 F
b1100011 G
b001 H
1I
0K
0M
b010 N
b001 P
b000000011100 S
b11001 V
b1111111000000101100111001 W
b01 X
1Y
b11 \
b00000000000000000000000000010100 ]
b00000000000000000000000011111001 `
b00000000000000000000000000000000 b
1d
1g
b00000000000000000000000011111001 i
b00111000001111111000001001001100 j
b00111000001111111000001001001100 k
b00000000000000000000000000010100 l
#45
0d
#46
b00000000000000000000000000011000 C
b11111111111111111111111111111111 D
b00000000000000000000000000010100 E
b11111111111101011000010110010011 F
b0010011 G
b000 H
1M
b000 N
1O
b000 P
b000000010100 S
b11111 U
b01011 V
b1111111111110101100001011 W
b00 X
0Y
0[
b01 \
b00000000000000000000000000010011 ]
b00000000000000000000000011111000 `
b11111111111111111111111111111111 b
1d
0g
b00000000000000000000000011111000 i
b00111111100000100100110001011101 j
b00111111100000100100110001011101 k
b00000000000000000000000000011000 l
#47
0d
#48
b00000000000000000000000011111000 .
b00000000000000000000000000011100 C
b00000000000000000000000100000000 D
b00000000000000000000000000011000 E
b00010000000001011000000000100011 F
b0100011 G
0I
1K
b001 N
0O
b000000011000 S
b00000 U
b00000 V
b0001000000000101100000000 W
1[
b10 \
b00000000000000000000000100011000 ]
b00000000000000000000000111111000 `
b00000000000000000000000011111000 a
b00000000000000000000000100000000 b
1d
b00000000000000000000000011111000 h
b00000000000000000000000111111000 i
b00000000000000000000000010010010 j
b00000000000000000000000010010010 k
b00000000000000000000000000011100 l
#49
0d
#50
b00000000000000000000000000100000 C
b11111111111111111111111111111000 D
b00000000000000000000000000011100 E
b11111110000001011001110011100011 F
b1100011 G
b001 H
1I
0K
0M
b010 N
b001 P
b000000011100 S
b11001 V
b1111111000000101100111001 W
b01 X
1Y
b11 \
b00000000000000000000000000010100 ]
b00000000000000000000000011111000 `
b00000000000000000000000000000000 b
1d
1g
b00000000000000000000000011111000 i
b00111111100000100100110001011101 j
b00111111100000100100110001011101 k
b00000000000000000000000000010100 l
#51
0d
#52
b00000000000000000000000000011000 C
b11111111111111111111111111111111 D
b00000000000000000000000000010100 E
b11111111111101011000010110010011 F
b0010011 G
b000 H
1M
b000 N
1O
b000 P
b000000010100 S
b11111 U
b01011 V
b1111111111110101100001011 W
b00 X
0Y
0[
b01 \
b00000000000000000000000000010011 ]
b00000000000000000000000011110111 `
b11111111111111111111111111111111 b
1d
0g
b00000000000000000000000011110111 i
b10000010010011000101110101001111 j
b10000010010011000101110101001111 k
b00000000000000000000000000011000 l
#53
0d
#54
b00000000000000000000000011110111 .
b00000000000000000000000000011100 C
b00000000000000000000000100000000 D
b00000000000000000000000000011000 E
b00010000000001011000000000100011 F
b0100011 G
0I
1K
b001 N
0O
b000000011000 S
b00000 U
b00000 V
b0001000000000101100000000 W
1[
b10 \
b00000000000000000000000100011000 ]
b00000000000000000000000111110111 `
b00000000000000000000000011110111 a
b00000000000000000000000100000000 b
1d
b00000000000000000000000011110111 h
b00000000000000000000000111110111 i
b00000000000000000000000000111011 j
b00000000000000000000000000111011 k
b00000000000000000000000000011100 l
#55
0d
#56
b00000000000000000000000000100000 C
b11111111111111111111111111111000 D
b00000000000000000000000000011100 E
b11111110000001011001110011100011 F
b1100011 G
b001 H
1I
0K
0M
b010 N
b001 P
b000000011100 S
b11001 V
b1111111000000101100111001 W
b01 X
1Y
b11 \
b00000000000000000000000000010100 ]
b00000000000000000000000011110111 `
b00000000000000000000000000000000 b
1d
1g
b00000000000000000000000011110111 i
b10000010010011000101110101001111 j
b10000010010011000101110101001111 k
b00000000000000000000000000010100 l
#57
0d
#58
b00000000000000000000000000011000 C
b11111111111111111111111111111111 D
b00000000000000000000000000010100 E
b11111111111101011000010110010011 F
b0010011 G
b000 H
1M
b000 N
1O
b000 P
b000000010100 S
b11111 U
b01011 V
b1111111111110101100001011 W
b00 X
0Y
0[
b01 \
b00000000000000000000000000010011 ]
b00000000000000000000000011110110 `
b11111111111111111111111111111111 b
1d
0g
b00000000000000000000000011110110 i
b01001100010111010100111110101000 j
b01001100010111010100111110101000 k
b00000000000000000000000000011000 l
#59
0d
#60
b00000000000000000000000011110110 .
b00000000000000000000000000011100 C
b00000000000000000000000100000000 D
b00000000000000000000000000011000 E
b00010000000001011000000000100011 F
b0100011 G
0I
1K
b001 N
0O
b000000011000 S
b00000 U
b00000 V
b0001000000000101100000000 W
1[
b10 \
b00000000000000000000000100011000 ]
b00000000000000000000000111110110 `
b00000000000000000000000011110110 a
b00000000000000000000000100000000 b
1d
b00000000000000000000000011110110 h
b00000000000000000000000111110110 i
b00000000000000000000000001101111 j
b00000000000000000000000001101111 k
b00000000000000000000000000011100 l
#61
0d
#62
b00000000000000000000000000100000 C
b11111111111111111111111111111000 D
b00000000000000000000000000011100 E
b11111110000001011001110011100011 F
b1100011 G
b001 H
1I
0K
0M
b010 N
b001 P
b000000011100 S
b11001 V
b1111111000000101100111001 W
b01 X
1Y
b11 \
b00000000000000000000000000010100 ]
b00000000000000000000000011110110 `
b00000000000000000000000000000000 b
1d
1g
b00000000000000000000000011110110 i
b01001100010111010100111110101000 j
b01001100010111010100111110101000 k
b00000000000000000000000000010100 l
#63
0d
#64
b00000000000000000000000000011000 C
b11111111111111111111111111111111 D
b00000000000000000000000000010100 E
b11111111111101011000010110010011 F
b0010011 G
b000 H
1M
b000 N
1O
b000 P
b000000010100 S
b11111 U
b01011 V
b1111111111110101100001011 W
b00 X
0Y
0[
b01 \
b00000000000000000000000000010011 ]
b00000000000000000000000011110101 `
b11111111111111111111111111111111 b
1d
0g
b00000000000000000000000011110101 i
b01011101010011111010100010000100 j
b01011101010011111010100010000100 k
b00000000000000000000000000011000 l
#65
0d
#66
b00000000000000000000000011110101 .
b00000000000000000000000000011100 C
b00000000000000000000000100000000 D
b00000000000000000000000000011000 E
b00010000000001011000000000100011 F
b0100011 G
0I
1K
b001 N
0O
b000000011000 S
b00000 U
b00000 V
b0001000000000101100000000 W
1[
b10 \
b00000000000000000000000100011000 ]
b00000000000000000000000111110101 `
b00000000000000000000000011110101 a
b00000000000000000000000100000000 b
1d
b00000000000000000000000011110101 h
b00000000000000000000000111110101 i
b00000000000000000000000001000011 j
b00000000000000000000000001000011 k
b00000000000000000000000000011100 l
#67
0d
#68
b00000000000000000000000000100000 C
b11111111111111111111111111111000 D
b00000000000000000000000000011100 E
b11111110000001011001110011100011 F
b1100011 G
b001 H
1I
0K
0M
b010 N
b001 P
b000000011100 S
b11001 V
b1111111000000101100111001 W
b01 X
1Y
b11 \
b00000000000000000000000000010100 ]
b00000000000000000000000011110101 `
b00000000000000000000000000000000 b
1d
1g
b00000000000000000000000011110101 i
b01011101010011111010100010000100 j
b01011101010011111010100010000100 k
b00000000000000000000000000010100 l
#69
0d
#70
b00000000000000000000000000011000 C
b11111111111111111111111111111111 D
b00000000000000000000000000010100 E
b11111111111101011000010110010011 F
b0010011 G
b000 H
1M
b000 N
1O
b000 P
b000000010100 S
b11111 U
b01011 V
b1111111111110101100001011 W
b00 X
0Y
0[
b01 \
b00000000000000000000000000010011 ]
b00000000000000000000000011110100 `
b11111111111111111111111111111111 b
1d
0g
b00000000000000000000000011110100 i
b01001111101010001000010001010000 j
b01001111101010001000010001010000 k
b00000000000000000000000000011000 l
#71
0d
#72
b00000000000000000000000011110100 .
b00000000000000000000000000011100 C
b00000000000000000000000100000000 D
b00000000000000000000000000011000 E
b00010000000001011000000000100011 F
b0100011 G
0I
1K
b001 N
0O
b000000011000 S
b00000 U
b00000 V
b0001000000000101100000000 W
1[
b10 \
b00000000000000000000000100011000 ]
b00000000000000000000000111110100 `
b00000000000000000000000011110100 a
b00000000000000000000000100000000 b
1d
b00000000000000000000000011110100 h
b00000000000000000000000111110100 i
b00000000000000000000000001111010 j
b00000000000000000000000001111010 k
b00000000000000000000000000011100 l
#73
0d
#74
b00000000000000000000000000100000 C
b11111111111111111111111111111000 D
b00000000000000000000000000011100 E
b11111110000001011001110011100011 F
b1100011 G
b001 H
1I
0K
0M
b010 N
b001 P
b000000011100 S
b11001 V
b1111111000000101100111001 W
b01 X
1Y
b11 \
b00000000000000000000000000010100 ]
b00000000000000000000000011110100 `
b00000000000000000000000000000000 b
1d
1g
b00000000000000000000000011110100 i
b01001111101010001000010001010000 j
b01001111101010001000010001010000 k
b00000000000000000000000000010100 l
#75
0d
