top.vcd
$version Generated by VerilatedVcd $end
$date Tue Dec 12 03:35:08 2023 $end
$timescale 1ps $end

 $scope module TOP $end
  $var wire 32 7! a0 [31:0] $end
  $var wire  1 4! clk $end
  $var wire  1 5! rst $end
  $var wire 32 6! trigger [31:0] $end
  $scope module top $end
   $var wire 12 p A [11:0] $end
   $var wire  5 L A1 [4:0] $end
   $var wire  5 M A2 [4:0] $end
   $var wire  3 B ALUControlD [2:0] $end
   $var wire  3 C ALUControlE [2:0] $end
   $var wire 32 U ALUResult [31:0] $end
   $var wire 32 V ALUResultM [31:0] $end
   $var wire 32 W ALUResultW [31:0] $end
   $var wire  1 9 ALUSrcAD $end
   $var wire  1 ; ALUSrcAE $end
   $var wire  1 : ALUSrcBD $end
   $var wire  1 < ALUSrcBE $end
   $var wire  1 Z BranchD $end
   $var wire  1 [ BranchE $end
   $var wire  1 # FlushD $end
   $var wire  1 ;! FlushE $end
   $var wire 25 T Imm [24:0] $end
   $var wire 32 ( ImmExtD [31:0] $end
   $var wire 32 ) ImmExtE [31:0] $end
   $var wire  3 = ImmSrcD [2:0] $end
   $var wire 32 , InstrD [31:0] $end
   $var wire  1 F JalSrcD $end
   $var wire  1 I JalSrcE $end
   $var wire  1 X JumpD $end
   $var wire  1 Y JumpE $end
   $var wire  1 D LdSrcD $end
   $var wire  1 G LdSrcE $end
   $var wire  1 J LdSrcM $end
   $var wire  1 6 MemWriteD $end
   $var wire  1 7 MemWriteE $end
   $var wire  1 8 MemWriteM $end
   $var wire 32 * PCD [31:0] $end
   $var wire 32 + PCE [31:0] $end
   $var wire 32 o PCF [31:0] $end
   $var wire  1 # PCSrcE $end
   $var wire 32 $ PC_PlusD [31:0] $end
   $var wire 32 % PC_PlusE [31:0] $end
   $var wire 32 n PC_PlusF [31:0] $end
   $var wire 32 & PC_PlusM [31:0] $end
   $var wire 32 ' PC_PlusW [31:0] $end
   $var wire 32 N RD [31:0] $end
   $var wire 32 8! RD1 [31:0] $end
   $var wire 32 O RD1E [31:0] $end
   $var wire 32 9! RD2 [31:0] $end
   $var wire 32 P RD2E [31:0] $end
   $var wire 32 q RDi [31:0] $end
   $var wire  5 \ RdD [4:0] $end
   $var wire  5 ] RdE [4:0] $end
   $var wire  5 ^ RdM [4:0] $end
   $var wire  5 _ RdW [4:0] $end
   $var wire 32 S ReadDataW [31:0] $end
   $var wire  1 > RegWriteD $end
   $var wire  1 ? RegWriteE $end
   $var wire  1 @ RegWriteM $end
   $var wire  1 A RegWriteW $end
   $var wire  2 2 ResultSrcD [1:0] $end
   $var wire  2 3 ResultSrcE [1:0] $end
   $var wire  2 4 ResultSrcM [1:0] $end
   $var wire  2 5 ResultSrcW [1:0] $end
   $var wire 32 Q ResultW [31:0] $end
   $var wire  5 L Rs1D [4:0] $end
   $var wire  5 ` Rs1E [4:0] $end
   $var wire  5 M Rs2D [4:0] $end
   $var wire  5 a Rs2E [4:0] $end
   $var wire 32 b SrcA0E [31:0] $end
   $var wire 32 c SrcB0E [31:0] $end
   $var wire  1 E StSrcD $end
   $var wire  1 H StSrcE $end
   $var wire  1 K StSrcM $end
   $var wire  1 :! StallD $end
   $var wire  1 :! StallF $end
   $var wire 32 R WriteDataM [31:0] $end
   $var wire  1 1 ZeroE $end
   $var wire 32 7! a0 [31:0] $end
   $var wire  1 4! clk $end
   $var wire  1 0 func75 $end
   $var wire  3 . funct3 [2:0] $end
   $var wire  3 / funct3E [2:0] $end
   $var wire  7 - opcode [6:0] $end
   $var wire  1 5! rst $end
   $var wire 32 6! trigger [31:0] $end
   $scope module PCSrcE_decode $end
    $var wire  1 [ BranchE $end
    $var wire  1 Y JumpE $end
    $var wire  1 # PCSrcE $end
    $var wire  1 1 ZeroE $end
    $var wire  3 / funct3E [2:0] $end
   $upscope $end
   $scope module Stage1 $end
    $var wire 32 =! DATA_WIDTH [31:0] $end
    $var wire 32 , InstrD [31:0] $end
    $var wire 32 * PCD [31:0] $end
    $var wire 32 o PCF [31:0] $end
    $var wire 32 $ PC_PlusD [31:0] $end
    $var wire 32 n PC_PlusF [31:0] $end
    $var wire 32 q RDi [31:0] $end
    $var wire  1 4! clk $end
    $var wire  1 # clr $end
    $var wire  1 :! en $end
   $upscope $end
   $scope module Stage2 $end
    $var wire  3 B ALUControlD [2:0] $end
    $var wire  3 C ALUControlE [2:0] $end
    $var wire  1 9 ALUSrcAD $end
    $var wire  1 ; ALUSrcAE $end
    $var wire  1 : ALUSrcBD $end
    $var wire  1 < ALUSrcBE $end
    $var wire  1 Z BranchD $end
    $var wire  1 [ BranchE $end
    $var wire 32 =! DATA_WIDTH [31:0] $end
    $var wire 32 ( ImmExtD [31:0] $end
    $var wire 32 ) ImmExtE [31:0] $end
    $var wire  1 F JalSrcD $end
    $var wire  1 I JalSrcE $end
    $var wire  1 X JumpD $end
    $var wire  1 Y JumpE $end
    $var wire  1 D LdSrcD $end
    $var wire  1 G LdSrcE $end
    $var wire  1 6 MemWriteD $end
    $var wire  1 7 MemWriteE $end
    $var wire 32 * PCD [31:0] $end
    $var wire 32 + PCE [31:0] $end
    $var wire 32 $ PC_PlusD [31:0] $end
    $var wire 32 % PC_PlusE [31:0] $end
    $var wire 32 8! RD1 [31:0] $end
    $var wire 32 O RD1E [31:0] $end
    $var wire 32 9! RD2 [31:0] $end
    $var wire 32 P RD2E [31:0] $end
    $var wire  5 \ RdD [4:0] $end
    $var wire  5 ] RdE [4:0] $end
    $var wire  1 > RegWriteD $end
    $var wire  1 ? RegWriteE $end
    $var wire  2 2 ResultSrcD [1:0] $end
    $var wire  2 3 ResultSrcE [1:0] $end
    $var wire  5 L Rs1D [4:0] $end
    $var wire  5 ` Rs1E [4:0] $end
    $var wire  5 M Rs2D [4:0] $end
    $var wire  5 a Rs2E [4:0] $end
    $var wire  1 E StSrcD $end
    $var wire  1 H StSrcE $end
    $var wire  1 4! clk $end
    $var wire  1 ;! clr $end
    $var wire  3 . funct3 [2:0] $end
    $var wire  3 / funct3E [2:0] $end
   $upscope $end
   $scope module Stage3 $end
    $var wire 32 U ALUResult [31:0] $end
    $var wire 32 V ALUResultM [31:0] $end
    $var wire 32 =! DATA_WIDTH [31:0] $end
    $var wire  1 G LdSrcE $end
    $var wire  1 J LdSrcM $end
    $var wire  1 7 MemWriteE $end
    $var wire  1 8 MemWriteM $end
    $var wire 32 % PC_PlusE [31:0] $end
    $var wire 32 & PC_PlusM [31:0] $end
    $var wire  5 ] RdE [4:0] $end
    $var wire  5 ^ RdM [4:0] $end
    $var wire  1 ? RegWriteE $end
    $var wire  1 @ RegWriteM $end
    $var wire  2 3 ResultSrcE [1:0] $end
    $var wire  2 4 ResultSrcM [1:0] $end
    $var wire  1 H StSrcE $end
    $var wire  1 K StSrcM $end
    $var wire 32 c WriteDataE [31:0] $end
    $var wire 32 R WriteDataM [31:0] $end
    $var wire  1 4! clk $end
   $upscope $end
   $scope module Stage4 $end
    $var wire 32 V ALUResultM [31:0] $end
    $var wire 32 W ALUResultW [31:0] $end
    $var wire 32 =! DATA_WIDTH [31:0] $end
    $var wire 32 & PC_PlusM [31:0] $end
    $var wire 32 ' PC_PlusW [31:0] $end
    $var wire 32 N RD [31:0] $end
    $var wire  5 ^ RdM [4:0] $end
    $var wire  5 _ RdW [4:0] $end
    $var wire 32 S ReadDataW [31:0] $end
    $var wire  1 @ RegWriteM $end
    $var wire  1 A RegWriteW $end
    $var wire  2 4 ResultSrcM [1:0] $end
    $var wire  2 5 ResultSrcW [1:0] $end
    $var wire  1 4! clk $end
   $upscope $end
   $scope module my_DataMux $end
    $var wire 32 W ALUResultW [31:0] $end
    $var wire 32 ' PC_PlusW [31:0] $end
    $var wire 32 S ReadDataW [31:0] $end
    $var wire  2 5 ResultSrcW [1:0] $end
    $var wire 32 Q ResultW [31:0] $end
   $upscope $end
   $scope module my_InstrD_mem $end
    $var wire 12 p A [11:0] $end
    $var wire 32 >! A_length [31:0] $end
    $var wire 32 ?! D_length [31:0] $end
    $var wire 32 q RDi [31:0] $end
   $upscope $end
   $scope module my_alu $end
    $var wire  3 C ALUControlE [2:0] $end
    $var wire 32 U ALUResult [31:0] $end
    $var wire  1 ; ALUSrcAE $end
    $var wire  1 < ALUSrcBE $end
    $var wire 32 ) ImmExtE [31:0] $end
    $var wire 32 + PCE [31:0] $end
    $var wire 32 b SrcA0E [31:0] $end
    $var wire 32 d SrcAE [31:0] $end
    $var wire 32 c SrcB0E [31:0] $end
    $var wire 32 e SrcBE [31:0] $end
    $var wire  1 1 ZeroE $end
   $upscope $end
   $scope module my_control_unit $end
    $var wire  3 B ALUControlD [2:0] $end
    $var wire  2 g ALUDecode [1:0] $end
    $var wire  2 f ALUOpD [1:0] $end
    $var wire  1 9 ALUSrcAD $end
    $var wire  1 : ALUSrcBD $end
    $var wire  1 Z BranchD $end
    $var wire  3 = ImmSrcD [2:0] $end
    $var wire  1 F JalSrcD $end
    $var wire  1 X JumpD $end
    $var wire  1 D LdSrcD $end
    $var wire  1 6 MemWriteD $end
    $var wire  1 > RegWriteD $end
    $var wire  2 2 ResultSrcD [1:0] $end
    $var wire  1 E StSrcD $end
    $var wire  1 0 func75 $end
    $var wire  3 . funct3 [2:0] $end
    $var wire  1 h op5 $end
    $var wire  7 - opcode [6:0] $end
   $upscope $end
   $scope module my_data_memory $end
    $var wire 32 V A [31:0] $end
    $var wire 32 =! DATA_WIDTH [31:0] $end
    $var wire  1 J LdSrcM $end
    $var wire 32 N RD [31:0] $end
    $var wire  1 K StSrcM $end
    $var wire 32 R WD [31:0] $end
    $var wire  1 8 WE $end
    $var wire  1 4! clk $end
   $upscope $end
   $scope module my_extend $end
    $var wire 25 T Imm [31:7] $end
    $var wire 32 ( ImmExtD [31:0] $end
    $var wire  3 = ImmSrcD [2:0] $end
   $upscope $end
   $scope module my_hazardunit $end
    $var wire 32 V ALUResultM [31:0] $end
    $var wire 32 =! DATA_WIDTH [31:0] $end
    $var wire  1 # FlushD $end
    $var wire  1 ;! FlushE $end
    $var wire  2 i ForwardAE [1:0] $end
    $var wire  2 j ForwardBE [1:0] $end
    $var wire  1 # PCSrcE $end
    $var wire 32 O RD1E [31:0] $end
    $var wire 32 P RD2E [31:0] $end
    $var wire  5 ] RdE [4:0] $end
    $var wire  5 ^ RdM [4:0] $end
    $var wire  5 _ RdW [4:0] $end
    $var wire  1 @ RegWriteM $end
    $var wire  1 A RegWriteW $end
    $var wire  2 3 ResultSrcE [1:0] $end
    $var wire  1 k ResultSrcE0 $end
    $var wire 32 Q ResultW [31:0] $end
    $var wire  5 L Rs1D [4:0] $end
    $var wire  5 ` Rs1E [4:0] $end
    $var wire  5 M Rs2D [4:0] $end
    $var wire  5 a Rs2E [4:0] $end
    $var wire 32 b SrcA0E [31:0] $end
    $var wire 32 c SrcB0E [31:0] $end
    $var wire  1 :! StallD $end
    $var wire  1 :! StallF $end
    $var wire  1 :! lwStall $end
   $upscope $end
   $scope module my_pc $end
    $var wire 32 ) ImmExtE [31:0] $end
    $var wire  1 I JalSrcE $end
    $var wire 32 + PCE [31:0] $end
    $var wire 32 o PCF [31:0] $end
    $var wire 32 <! PCF_Next [31:0] $end
    $var wire  1 # PCSrcE $end
    $var wire 32 m PC_Jump [31:0] $end
    $var wire 32 n PC_PlusF [31:0] $end
    $var wire 32 l PC_TargetE [31:0] $end
    $var wire 32 =! PC_WIDTH [31:0] $end
    $var wire 32 O RD1E [31:0] $end
    $var wire  1 4! clk $end
    $var wire  1 :! en $end
    $var wire  1 5! rst $end
   $upscope $end
   $scope module my_reg_file $end
    $var wire  5 L A1 [4:0] $end
    $var wire  5 M A2 [4:0] $end
    $var wire  5 _ A3 [4:0] $end
    $var wire 32 8! RD1 [31:0] $end
    $var wire 32 9! RD2 [31:0] $end
    $var wire 32 Q WD3 [31:0] $end
    $var wire  1 A WE3 $end
    $var wire 32 7! a0 [31:0] $end
    $var wire  1 4! clk $end
    $var wire 32 r register[0] [31:0] $end
    $var wire 32 | register[10] [31:0] $end
    $var wire 32 } register[11] [31:0] $end
    $var wire 32 ~ register[12] [31:0] $end
    $var wire 32 !! register[13] [31:0] $end
    $var wire 32 "! register[14] [31:0] $end
    $var wire 32 #! register[15] [31:0] $end
    $var wire 32 $! register[16] [31:0] $end
    $var wire 32 %! register[17] [31:0] $end
    $var wire 32 &! register[18] [31:0] $end
    $var wire 32 '! register[19] [31:0] $end
    $var wire 32 s register[1] [31:0] $end
    $var wire 32 (! register[20] [31:0] $end
    $var wire 32 )! register[21] [31:0] $end
    $var wire 32 *! register[22] [31:0] $end
    $var wire 32 +! register[23] [31:0] $end
    $var wire 32 ,! register[24] [31:0] $end
    $var wire 32 -! register[25] [31:0] $end
    $var wire 32 .! register[26] [31:0] $end
    $var wire 32 /! register[27] [31:0] $end
    $var wire 32 0! register[28] [31:0] $end
    $var wire 32 1! register[29] [31:0] $end
    $var wire 32 t register[2] [31:0] $end
    $var wire 32 2! register[30] [31:0] $end
    $var wire 32 3! register[31] [31:0] $end
    $var wire 32 u register[3] [31:0] $end
    $var wire 32 v register[4] [31:0] $end
    $var wire 32 w register[5] [31:0] $end
    $var wire 32 x register[6] [31:0] $end
    $var wire 32 y register[7] [31:0] $end
    $var wire 32 z register[8] [31:0] $end
    $var wire 32 { register[9] [31:0] $end
    $var wire 32 6! trigger [31:0] $end
   $upscope $end
  $upscope $end
 $upscope $end
$enddefinitions $end


#0
0#
b00000000000000000000000000000000 $
b00000000000000000000000000000000 %
b00000000000000000000000000000000 &
b00000000000000000000000000000000 '
b00000000000000000000000000000000 (
b00000000000000000000000000000000 )
b00000000000000000000000000000000 *
b00000000000000000000000000000000 +
b00000000000000000000000000000000 ,
b0000000 -
b000 .
b000 /
00
01
b00 2
b00 3
b00 4
b00 5
06
07
08
09
0:
0;
0<
b000 =
0>
0?
0@
0A
b000 B
b000 C
0D
0E
0F
0G
0H
0I
0J
0K
b00000 L
b00000 M
b00000000000000000000000000000000 N
b00000000000000000000000000000000 O
b00000000000000000000000000000000 P
b00000000000000000000000000000000 Q
b00000000000000000000000000000000 R
b00000000000000000000000000000000 S
b0000000000000000000000000 T
b00000000000000000000000000000000 U
b00000000000000000000000000000000 V
b00000000000000000000000000000000 W
0X
0Y
0Z
0[
b00000 \
b00000 ]
b00000 ^
b00000 _
b00000 `
b00000 a
b00000000000000000000000000000000 b
b00000000000000000000000000000000 c
b00000000000000000000000000000000 d
b00000000000000000000000000000000 e
b00 f
b00 g
0h
b00 i
b00 j
0k
b00000000000000000000000000000000 l
b00000000000000000000000000000000 m
b00000000000000000000000000000100 n
b00000000000000000000000000000000 o
b000000000000 p
b00000000000000000000000000000000 q
b00000000000000000000000000000000 r
b00000000000000000000000000000000 s
b00000000000000000000000000000000 t
b00000000000000000000000000000000 u
b00000000000000000000000000000000 v
b00000000000000000000000000000000 w
b00000000000000000000000000000000 x
b00000000000000000000000000000000 y
b00000000000000000000000000000000 z
b00000000000000000000000000000000 {
b00000000000000000000000000000000 |
b00000000000000000000000000000000 }
b00000000000000000000000000000000 ~
b00000000000000000000000000000000 !!
b00000000000000000000000000000000 "!
b00000000000000000000000000000000 #!
b00000000000000000000000000000000 $!
b00000000000000000000000000000000 %!
b00000000000000000000000000000000 &!
b00000000000000000000000000000000 '!
b00000000000000000000000000000000 (!
b00000000000000000000000000000000 )!
b00000000000000000000000000000000 *!
b00000000000000000000000000000000 +!
b00000000000000000000000000000000 ,!
b00000000000000000000000000000000 -!
b00000000000000000000000000000000 .!
b00000000000000000000000000000000 /!
b00000000000000000000000000000000 0!
b00000000000000000000000000000000 1!
b00000000000000000000000000000000 2!
b00000000000000000000000000000000 3!
14!
15!
b00000000000000000000000000000000 6!
b00000000000000000000000000000000 7!
b00000000000000000000000000000000 8!
b00000000000000000000000000000000 9!
0:!
0;!
b00000000000000000000000000000100 <!
b00000000000000000000000000100000 =!
b00000000000000000000000000001100 >!
b00000000000000000000000000001000 ?!
#1
11
b00000000000100000000010010010011 q
04!
#2
b00000000000000000000000000000100 $
b00000000000000000000000000000001 (
b00000000000100000000010010010011 ,
b0010011 -
1:
1>
b00001 M
b0000000000010000000001001 T
b01001 \
b10111111110000000000000000000100 n
b10111111110000000000000000000000 o
14!
05!
b10111111110000000000000000000100 <!
#3
04!
#4
b10111111110000000000000000000100 $
b00000000000000000000000000000100 %
b00000000000000000000000000000001 )
b10111111110000000000000000000000 *
01
1<
1?
b00000000000000000000000000000001 U
b01001 ]
b00001 a
b00000000000000000000000000000001 e
b00000000000000000000000000000001 m
b10111111110000000000000000001000 n
b10111111110000000000000000000100 o
b000000000100 p
b00001111111100000000100100010011 q
14!
b10111111110000000000000000001000 <!
#5
04!
#6
b10111111110000000000000000001000 $
b10111111110000000000000000000100 %
b00000000000000000000000000000100 &
b00000000000000000000000011111111 (
b10111111110000000000000000000100 *
b10111111110000000000000000000000 +
b00001111111100000000100100010011 ,
1@
b11111 M
b0000111111110000000010010 T
b00000000000000000000000000000001 V
b10010 \
b01001 ^
b10111111110000000000000000000001 m
b10111111110000000000000000001100 n
b10111111110000000000000000001000 o
b000000001000 p
b00000000100000000000100110010011 q
14!
b10111111110000000000000000001100 <!
#7
04!
#8
b10111111110000000000000000001100 $
b10111111110000000000000000001000 %
b10111111110000000000000000000100 &
b00000000000000000000000000000100 '
b00000000000000000000000000001000 (
b00000000000000000000000011111111 )
b10111111110000000000000000001000 *
b10111111110000000000000000000100 +
b00000000100000000000100110010011 ,
1A
b01000 M
b00000000000000000000000000000001 Q
b0000000010000000000010011 T
b00000000000000000000000011111111 U
b00000000000000000000000000000001 W
b10011 \
b10010 ]
b01001 _
b11111 a
b00000000000000000000000011111111 e
b10111111110000000000000100000011 m
b10111111110000000000000000010000 n
b10111111110000000000000000001100 o
b000000001100 p
b00000111111100000000011010010011 q
14!
b10111111110000000000000000010000 <!
#9
b00000000000000000000000000000001 {
04!
#10
b10111111110000000000000000010000 $
b10111111110000000000000000001100 %
b10111111110000000000000000001000 &
b10111111110000000000000000000100 '
b00000000000000000000000001111111 (
b00000000000000000000000000001000 )
b10111111110000000000000000001100 *
b10111111110000000000000000001000 +
b00000111111100000000011010010011 ,
b11111 M
b0000011111110000000001101 T
b00000000000000000000000000001000 U
b00000000000000000000000011111111 V
b01101 \
b10011 ]
b10010 ^
b01000 a
b00000000000000000000000000001000 e
b10111111110000000000000000010000 m
b10111111110000000000000000010100 n
b10111111110000000000000000010000 o
b000000010000 p
b00000000000000000000010100010011 q
14!
b10111111110000000000000000010100 <!
#11
04!
#12
b10111111110000000000000000010100 $
b10111111110000000000000000010000 %
b10111111110000000000000000001100 &
b10111111110000000000000000001000 '
b00000000000000000000000000000000 (
b00000000000000000000000001111111 )
b10111111110000000000000000010000 *
b10111111110000000000000000001100 +
b00000000000000000000010100010011 ,
b00000 M
b00000000000000000000000011111111 Q
b0000000000000000000001010 T
b00000000000000000000000001111111 U
b00000000000000000000000000001000 V
b00000000000000000000000011111111 W
b01010 \
b01101 ]
b10011 ^
b10010 _
b11111 a
b00000000000000000000000001111111 e
b10111111110000000000000010001011 m
b10111111110000000000000000011000 n
b10111111110000000000000000010100 o
b000000010100 p
b00000000000000000000011100010011 q
14!
b10111111110000000000000000011000 <!
#13
b00000000000000000000000011111111 &!
04!
#14
b10111111110000000000000000011000 $
b10111111110000000000000000010100 %
b10111111110000000000000000010000 &
b10111111110000000000000000001100 '
b00000000000000000000000000000000 )
b10111111110000000000000000010100 *
b10111111110000000000000000010000 +
b00000000000000000000011100010011 ,
11
b00000000000000000000000000001000 Q
b0000000000000000000001110 T
b00000000000000000000000000000000 U
b00000000000000000000000001111111 V
b00000000000000000000000000001000 W
b01110 \
b01010 ]
b01101 ^
b10011 _
b00000 a
b00000000000000000000000000000000 e
b10111111110000000000000000010000 m
b10111111110000000000000000011100 n
b10111111110000000000000000011000 o
b000000011000 p
b00000000000000000000001010010011 q
14!
b10111111110000000000000000011100 <!
#15
b00000000000000000000000000001000 '!
04!
#16
b10111111110000000000000000011100 $
b10111111110000000000000000011000 %
b10111111110000000000000000010100 &
b10111111110000000000000000010000 '
b10111111110000000000000000011000 *
b10111111110000000000000000010100 +
b00000000000000000000001010010011 ,
b00000000000000000000000001111111 Q
b0000000000000000000000101 T
b00000000000000000000000000000000 V
b00000000000000000000000001111111 W
b00101 \
b01110 ]
b01010 ^
b01101 _
b10111111110000000000000000010100 m
b10111111110000000000000000100000 n
b10111111110000000000000000011100 o
b000000011100 p
b00000010100100101000011001100011 q
14!
b10111111110000000000000000100000 <!
#17
b00000000000000000000000001111111 !!
04!
#18
b10111111110000000000000000100000 $
b10111111110000000000000000011100 %
b10111111110000000000000000011000 &
b10111111110000000000000000010100 '
b00000000000000000000000000101100 (
b10111111110000000000000000011100 *
b10111111110000000000000000011000 +
b00000010100100101000011001100011 ,
b1100011 -
0:
b010 =
0>
b001 B
1F
b00101 L
b01001 M
b00000000000000000000000000000000 Q
b0000001010010010100001100 T
b00000000000000000000000000000000 W
1Z
b01100 \
b00101 ]
b01110 ^
b01010 _
b01 f
b10 g
1h
b10111111110000000000000000011000 m
b10111111110000000000000000100100 n
b10111111110000000000000000100000 o
b000000100000 p
b00000000001001101101001100010011 q
14!
b00000000000000000000000000000001 9!
b10111111110000000000000000100100 <!
#19
04!
#20
b10111111110000000000000000100100 $
b10111111110000000000000000100000 %
b10111111110000000000000000011100 &
b10111111110000000000000000011000 '
b00000000000000000000000000000010 (
b00000000000000000000000000101100 )
b10111111110000000000000000100000 *
b10111111110000000000000000011100 +
b00000000001001101101001100010011 ,
b0010011 -
b101 .
01
1:
0<
b000 =
1>
0?
b100 B
b001 C
0F
1I
b01101 L
b00010 M
b00000000000000000000000000000001 P
b0000000000100110110100110 T
b11111111111111111111111111111111 U
0Z
1[
b00110 \
b01100 ]
b00101 ^
b01110 _
b00101 `
b01001 a
b00000000000000000000000000000001 c
b00000000000000000000000000000001 e
b00 f
b00 g
0h
b10 i
b10111111110000000000000001001000 l
b10111111110000000000000001001000 m
b10111111110000000000000000101000 n
b10111111110000000000000000100100 o
b000000100100 p
b00000000000100110111001100010011 q
14!
b00000000000000000000000001111111 8!
b00000000000000000000000000000000 9!
b10111111110000000000000000101000 <!
#21
04!
#22
b10111111110000000000000000101000 $
b10111111110000000000000000100100 %
b10111111110000000000000000100000 &
b10111111110000000000000000011100 '
b00000000000000000000000000000001 (
b00000000000000000000000000000010 )
b10111111110000000000000000100100 *
b10111111110000000000000000100000 +
b00000000000100110111001100010011 ,
b111 .
b101 /
1<
1?
0@
b010 B
b100 C
0I
b00110 L
b00001 M
b00000000000000000000000011011110 N
b00000000000000000000000001111111 O
b00000000000000000000000000000000 P
b00000000000000000000000000000001 R
b0000000000010011011100110 T
b00000000000000000000000000011111 U
b11111111111111111111111111111111 V
0[
b00110 ]
b01100 ^
b00101 _
b01101 `
b00010 a
b00000000000000000000000001111111 b
b00000000000000000000000000000000 c
b00000000000000000000000001111111 d
b00000000000000000000000000000010 e
b00 i
b00000000000000000000000001111111 l
b10111111110000000000000000100010 m
b10111111110000000000000000101100 n
b10111111110000000000000000101000 o
b000000101000 p
b00000000011001101101001110010011 q
14!
b00000000000000000000000000000000 8!
b10111111110000000000000000101100 <!
#23
04!
#24
b10111111110000000000000000101100 $
b10111111110000000000000000101000 %
b10111111110000000000000000100100 &
b10111111110000000000000000100000 '
b00000000000000000000000000000110 (
b00000000000000000000000000000001 )
b10111111110000000000000000101000 *
b10111111110000000000000000100100 +
b00000000011001101101001110010011 ,
b101 .
b111 /
1@
0A
b100 B
b010 C
b01101 L
b00110 M
b00000000000000000000000000000000 N
b00000000000000000000000000000000 O
b11111111111111111111111111111111 Q
b00000000000000000000000000000000 R
b00000000000000000000000011011110 S
b0000000001100110110100111 T
b00000000000000000000000000000001 U
b00000000000000000000000000011111 V
b11111111111111111111111111111111 W
b00111 \
b00110 ^
b01100 _
b00110 `
b00001 a
b00000000000000000000000000011111 b
b00000000000000000000000000011111 d
b00000000000000000000000000000001 e
b10 i
b00000000000000000000000000000000 l
b10111111110000000000000000100101 m
b10111111110000000000000000110000 n
b10111111110000000000000000101100 o
b000000101100 p
b00000000000100111111001110010011 q
14!
b00000000000000000000000001111111 8!
b10111111110000000000000000110000 <!
#25
04!
#26
b10111111110000000000000000110000 $
b10111111110000000000000000101100 %
b10111111110000000000000000101000 &
b10111111110000000000000000100100 '
b00000000000000000000000000000001 (
b00000000000000000000000000000110 )
b10111111110000000000000000101100 *
b10111111110000000000000000101000 +
b00000000000100111111001110010011 ,
b111 .
b101 /
1A
b010 B
b100 C
b00111 L
b00001 M
b00000000000000000000000001111111 O
b00000000000000000000000000011111 Q
b00000000000000000000000000000000 S
b0000000000010011111100111 T
b00000000000000000000000000000001 V
b00000000000000000000000000011111 W
b00111 ]
b00110 _
b01101 `
b00110 a
b00000000000000000000000001111111 b
b00000000000000000000000000000001 c
b00000000000000000000000001111111 d
b00000000000000000000000000000110 e
b00 i
b10 j
b00000000000000000000000001111111 l
b10111111110000000000000000101110 m
b10111111110000000000000000110100 n
b10111111110000000000000000110000 o
b000000110000 p
b00000000011100110100001100110011 q
14!
b00000000000000000000000000000000 8!
b10111111110000000000000000110100 <!
#27
b00000000000000000000000000011111 x
04!
#28
b10111111110000000000000000110100 $
b10111111110000000000000000110000 %
b10111111110000000000000000101100 &
b10111111110000000000000000101000 '
b00000000000000000000000000000111 (
b00000000000000000000000000000001 )
b10111111110000000000000000110000 *
b10111111110000000000000000101100 +
b00000000011100110100001100110011 ,
b0110011 -
b100 .
b111 /
0:
b101 B
b010 C
b00110 L
b00111 M
b00000000000000000000000000000000 O
b00000000000000000000000000000001 Q
b00000000000000000000000000000001 R
b0000000001110011010000110 T
b00000000000000000000000000000001 W
b00110 \
b00111 ^
b00111 `
b00001 a
b00000000000000000000000000000001 b
b00000000000000000000000000000000 c
b00000000000000000000000000000001 d
b00000000000000000000000000000001 e
b10 f
b10 g
1h
b10 i
b00 j
b00000000000000000000000000000000 l
b10111111110000000000000000101101 m
b10111111110000000000000000111000 n
b10111111110000000000000000110100 o
b000000110100 p
b00000011111101101111001110010011 q
14!
b00000000000000000000000000011111 8!
b10111111110000000000000000111000 <!
#29
b00000000000000000000000000000001 x
04!
b00000000000000000000000000000001 8!
#30
b10111111110000000000000000111000 $
b10111111110000000000000000110100 %
b10111111110000000000000000110000 &
b10111111110000000000000000101100 '
b00000000000000000000000000111111 (
b00000000000000000000000000000111 )
b10111111110000000000000000110100 *
b10111111110000000000000000110000 +
b00000011111101101111001110010011 ,
b0010011 -
b111 .
b100 /
11
1:
0<
b010 B
b101 C
b01101 L
b11111 M
b00000000000000000000000000000001 O
b00000000000000000000000000000000 R
b0000001111110110111100111 T
b00000000000000000000000000000000 U
b00111 \
b00110 ]
b00111 _
b00110 `
b00111 a
b00000000000000000000000000000001 c
b00 f
b00 g
0h
b00 i
b10 j
b00000000000000000000000000000001 l
b10111111110000000000000000110111 m
b10111111110000000000000000111100 n
b10111111110000000000000000111000 o
b000000111000 p
b00000000000100111001001110010011 q
14!
b00000000000000000000000001111111 8!
b10111111110000000000000000111100 <!
#31
b00000000000000000000000000000001 y
04!
#32
b10111111110000000000000000111100 $
b10111111110000000000000000111000 %
b10111111110000000000000000110100 &
b10111111110000000000000000110000 '
b00000000000000000000000000000001 (
b00000000000000000000000000111111 )
b10111111110000000000000000111000 *
b10111111110000000000000000110100 +
b00000000000100111001001110010011 ,
b001 .
b111 /
01
1<
b111 B
b010 C
b00111 L
b00001 M
b00000000000000000000000001111111 O
b00000000000000000000000000000001 R
b0000000000010011100100111 T
b00000000000000000000000000111111 U
b00000000000000000000000000000000 V
b00111 ]
b00110 ^
b01101 `
b11111 a
b00000000000000000000000001111111 b
b00000000000000000000000000000000 c
b00000000000000000000000001111111 d
b00000000000000000000000000111111 e
b00 j
b00000000000000000000000001111111 l
b10111111110000000000000001110011 m
b10111111110000000000000001000000 n
b10111111110000000000000000111100 o
b000000111100 p
b00000000011100110000001100110011 q
14!
b00000000000000000000000000000001 8!
b10111111110000000000000001000000 <!
#33
04!
#34
b10111111110000000000000001000000 $
b10111111110000000000000000111100 %
b10111111110000000000000000111000 &
b10111111110000000000000000110100 '
b00000000000000000000000000000111 (
b00000000000000000000000000000001 )
b10111111110000000000000000111100 *
b10111111110000000000000000111000 +
b00000000011100110000001100110011 ,
b0110011 -
b000 .
b001 /
0:
b000 B
b111 C
b00110 L
b00111 M
b00000000000000000000000000000001 O
b00000000000000000000000000000000 Q
b00000000000000000000000000000000 R
b0000000001110011000000110 T
b00000000000000000000000001111110 U
b00000000000000000000000000111111 V
b00000000000000000000000000000000 W
b00110 \
b00111 ^
b00110 _
b00111 `
b00001 a
b00000000000000000000000000111111 b
b00000000000000000000000000111111 d
b00000000000000000000000000000001 e
b10 f
b10 g
1h
b10 i
b00000000000000000000000000000001 l
b10111111110000000000000000111001 m
b10111111110000000000000001000100 n
b10111111110000000000000001000000 o
b000001000000 p
b00000111111100110111011010010011 q
14!
b00000000000000000000000000000001 9!
b10111111110000000000000001000100 <!
#35
b00000000000000000000000000000000 x
04!
b00000000000000000000000000000000 8!
