top.vcd
$version Generated by VerilatedVcd $end
$timescale 1ps $end

 $scope module TOP $end
  $var wire 32 8! a0 [31:0] $end
  $var wire  1 6! clk $end
  $var wire  1 7! rst $end
  $scope module top $end
   $var wire 12 4! A [11:0] $end
   $var wire  5 L A1 [4:0] $end
   $var wire  5 M A2 [4:0] $end
   $var wire  3 B ALUControlD [2:0] $end
   $var wire  3 C ALUControlE [2:0] $end
   $var wire 32 U ALUResult [31:0] $end
   $var wire 32 V ALUResultM [31:0] $end
   $var wire 32 W ALUResultW [31:0] $end
   $var wire  1 9 ALUSrcAD $end
   $var wire  1 ; ALUSrcAE $end
   $var wire  1 : ALUSrcBD $end
   $var wire  1 < ALUSrcBE $end
   $var wire  1 Z BranchD $end
   $var wire  1 [ BranchE $end
   $var wire  1 # FlushD $end
   $var wire  1 c FlushE $end
   $var wire 25 T Imm [24:0] $end
   $var wire 32 ( ImmExtD [31:0] $end
   $var wire 32 ) ImmExtE [31:0] $end
   $var wire  3 = ImmSrcD [2:0] $end
   $var wire 32 , InstrD [31:0] $end
   $var wire  1 F JalSrcD $end
   $var wire  1 I JalSrcE $end
   $var wire  1 X JumpD $end
   $var wire  1 Y JumpE $end
   $var wire  1 D LdSrcD $end
   $var wire  1 G LdSrcE $end
   $var wire  1 J LdSrcM $end
   $var wire  1 6 MemWriteD $end
   $var wire  1 7 MemWriteE $end
   $var wire  1 8 MemWriteM $end
   $var wire 32 * PCD [31:0] $end
   $var wire 32 + PCE [31:0] $end
   $var wire 32 3! PCF [31:0] $end
   $var wire  1 # PCSrcE $end
   $var wire 32 $ PC_PlusD [31:0] $end
   $var wire 32 % PC_PlusE [31:0] $end
   $var wire 32 2! PC_PlusF [31:0] $end
   $var wire 32 & PC_PlusM [31:0] $end
   $var wire 32 ' PC_PlusW [31:0] $end
   $var wire 32 N RD [31:0] $end
   $var wire 32 9! RD1 [31:0] $end
   $var wire 32 O RD1E [31:0] $end
   $var wire 32 :! RD2 [31:0] $end
   $var wire 32 P RD2E [31:0] $end
   $var wire 32 5! RDi [31:0] $end
   $var wire  5 \ RdD [4:0] $end
   $var wire  5 ] RdE [4:0] $end
   $var wire  5 ^ RdM [4:0] $end
   $var wire  5 _ RdW [4:0] $end
   $var wire 32 S ReadDataW [31:0] $end
   $var wire  1 > RegWriteD $end
   $var wire  1 ? RegWriteE $end
   $var wire  1 @ RegWriteM $end
   $var wire  1 A RegWriteW $end
   $var wire  2 2 ResultSrcD [1:0] $end
   $var wire  2 3 ResultSrcE [1:0] $end
   $var wire  2 4 ResultSrcM [1:0] $end
   $var wire  2 5 ResultSrcW [1:0] $end
   $var wire 32 Q ResultW [31:0] $end
   $var wire  5 L Rs1D [4:0] $end
   $var wire  5 ` Rs1E [4:0] $end
   $var wire  5 M Rs2D [4:0] $end
   $var wire  5 a Rs2E [4:0] $end
   $var wire 32 d SrcA0E [31:0] $end
   $var wire 32 e SrcB0E [31:0] $end
   $var wire  1 E StSrcD $end
   $var wire  1 H StSrcE $end
   $var wire  1 K StSrcM $end
   $var wire  1 b StallD $end
   $var wire  1 b StallF $end
   $var wire 32 R WriteDataM [31:0] $end
   $var wire  1 1 ZeroE $end
   $var wire 32 8! a0 [31:0] $end
   $var wire  1 6! clk $end
   $var wire  1 0 func75 $end
   $var wire  3 . funct3 [2:0] $end
   $var wire  3 / funct3E [2:0] $end
   $var wire  7 - opcode [6:0] $end
   $var wire  1 7! rst $end
   $scope module PCSrcE_decode $end
    $var wire  1 [ BranchE $end
    $var wire  1 Y JumpE $end
    $var wire  1 # PCSrcE $end
    $var wire  1 1 ZeroE $end
    $var wire  3 / funct3E [2:0] $end
   $upscope $end
   $scope module Stage1 $end
    $var wire 32 <! DATA_WIDTH [31:0] $end
    $var wire 32 , InstrD [31:0] $end
    $var wire 32 * PCD [31:0] $end
    $var wire 32 3! PCF [31:0] $end
    $var wire 32 $ PC_PlusD [31:0] $end
    $var wire 32 2! PC_PlusF [31:0] $end
    $var wire 32 5! RDi [31:0] $end
    $var wire  1 6! clk $end
    $var wire  1 # clr $end
    $var wire  1 b en $end
   $upscope $end
   $scope module Stage2 $end
    $var wire  3 B ALUControlD [2:0] $end
    $var wire  3 C ALUControlE [2:0] $end
    $var wire  1 9 ALUSrcAD $end
    $var wire  1 ; ALUSrcAE $end
    $var wire  1 : ALUSrcBD $end
    $var wire  1 < ALUSrcBE $end
    $var wire  1 Z BranchD $end
    $var wire  1 [ BranchE $end
    $var wire 32 <! DATA_WIDTH [31:0] $end
    $var wire 32 ( ImmExtD [31:0] $end
    $var wire 32 ) ImmExtE [31:0] $end
    $var wire  1 F JalSrcD $end
    $var wire  1 I JalSrcE $end
    $var wire  1 X JumpD $end
    $var wire  1 Y JumpE $end
    $var wire  1 D LdSrcD $end
    $var wire  1 G LdSrcE $end
    $var wire  1 6 MemWriteD $end
    $var wire  1 7 MemWriteE $end
    $var wire 32 * PCD [31:0] $end
    $var wire 32 + PCE [31:0] $end
    $var wire 32 $ PC_PlusD [31:0] $end
    $var wire 32 % PC_PlusE [31:0] $end
    $var wire 32 9! RD1 [31:0] $end
    $var wire 32 O RD1E [31:0] $end
    $var wire 32 :! RD2 [31:0] $end
    $var wire 32 P RD2E [31:0] $end
    $var wire  5 \ RdD [4:0] $end
    $var wire  5 ] RdE [4:0] $end
    $var wire  1 > RegWriteD $end
    $var wire  1 ? RegWriteE $end
    $var wire  2 2 ResultSrcD [1:0] $end
    $var wire  2 3 ResultSrcE [1:0] $end
    $var wire  5 L Rs1D [4:0] $end
    $var wire  5 ` Rs1E [4:0] $end
    $var wire  5 M Rs2D [4:0] $end
    $var wire  5 a Rs2E [4:0] $end
    $var wire  1 E StSrcD $end
    $var wire  1 H StSrcE $end
    $var wire  1 6! clk $end
    $var wire  1 c clr $end
    $var wire  3 . funct3 [2:0] $end
    $var wire  3 / funct3E [2:0] $end
   $upscope $end
   $scope module Stage3 $end
    $var wire 32 U ALUResult [31:0] $end
    $var wire 32 V ALUResultM [31:0] $end
    $var wire 32 <! DATA_WIDTH [31:0] $end
    $var wire  1 G LdSrcE $end
    $var wire  1 J LdSrcM $end
    $var wire  1 7 MemWriteE $end
    $var wire  1 8 MemWriteM $end
    $var wire 32 % PC_PlusE [31:0] $end
    $var wire 32 & PC_PlusM [31:0] $end
    $var wire  5 ] RdE [4:0] $end
    $var wire  5 ^ RdM [4:0] $end
    $var wire  1 ? RegWriteE $end
    $var wire  1 @ RegWriteM $end
    $var wire  2 3 ResultSrcE [1:0] $end
    $var wire  2 4 ResultSrcM [1:0] $end
    $var wire  1 H StSrcE $end
    $var wire  1 K StSrcM $end
    $var wire 32 P WriteDataE [31:0] $end
    $var wire 32 R WriteDataM [31:0] $end
    $var wire  1 6! clk $end
   $upscope $end
   $scope module Stage4 $end
    $var wire 32 V ALUResultM [31:0] $end
    $var wire 32 W ALUResultW [31:0] $end
    $var wire 32 <! DATA_WIDTH [31:0] $end
    $var wire 32 & PC_PlusM [31:0] $end
    $var wire 32 ' PC_PlusW [31:0] $end
    $var wire 32 N RD [31:0] $end
    $var wire  5 ^ RdM [4:0] $end
    $var wire  5 _ RdW [4:0] $end
    $var wire 32 S ReadDataW [31:0] $end
    $var wire  1 @ RegWriteM $end
    $var wire  1 A RegWriteW $end
    $var wire  2 4 ResultSrcM [1:0] $end
    $var wire  2 5 ResultSrcW [1:0] $end
    $var wire  1 6! clk $end
   $upscope $end
   $scope module my_DataMux $end
    $var wire 32 W ALUResultW [31:0] $end
    $var wire 32 ' PC_PlusW [31:0] $end
    $var wire 32 S ReadDataW [31:0] $end
    $var wire  2 5 ResultSrcW [1:0] $end
    $var wire 32 Q ResultW [31:0] $end
   $upscope $end
   $scope module my_InstrD_mem $end
    $var wire 12 4! A [11:0] $end
    $var wire 32 =! A_length [31:0] $end
    $var wire 32 >! D_length [31:0] $end
    $var wire 32 5! RDi [31:0] $end
   $upscope $end
   $scope module my_alu $end
    $var wire  3 C ALUControlE [2:0] $end
    $var wire 32 U ALUResult [31:0] $end
    $var wire  1 ; ALUSrcAE $end
    $var wire  1 < ALUSrcBE $end
    $var wire 32 ) ImmExtE [31:0] $end
    $var wire 32 + PCE [31:0] $end
    $var wire 32 d SrcA0E [31:0] $end
    $var wire 32 f SrcAE [31:0] $end
    $var wire 32 e SrcB0E [31:0] $end
    $var wire 32 g SrcBE [31:0] $end
    $var wire  1 1 ZeroE $end
   $upscope $end
   $scope module my_control_unit $end
    $var wire  3 B ALUControlD [2:0] $end
    $var wire  2 i ALUDecode [1:0] $end
    $var wire  2 h ALUOpD [1:0] $end
    $var wire  1 9 ALUSrcAD $end
    $var wire  1 : ALUSrcBD $end
    $var wire  1 Z BranchD $end
    $var wire  3 = ImmSrcD [2:0] $end
    $var wire  1 F JalSrcD $end
    $var wire  1 X JumpD $end
    $var wire  1 D LdSrcD $end
    $var wire  1 6 MemWriteD $end
    $var wire  1 > RegWriteD $end
    $var wire  2 2 ResultSrcD [1:0] $end
    $var wire  1 E StSrcD $end
    $var wire  1 0 func75 $end
    $var wire  3 . funct3 [2:0] $end
    $var wire  1 j op5 $end
    $var wire  7 - opcode [6:0] $end
   $upscope $end
   $scope module my_data_memory $end
    $var wire 32 V A [31:0] $end
    $var wire 32 <! DATA_WIDTH [31:0] $end
    $var wire  1 J LdSrcM $end
    $var wire 32 N RD [31:0] $end
    $var wire  1 K StSrcM $end
    $var wire 32 R WD [31:0] $end
    $var wire  1 8 WE $end
    $var wire  1 6! clk $end
   $upscope $end
   $scope module my_extend $end
    $var wire 25 T Imm [31:7] $end
    $var wire 32 ( ImmExtD [31:0] $end
    $var wire  3 = ImmSrcD [2:0] $end
   $upscope $end
   $scope module my_hazardunit $end
    $var wire 32 V ALUResultM [31:0] $end
    $var wire 32 <! DATA_WIDTH [31:0] $end
    $var wire  1 # FlushD $end
    $var wire  1 c FlushE $end
    $var wire  2 k ForwardAE [1:0] $end
    $var wire  2 l ForwardBE [1:0] $end
    $var wire  1 # PCSrcE $end
    $var wire 32 O RD1E [31:0] $end
    $var wire 32 P RD2E [31:0] $end
    $var wire  5 ] RdE [4:0] $end
    $var wire  5 ^ RdM [4:0] $end
    $var wire  5 _ RdW [4:0] $end
    $var wire  1 @ RegWriteM $end
    $var wire  1 A RegWriteW $end
    $var wire  2 3 ResultSrcE [1:0] $end
    $var wire  1 m ResultSrcE0 $end
    $var wire 32 Q ResultW [31:0] $end
    $var wire  5 L Rs1D [4:0] $end
    $var wire  5 ` Rs1E [4:0] $end
    $var wire  5 M Rs2D [4:0] $end
    $var wire  5 a Rs2E [4:0] $end
    $var wire 32 d SrcA0E [31:0] $end
    $var wire 32 e SrcB0E [31:0] $end
    $var wire  1 b StallD $end
    $var wire  1 b StallF $end
    $var wire  1 b lwStall $end
   $upscope $end
   $scope module my_pc $end
    $var wire 32 ) ImmExtE [31:0] $end
    $var wire  1 I JalSrcE $end
    $var wire 32 + PCE [31:0] $end
    $var wire 32 3! PCF [31:0] $end
    $var wire 32 ;! PCF_Next [31:0] $end
    $var wire  1 # PCSrcE $end
    $var wire 32 o PC_Jump [31:0] $end
    $var wire 32 2! PC_PlusF [31:0] $end
    $var wire 32 n PC_TargetE [31:0] $end
    $var wire 32 <! PC_WIDTH [31:0] $end
    $var wire 32 O RD1E [31:0] $end
    $var wire  1 6! clk $end
    $var wire  1 b en $end
    $var wire  1 7! rst $end
   $upscope $end
   $scope module my_reg_file $end
    $var wire  5 L A1 [4:0] $end
    $var wire  5 M A2 [4:0] $end
    $var wire  5 _ A3 [4:0] $end
    $var wire 32 9! RD1 [31:0] $end
    $var wire 32 :! RD2 [31:0] $end
    $var wire 32 Q WD3 [31:0] $end
    $var wire  1 A WE3 $end
    $var wire 32 8! a0 [31:0] $end
    $var wire  1 6! clk $end
    $var wire 32 p mem[0] [31:0] $end
    $var wire 32 z mem[10] [31:0] $end
    $var wire 32 { mem[11] [31:0] $end
    $var wire 32 | mem[12] [31:0] $end
    $var wire 32 } mem[13] [31:0] $end
    $var wire 32 ~ mem[14] [31:0] $end
    $var wire 32 !! mem[15] [31:0] $end
    $var wire 32 "! mem[16] [31:0] $end
    $var wire 32 #! mem[17] [31:0] $end
    $var wire 32 $! mem[18] [31:0] $end
    $var wire 32 %! mem[19] [31:0] $end
    $var wire 32 q mem[1] [31:0] $end
    $var wire 32 &! mem[20] [31:0] $end
    $var wire 32 '! mem[21] [31:0] $end
    $var wire 32 (! mem[22] [31:0] $end
    $var wire 32 )! mem[23] [31:0] $end
    $var wire 32 *! mem[24] [31:0] $end
    $var wire 32 +! mem[25] [31:0] $end
    $var wire 32 ,! mem[26] [31:0] $end
    $var wire 32 -! mem[27] [31:0] $end
    $var wire 32 .! mem[28] [31:0] $end
    $var wire 32 /! mem[29] [31:0] $end
    $var wire 32 r mem[2] [31:0] $end
    $var wire 32 0! mem[30] [31:0] $end
    $var wire 32 1! mem[31] [31:0] $end
    $var wire 32 s mem[3] [31:0] $end
    $var wire 32 t mem[4] [31:0] $end
    $var wire 32 u mem[5] [31:0] $end
    $var wire 32 v mem[6] [31:0] $end
    $var wire 32 w mem[7] [31:0] $end
    $var wire 32 x mem[8] [31:0] $end
    $var wire 32 y mem[9] [31:0] $end
   $upscope $end
  $upscope $end
 $upscope $end
$enddefinitions $end


#0
0#
b00000000000000000000000000000000 $
b00000000000000000000000000000000 %
b00000000000000000000000000000000 &
b00000000000000000000000000000000 '
b00000000000000000000000000000000 (
b00000000000000000000000000000000 )
b00000000000000000000000000000000 *
b00000000000000000000000000000000 +
b00000000000000000000000000000000 ,
b0000000 -
b000 .
b000 /
00
01
b00 2
b00 3
b00 4
b00 5
06
07
08
09
0:
0;
0<
b000 =
0>
0?
0@
0A
b000 B
b000 C
0D
0E
0F
0G
0H
0I
0J
0K
b00000 L
b00000 M
b00000000000000000000000000000000 N
b00000000000000000000000000000000 O
b00000000000000000000000000000000 P
b00000000000000000000000000000000 Q
b00000000000000000000000000000000 R
b00000000000000000000000000000000 S
b0000000000000000000000000 T
b00000000000000000000000000000000 U
b00000000000000000000000000000000 V
b00000000000000000000000000000000 W
0X
0Y
0Z
0[
b00000 \
b00000 ]
b00000 ^
b00000 _
b00000 `
b00000 a
0b
0c
b00000000000000000000000000000000 d
b00000000000000000000000000000000 e
b00000000000000000000000000000000 f
b00000000000000000000000000000000 g
b00 h
b00 i
0j
b00 k
b00 l
0m
b00000000000000000000000000000000 n
b00000000000000000000000000000000 o
b00000000000000000000000000000000 p
b00000000000000000000000000000000 q
b00000000000000000000000000000000 r
b00000000000000000000000000000000 s
b00000000000000000000000000000000 t
b00000000000000000000000000000000 u
b00000000000000000000000000000000 v
b00000000000000000000000000000000 w
b00000000000000000000000000000000 x
b00000000000000000000000000000000 y
b00000000000000000000000000000000 z
b00000000000000000000000000000000 {
b00000000000000000000000000000000 |
b00000000000000000000000000000000 }
b00000000000000000000000000000000 ~
b00000000000000000000000000000000 !!
b00000000000000000000000000000000 "!
b00000000000000000000000000000000 #!
b00000000000000000000000000000000 $!
b00000000000000000000000000000000 %!
b00000000000000000000000000000000 &!
b00000000000000000000000000000000 '!
b00000000000000000000000000000000 (!
b00000000000000000000000000000000 )!
b00000000000000000000000000000000 *!
b00000000000000000000000000000000 +!
b00000000000000000000000000000000 ,!
b00000000000000000000000000000000 -!
b00000000000000000000000000000000 .!
b00000000000000000000000000000000 /!
b00000000000000000000000000000000 0!
b00000000000000000000000000000000 1!
b00000000000000000000000000000100 2!
b00000000000000000000000000000000 3!
b000000000000 4!
b00000000000000000000000000000000 5!
16!
07!
b00000000000000000000000000000000 8!
b00000000000000000000000000000000 9!
b00000000000000000000000000000000 :!
b00000000000000000000000000000100 ;!
b00000000000000000000000000100000 <!
b00000000000000000000000000001100 =!
b00000000000000000000000000001000 >!
#1
11
b00000001000000000000000011101111 5!
06!
#2
b00000000000000000000000000000100 $
b00000000000000000000000000010000 (
b00000001000000000000000011101111 ,
b1101111 -
b10 2
b011 =
1>
1F
b10000 M
b0000000100000000000000001 T
1X
b00001 \
b10 i
1j
b00000000000000000000000000001000 2!
b00000000000000000000000000000100 3!
b000000000100 4!
b00000010000000000000000011101111 5!
16!
b00000000000000000000000000001000 ;!
#3
06!
#4
1#
b00000000000000000000000000001000 $
b00000000000000000000000000000100 %
b00000000000000000000000000100000 (
b00000000000000000000000000010000 )
b00000000000000000000000000000100 *
b00000010000000000000000011101111 ,
b10 3
1?
1I
b00000 M
b0000001000000000000000001 T
1Y
b00001 ]
b10000 a
1c
b00000000000000000000000000010000 n
b00000000000000000000000000010000 o
b00000000000000000000000000001100 2!
b00000000000000000000000000001000 3!
b000000001000 4!
b00000101000000000000000011101111 5!
16!
b00000000000000000000000000010000 ;!
#5
06!
#6
0#
b00000000000000000000000000000000 $
b00000000000000000000000000000000 %
b00000000000000000000000000000100 &
b00000000000000000000000000000000 (
b00000000000000000000000000000000 )
b00000000000000000000000000000000 *
b00000000000000000000000000000000 ,
b0000000 -
b00 2
b00 3
b10 4
b000 =
0>
0?
1@
0F
0I
b0000000000000000000000000 T
0X
0Y
b00000 \
b00000 ]
b00001 ^
b00000 a
0c
b00 i
0j
b00000000000000000000000000000000 n
b00000000000000000000000000000000 o
b00000000000000000000000000010100 2!
b00000000000000000000000000010000 3!
b000000010000 4!
b00010000000000000000010110010011 5!
16!
b00000000000000000000000000010100 ;!
#7
06!
#8
b00000000000000000000000000010100 $
b00000000000000000000000000000000 &
b00000000000000000000000000000100 '
b00000000000000000000000100000000 (
b00000000000000000000000000010000 *
b00010000000000000000010110010011 ,
b0010011 -
b00 4
b10 5
1:
1>
0@
1A
b00000000000000000000000000000100 Q
b0001000000000000000001011 T
b01011 \
b00000 ^
b00001 _
b00000000000000000000000000011000 2!
b00000000000000000000000000010100 3!
b000000010100 4!
b11111111111101011000010110010011 5!
16!
b00000000000000000000000000011000 ;!
#9
b00000000000000000000000000000100 q
06!
#10
b00000000000000000000000000011000 $
b00000000000000000000000000010100 %
b00000000000000000000000000000000 '
b11111111111111111111111111111111 (
b00000000000000000000000100000000 )
b00000000000000000000000000010100 *
b00000000000000000000000000010000 +
b11111111111101011000010110010011 ,
10
01
b00 5
1<
1?
0A
b01011 L
b11111 M
b00000000000000000000000000000000 Q
b1111111111110101100001011 T
b00000000000000000000000100000000 U
b01011 ]
b00000 _
b00000000000000000000000100000000 g
b01 i
b00000000000000000000000100010000 o
b00000000000000000000000000011100 2!
b00000000000000000000000000011000 3!
b000000011000 4!
b00010000000001011000000000100011 5!
16!
b00000000000000000000000000011100 ;!
#11
06!
#12
b00000000000000000000000000011100 $
b00000000000000000000000000011000 %
b00000000000000000000000000010100 &
b00000000000000000000000100000000 (
b11111111111111111111111111111111 )
b00000000000000000000000000011000 *
b00000000000000000000000000010100 +
b00010000000001011000000000100011 ,
b0100011 -
00
16
b001 =
0>
1@
1E
b00000 M
b0001000000000101100000000 T
b00000000000000000000000011111111 U
b00000000000000000000000100000000 V
b00000 \
b01011 ^
b01011 `
b11111 a
b00000000000000000000000100000000 d
b00000000000000000000000100000000 f
b11111111111111111111111111111111 g
b10 i
1j
b10 k
b00000000000000000000000000010011 o
b00000000000000000000000000100000 2!
b00000000000000000000000000011100 3!
b000000011100 4!
b11111110000001011001110011100011 5!
16!
b00000000000000000000000000100000 ;!
#13
06!
#14
b00000000000000000000000000100000 $
b00000000000000000000000000011100 %
b00000000000000000000000000011000 &
b00000000000000000000000000010100 '
b11111111111111111111111111111000 (
b00000000000000000000000100000000 )
b00000000000000000000000000011100 *
b00000000000000000000000000011000 +
b11111110000001011001110011100011 ,
b1100011 -
b001 .
10
06
17
0:
b010 =
0?
1A
b001 B
0E
1F
1H
b00000000000000000000000100000000 Q
b1111111000000101100111001 T
b00000000000000000000000111111111 U
b00000000000000000000000011111111 V
b00000000000000000000000100000000 W
1Z
b11001 \
b00000 ]
b01011 _
b00000 a
b00000000000000000000000011111111 d
b00000000000000000000000011111111 f
b00000000000000000000000100000000 g
b01 h
b11 i
b00000000000000000000000100011000 o
b00000000000000000000000000100100 2!
b00000000000000000000000000100000 3!
b000000100000 4!
b00000000000000001000000001100111 5!
16!
b00000000000000000000000000100100 ;!
#15
b00000000000000000000000100000000 {
06!
b00000000000000000000000100000000 9!
#16
1#
b00000000000000000000000000100100 $
b00000000000000000000000000100000 %
b00000000000000000000000000011100 &
b00000000000000000000000000011000 '
b00000000000000000000000000000000 (
b11111111111111111111111111111000 )
b00000000000000000000000000100000 *
b00000000000000000000000000011100 +
b00000000000000001000000001100111 ,
b1100111 -
b000 .
b001 /
00
b10 2
07
18
1:
0<
b000 =
1>
0@
b000 B
b001 C
0F
0H
1I
1K
b00001 L
b00000000000000000000000100000000 O
b00000000000000000000000011111111 Q
b0000000000000000100000000 T
b00000000000000000000000011111111 U
b00000000000000000000000111111111 V
b00000000000000000000000011111111 W
1X
0Z
1[
b00000 \
b11001 ]
b00000 ^
1c
b00000000000000000000000000000000 g
b00 h
b10 i
b01 k
b00000000000000000000000000010100 n
b00000000000000000000000000010100 o
b00000000000000000000000000101000 2!
b00000000000000000000000000100100 3!
b000000100100 4!
b00000000000000010000010110110111 5!
16!
b00000000000000000000000000000100 9!
b00000000000000000000000000010100 ;!
#17
b00000000000000000000000011111111 {
06!
#18
0#
b00000000000000000000000000000000 $
b00000000000000000000000000000000 %
b00000000000000000000000000100000 &
b00000000000000000000000000011100 '
b00000000000000000000000000000000 )
b00000000000000000000000000000000 *
b00000000000000000000000000000000 +
b00000000000000000000000000000000 ,
b0000000 -
b000 /
11
b00 2
08
0:
0>
0A
b000 C
0I
0K
b00000 L
b00000000000000000000000000000000 O
b00000000000000000000000111111111 Q
b0000000000000000000000000 T
b00000000000000000000000000000000 U
b00000000000000000000000011111111 V
b00000000000000000000000111111111 W
0X
0[
b00000 ]
b11001 ^
b00000 _
b00000 `
0c
b00000000000000000000000000000000 d
b00000000000000000000000000000000 f
b00 i
0j
b00 k
b00000000000000000000000000000000 n
b00000000000000000000000000000000 o
b00000000000000000000000000011000 2!
b00000000000000000000000000010100 3!
b000000010100 4!
b11111111111101011000010110010011 5!
16!
b00000000000000000000000000000000 9!
b00000000000000000000000000011000 ;!
#19
06!
#20
b00000000000000000000000000011000 $
b00000000000000000000000000000000 &
b00000000000000000000000000100000 '
b11111111111111111111111111111111 (
b00000000000000000000000000010100 *
b11111111111101011000010110010011 ,
b0010011 -
10
1:
1>
b01011 L
b11111 M
b00000000000000000000000011111111 Q
b1111111111110101100001011 T
b00000000000000000000000000000000 V
b00000000000000000000000011111111 W
b01011 \
b00000 ^
b11001 _
b01 i
b00000000000000000000000000011100 2!
b00000000000000000000000000011000 3!
b000000011000 4!
b00010000000001011000000000100011 5!
16!
b00000000000000000000000011111111 9!
b00000000000000000000000000011100 ;!
#21
06!
#22
b00000000000000000000000000011100 $
b00000000000000000000000000011000 %
b00000000000000000000000000000000 '
b00000000000000000000000100000000 (
b11111111111111111111111111111111 )
b00000000000000000000000000011000 *
b00000000000000000000000000010100 +
b00010000000001011000000000100011 ,
b0100011 -
00
01
16
1<
b001 =
0>
1?
1E
b00000 M
b00000000000000000000000011111111 O
b00000000000000000000000000000000 Q
b0001000000000101100000000 T
b00000000000000000000000011111110 U
b00000000000000000000000000000000 W
b00000 \
b01011 ]
b00000 _
b01011 `
b11111 a
b00000000000000000000000011111111 d
b00000000000000000000000011111111 f
b11111111111111111111111111111111 g
b10 i
1j
b00000000000000000000000011111111 n
b00000000000000000000000000010011 o
b00000000000000000000000000100000 2!
b00000000000000000000000000011100 3!
b000000011100 4!
b11111110000001011001110011100011 5!
16!
b00000000000000000000000000100000 ;!
#23
06!
#24
b00000000000000000000000000100000 $
b00000000000000000000000000011100 %
b00000000000000000000000000011000 &
b11111111111111111111111111111000 (
b00000000000000000000000100000000 )
b00000000000000000000000000011100 *
b00000000000000000000000000011000 +
b11111110000001011001110011100011 ,
b1100011 -
b001 .
10
06
17
0:
b010 =
0?
1@
b001 B
0E
1F
1H
b1111111000000101100111001 T
b00000000000000000000000111111110 U
b00000000000000000000000011111110 V
1Z
b11001 \
b00000 ]
b01011 ^
b00000 a
b00000000000000000000000011111110 d
b00000000000000000000000011111110 f
b00000000000000000000000100000000 g
b01 h
b11 i
b10 k
b00000000000000000000000100011000 o
b00000000000000000000000000100100 2!
b00000000000000000000000000100000 3!
b000000100000 4!
b00000000000000001000000001100111 5!
16!
b00000000000000000000000000100100 ;!
#25
06!
#26
1#
b00000000000000000000000000100100 $
b00000000000000000000000000100000 %
b00000000000000000000000000011100 &
b00000000000000000000000000011000 '
b00000000000000000000000000000000 (
b11111111111111111111111111111000 )
b00000000000000000000000000100000 *
b00000000000000000000000000011100 +
b00000000000000001000000001100111 ,
b1100111 -
b000 .
b001 /
00
b10 2
07
18
1:
0<
b000 =
1>
0@
1A
b000 B
b001 C
0F
0H
1I
1K
b00001 L
b00000000000000000000000011111110 Q
b0000000000000000100000000 T
b00000000000000000000000011111110 U
b00000000000000000000000111111110 V
b00000000000000000000000011111110 W
1X
0Z
1[
b00000 \
b11001 ]
b00000 ^
b01011 _
1c
b00000000000000000000000000000000 g
b00 h
b10 i
b01 k
b00000000000000000000000000010100 n
b00000000000000000000000000010100 o
b00000000000000000000000000101000 2!
b00000000000000000000000000100100 3!
b000000100100 4!
b00000000000000010000010110110111 5!
16!
b00000000000000000000000000000100 9!
b00000000000000000000000000010100 ;!
#27
b00000000000000000000000011111110 {
06!
#28
0#
b00000000000000000000000000000000 $
b00000000000000000000000000000000 %
b00000000000000000000000000100000 &
b00000000000000000000000000011100 '
b00000000000000000000000000000000 )
b00000000000000000000000000000000 *
b00000000000000000000000000000000 +
b00000000000000000000000000000000 ,
b0000000 -
b000 /
11
b00 2
08
0:
0>
0A
b000 C
0I
0K
b00000 L
b00000000000000000000000000000000 O
b00000000000000000000000111111110 Q
b0000000000000000000000000 T
b00000000000000000000000000000000 U
b00000000000000000000000011111110 V
b00000000000000000000000111111110 W
0X
0[
b00000 ]
b11001 ^
b00000 _
b00000 `
0c
b00000000000000000000000000000000 d
b00000000000000000000000000000000 f
b00 i
0j
b00 k
b00000000000000000000000000000000 n
b00000000000000000000000000000000 o
b00000000000000000000000000011000 2!
b00000000000000000000000000010100 3!
b000000010100 4!
b11111111111101011000010110010011 5!
16!
b00000000000000000000000000000000 9!
b00000000000000000000000000011000 ;!
#29
06!
#30
b00000000000000000000000000011000 $
b00000000000000000000000000000000 &
b00000000000000000000000000100000 '
b11111111111111111111111111111111 (
b00000000000000000000000000010100 *
b11111111111101011000010110010011 ,
b0010011 -
10
1:
1>
b01011 L
b11111 M
b00000000000000000000000011111110 Q
b1111111111110101100001011 T
b00000000000000000000000000000000 V
b00000000000000000000000011111110 W
b01011 \
b00000 ^
b11001 _
b01 i
b00000000000000000000000000011100 2!
b00000000000000000000000000011000 3!
b000000011000 4!
b00010000000001011000000000100011 5!
16!
b00000000000000000000000011111110 9!
b00000000000000000000000000011100 ;!
#31
06!
#32
b00000000000000000000000000011100 $
b00000000000000000000000000011000 %
b00000000000000000000000000000000 '
b00000000000000000000000100000000 (
b11111111111111111111111111111111 )
b00000000000000000000000000011000 *
b00000000000000000000000000010100 +
b00010000000001011000000000100011 ,
b0100011 -
00
01
16
1<
b001 =
0>
1?
1E
b00000 M
b00000000000000000000000011111110 O
b00000000000000000000000000000000 Q
b0001000000000101100000000 T
b00000000000000000000000011111101 U
b00000000000000000000000000000000 W
b00000 \
b01011 ]
b00000 _
b01011 `
b11111 a
b00000000000000000000000011111110 d
b00000000000000000000000011111110 f
b11111111111111111111111111111111 g
b10 i
1j
b00000000000000000000000011111110 n
b00000000000000000000000000010011 o
b00000000000000000000000000100000 2!
b00000000000000000000000000011100 3!
b000000011100 4!
b11111110000001011001110011100011 5!
16!
b00000000000000000000000000100000 ;!
#33
06!
#34
b00000000000000000000000000100000 $
b00000000000000000000000000011100 %
b00000000000000000000000000011000 &
b11111111111111111111111111111000 (
b00000000000000000000000100000000 )
b00000000000000000000000000011100 *
b00000000000000000000000000011000 +
b11111110000001011001110011100011 ,
b1100011 -
b001 .
10
06
17
0:
b010 =
0?
1@
b001 B
0E
1F
1H
b1111111000000101100111001 T
b00000000000000000000000111111101 U
b00000000000000000000000011111101 V
1Z
b11001 \
b00000 ]
b01011 ^
b00000 a
b00000000000000000000000011111101 d
b00000000000000000000000011111101 f
b00000000000000000000000100000000 g
b01 h
b11 i
b10 k
b00000000000000000000000100011000 o
b00000000000000000000000000100100 2!
b00000000000000000000000000100000 3!
b000000100000 4!
b00000000000000001000000001100111 5!
16!
b00000000000000000000000000100100 ;!
#35
06!
#36
1#
b00000000000000000000000000100100 $
b00000000000000000000000000100000 %
b00000000000000000000000000011100 &
b00000000000000000000000000011000 '
b00000000000000000000000000000000 (
b11111111111111111111111111111000 )
b00000000000000000000000000100000 *
b00000000000000000000000000011100 +
b00000000000000001000000001100111 ,
b1100111 -
b000 .
b001 /
00
b10 2
07
18
1:
0<
b000 =
1>
0@
1A
b000 B
b001 C
0F
0H
1I
1K
b00001 L
b00000000000000000000000011111101 Q
b0000000000000000100000000 T
b00000000000000000000000011111101 U
b00000000000000000000000111111101 V
b00000000000000000000000011111101 W
1X
0Z
1[
b00000 \
b11001 ]
b00000 ^
b01011 _
1c
b00000000000000000000000000000000 g
b00 h
b10 i
b01 k
b00000000000000000000000000010100 n
b00000000000000000000000000010100 o
b00000000000000000000000000101000 2!
b00000000000000000000000000100100 3!
b000000100100 4!
b00000000000000010000010110110111 5!
16!
b00000000000000000000000000000100 9!
b00000000000000000000000000010100 ;!
#37
b00000000000000000000000011111101 {
06!
